# time rtt
0.000472068787 23.121000000000
0.211005210876 19.560000000000
0.419737100601 12.107000000000
0.628264904022 11.907000000000
0.836621046066 11.066000000000
1.043391704559 9.261000000000
1.253878831863 10.185000000000
1.461189985275 10.547000000000
1.668419122696 10.461000000000
1.876550912857 10.079000000000
2.083241224289 10.613000000000
2.294596910477 9.841000000000
2.502936363220 8.823000000000
2.713925838470 11.160000000000
2.926599264145 10.387000000000
3.134568691254 9.014000000000
3.345851898193 12.268000000000
3.551527738571 10.884000000000
3.765078783035 9.071000000000
3.974127054214 8.578000000000
4.186246156693 10.760000000000
4.394895076752 8.864000000000
4.607825040817 8.984000000000
4.816771507263 11.235000000000
5.025872945786 8.950000000000
5.235211372375 10.486000000000
5.442866086960 10.556000000000
5.651319265366 8.753000000000
5.859937429428 10.073000000000
6.072400808334 10.502000000000
6.278830289841 9.797000000000
6.487269639969 11.841000000000
6.694270849228 10.243000000000
6.905941963196 9.814000000000
7.113297939301 10.640000000000
7.322169542313 9.200000000000
7.534293889999 12.173000000000
7.741353750229 9.975000000000
7.948324918747 9.340000000000
8.154821872711 12.607000000000
8.360957145691 10.761000000000
8.566679954529 8.587000000000
8.772160530090 9.010000000000
8.978072881699 11.185000000000
9.184940099716 9.173000000000
9.390601873398 9.176000000000
9.597731828690 10.845000000000
9.809927940369 9.434000000000
10.019054889679 11.927000000000
10.232802152634 7.958000000000
10.441101074219 9.959000000000
10.654124975204 10.632000000000
10.877164602280 9.181000000000
11.088974237442 12.244000000000
11.299197912216 10.881000000000
11.508036613464 10.953000000000
11.715637207031 12.101000000000
11.923114061356 9.765000000000
12.133076429367 9.138000000000
12.342270851135 8.678000000000
12.559189081192 11.324000000000
12.773100376129 9.861000000000
12.983673095703 10.794000000000
13.194636344910 11.875000000000
13.408244848251 10.657000000000
13.617862939835 10.689000000000
13.827514648438 11.753000000000
14.037147045135 7.425000000000
14.246189355850 11.594000000000
14.462371349335 10.716000000000
14.672307968140 9.819000000000
14.882394313812 12.101000000000
15.094190359116 9.396000000000
15.306848764420 8.736000000000
15.515228033066 11.052000000000
15.723158597946 10.193000000000
15.934425354004 10.572000000000
16.152067899704 10.119000000000
16.361418962479 10.643000000000
16.567872285843 9.275000000000
16.777711153030 11.662000000000
16.990318059921 10.518000000000
17.197577476501 12.112000000000
17.403559207916 10.717000000000
17.612810373306 9.613000000000
17.819987773895 11.356000000000
18.026285648346 10.520000000000
18.230896234512 8.603000000000
18.437070846558 8.441000000000
18.643194437027 11.304000000000
18.850194692612 9.889000000000
19.056404113770 9.302000000000
19.270047187805 11.721000000000
19.477934122086 10.611000000000
19.685439348221 9.277000000000
19.893385648727 11.759000000000
20.102325916290 9.575000000000
20.311570167542 10.551000000000
20.520449876785 10.349000000000
20.728697061539 9.935000000000
20.938480377197 11.060000000000
21.147917032242 9.501000000000
21.356690645218 11.235000000000
21.566395521164 10.855000000000
21.775318384171 11.396000000000
21.984536647797 11.435000000000
22.196306467056 10.696000000000
22.405304670334 11.847000000000
22.613207817078 11.199000000000
22.820546865463 13.010000000000
23.028438806534 11.322000000000
23.238243818283 10.903000000000
23.446209192276 10.991000000000
23.661373138428 10.600000000000
23.871062278748 12.410000000000
24.080665349960 10.782000000000
24.290435075760 13.386000000000
24.499678611755 9.473000000000
24.709497213364 12.603000000000
24.918462514877 10.894000000000
25.127955198288 12.215000000000
25.337649106979 10.901000000000
25.549241542816 11.323000000000
25.759364366531 11.287000000000
25.965103864670 10.066000000000
26.170515537262 11.849000000000
26.376680612564 10.762000000000
26.584188699722 12.771000000000
26.793245792389 10.797000000000
27.001068115234 12.650000000000
27.209433555603 11.912000000000
27.416432142258 10.600000000000
27.622947216034 12.777000000000
27.829988956451 10.865000000000
28.037055969238 12.310000000000
28.243928909302 10.637000000000
28.454014539719 12.737000000000
28.664909362793 10.812000000000
28.874970674515 12.488000000000
29.084547281265 10.877000000000
29.294117212296 9.480000000000
29.503798484802 11.985000000000
29.713465690613 10.778000000000
29.922281265259 9.038000000000
30.130965709686 11.415000000000
30.339975118637 10.278000000000
30.545718669891 12.043000000000
30.752767562866 10.945000000000
30.959353923798 11.258000000000
31.167780637741 11.240000000000
31.378813028336 10.529000000000
31.588006258011 12.821000000000
31.794545888901 10.764000000000
32.002553224564 11.473000000000
32.211274147034 12.351000000000
32.421882390976 9.822000000000
32.628913402557 10.036000000000
32.835406303406 10.609000000000
33.042260169983 10.396000000000
33.248524904251 9.468000000000
33.459073305130 12.250000000000
33.665298938751 10.707000000000
33.870943307877 11.817000000000
34.076505422592 10.846000000000
34.286520481110 10.795000000000
34.495081186295 10.974000000000
34.704419851303 10.457000000000
34.910221815109 8.612000000000
35.115778207779 8.861000000000
35.326708078384 11.249000000000
35.537773609161 10.549000000000
35.745469093323 12.646000000000
35.954049587250 10.863000000000
36.162820816040 12.542000000000
36.373123168945 11.781000000000
36.584594964981 9.583000000000
36.799149990082 10.514000000000
37.011009693146 10.704000000000
37.221083164215 8.992000000000
37.430360078812 12.685000000000
37.639226198196 10.816000000000
37.849539995193 9.090000000000
38.057553768158 12.329000000000
38.265623807907 10.090000000000
38.473683357239 9.934000000000
38.681676864624 10.504000000000
38.890790462494 8.885000000000
39.097235918045 11.994000000000
39.305003881454 10.067000000000
39.510483503342 10.010000000000
39.715490818024 10.787000000000
39.921459674835 9.067000000000
40.127449989319 10.817000000000
40.334267139435 9.395000000000
40.539374113083 11.340000000000
40.747201681137 10.425000000000
40.952986717224 9.123000000000
41.158690929413 10.921000000000
41.365866184235 11.181000000000
41.582061052322 10.344000000000
41.797117948532 8.943000000000
42.004422664642 11.629000000000
42.213026523590 10.320000000000
42.426155805588 9.044000000000
42.636908531189 11.317000000000
42.847381114960 9.086000000000
43.057188749313 8.976000000000
43.266723871231 11.804000000000
43.476352930069 9.655000000000
43.685935497284 10.316000000000
43.895038127899 10.725000000000
44.103134155273 8.965000000000
44.312585830688 12.191000000000
44.522499799728 10.921000000000
44.731961488724 9.214000000000
44.941207408905 12.301000000000
45.152031660080 10.005000000000
45.361665964127 9.132000000000
45.574826240540 10.852000000000
45.787407875061 9.308000000000
45.998530387878 11.510000000000
46.210989713669 10.546000000000
46.421277284622 9.837000000000
46.630114078522 10.884000000000
46.836572647095 10.727000000000
47.044289112091 10.805000000000
47.250952959061 10.458000000000
47.457604885101 9.668000000000
47.664674758911 9.056000000000
47.875718832016 10.932000000000
48.087211132050 11.209000000000
48.298425674438 9.132000000000
48.507489681244 9.138000000000
48.714803218842 9.926000000000
48.921666622162 10.599000000000
49.128123998642 9.466000000000
49.335100412369 11.339000000000
49.541580200195 10.866000000000
49.748887062073 8.912000000000
49.959292173386 11.277000000000
50.167239189148 9.163000000000
50.378191232681 11.452000000000
50.589419126511 10.357000000000
50.799456834793 9.441000000000
51.009743690491 11.515000000000
51.219997644424 10.283000000000
51.431296110153 9.157000000000
51.641145229340 9.192000000000
51.851544618607 8.996000000000
52.061949491501 9.317000000000
52.272157430649 10.028000000000
52.482560396194 10.075000000000
52.696531057358 9.475000000000
52.908758878708 8.537000000000
53.116289377213 8.725000000000
53.324202537537 9.420000000000
53.531810045242 10.712000000000
53.742746353149 10.585000000000
53.956097841263 8.790000000000
54.164796113968 9.855000000000
54.373389720917 10.649000000000
54.580108642578 9.294000000000
54.786084413528 9.315000000000
54.993929862976 10.800000000000
55.205218791962 8.808000000000
55.414004325867 9.219000000000
55.623046398163 11.849000000000
55.834076642990 9.805000000000
56.045756578445 10.316000000000
56.252294301987 10.301000000000
56.459040403366 9.940000000000
56.668088912964 10.223000000000
56.875535011292 11.171000000000
57.082726240158 9.860000000000
57.292744398117 8.577000000000
57.500932455063 8.550000000000
57.707108259201 10.590000000000
57.914719820023 8.919000000000
58.129420042038 10.569000000000
58.343040227890 10.676000000000
58.552455425262 9.449000000000
58.761249303818 11.496000000000
58.970264673233 9.911000000000
59.179950952530 10.378000000000
59.389691591263 11.118000000000
59.598324775696 9.781000000000
59.808288097382 8.535000000000
60.018412590027 8.004000000000
60.229204177856 11.548000000000
60.440056562424 9.169000000000
60.651659488678 12.818000000000
60.857749223709 6.784000000000
61.069813489914 8.194000000000
61.279948711395 10.752000000000
61.494814157486 10.679000000000
61.702361106873 9.763000000000
61.910085439682 10.255000000000
62.118459701538 10.605000000000
62.327836513519 10.296000000000
62.540471553802 9.271000000000
62.750494480133 11.655000000000
62.959634304047 10.553000000000
63.173962354660 9.553000000000
63.380268335342 9.900000000000
63.586059331894 10.515000000000
63.794066190720 9.482000000000
64.003474950790 11.444000000000
64.210186719894 9.186000000000
64.414805650711 11.447000000000
64.623333692551 8.033000000000
64.829292535782 9.261000000000
65.035779476166 10.542000000000
65.244033575058 8.776000000000
65.450795888901 10.591000000000
65.664914846420 10.655000000000
65.871265172958 9.632000000000
66.083762168884 12.045000000000
66.292569160461 9.615000000000
66.499280691147 11.089000000000
66.708555221558 10.545000000000
66.915971755981 9.227000000000
67.127967596054 11.810000000000
67.332955121994 9.607000000000
67.539327621460 8.258000000000
67.748995304108 10.690000000000
67.964780092239 8.994000000000
68.176805973053 10.565000000000
68.390480995178 10.677000000000
68.599258661270 10.217000000000
68.805885076523 9.677000000000
69.018307924271 10.564000000000
69.226674795151 10.572000000000
69.432391643524 9.388000000000
69.637557268143 11.385000000000
69.843432426453 9.778000000000
70.049575567245 9.121000000000
70.255805492401 11.403000000000
70.462563991547 8.053000000000
70.668713331223 9.126000000000
70.874714136124 10.017000000000
71.080704689026 9.065000000000
71.289614915848 8.327000000000
71.497780799866 10.822000000000
71.704500436783 10.626000000000
71.916138887405 11.964000000000
72.130395889282 11.049000000000
72.336366415024 8.790000000000
72.542470216751 9.700000000000
72.752789258957 10.165000000000
72.964470148087 10.682000000000
73.171239852905 10.201000000000
73.385122060776 9.425000000000
73.603758573532 8.752000000000
73.812794923782 11.765000000000
74.023177385330 10.025000000000
74.238989591599 9.052000000000
74.447956800461 9.081000000000
74.666902542114 11.722000000000
74.877800226212 11.135000000000
75.088691949844 9.392000000000
75.301078081131 8.382000000000
75.511358976364 10.289000000000
75.721872806549 12.875000000000
75.929158210754 10.882000000000
76.134540796280 9.136000000000
76.344593524933 8.956000000000
76.557912349701 10.776000000000
76.766449451447 10.476000000000
76.977267503738 8.765000000000
77.183623790741 10.107000000000
77.389860391617 10.591000000000
77.604882717133 10.828000000000
77.814271688461 9.551000000000
78.020449399948 11.126000000000
78.226792812347 8.822000000000
78.435836553574 9.490000000000
78.643127202988 9.148000000000
78.851697683334 11.354000000000
79.060492277145 8.778000000000
79.267080307007 9.526000000000
79.479114532471 9.528000000000
79.685373306274 12.107000000000
79.891458988190 9.510000000000
80.099396944046 8.686000000000
80.307028532028 9.306000000000
80.514095067978 11.774000000000
80.724107980728 9.552000000000
80.933858633041 9.575000000000
81.143537759781 11.846000000000
81.353942871094 9.506000000000
81.565059900284 8.802000000000
81.774788618088 11.521000000000
81.982633590698 9.481000000000
82.193374156952 9.275000000000
82.406230926514 8.933000000000
82.614283084869 10.635000000000
82.824973344803 9.370000000000
83.033277511597 11.971000000000
83.241332530975 9.616000000000
83.449139833450 10.441000000000
83.657132625580 10.941000000000
83.866146087646 10.365000000000
84.075082063675 11.627000000000
84.284239053726 11.447000000000
84.490674018860 9.086000000000
84.695795297623 12.061000000000
84.901298046112 10.242000000000
85.113240957260 9.513000000000
85.327989339828 10.655000000000
85.535923004150 10.786000000000
85.747931718826 12.463000000000
85.956330537796 10.926000000000
86.166047811508 10.451000000000
86.371836662292 10.864000000000
86.577850341797 10.485000000000
86.786638975143 12.883000000000
86.997133016586 10.716000000000
87.211268901825 8.922000000000
87.425815582275 12.302000000000
87.636141300201 10.868000000000
87.845218181610 10.980000000000
88.053549289703 11.437000000000
88.259626150131 10.395000000000
88.469130516052 12.427000000000
88.682272672653 10.807000000000
88.897095680237 10.534000000000
89.106214761734 11.078000000000
89.318212985992 10.474000000000
89.529349088669 9.268000000000
89.740738391876 10.525000000000
89.954768657684 10.722000000000
90.169468641281 11.085000000000
90.377794504166 10.917000000000
90.593334674835 10.053000000000
90.803038835526 9.523000000000
91.011733531952 10.216000000000
91.224616289139 10.464000000000
91.431194543839 9.084000000000
91.640985727310 10.725000000000
91.849707841873 9.082000000000
92.057524204254 9.273000000000
92.267802715302 11.382000000000
92.476813077927 9.197000000000
92.689106225967 10.659000000000
92.895617961884 10.618000000000
93.101535320282 9.551000000000
93.308706760406 10.901000000000
93.519690513611 9.089000000000
93.729506015778 11.864000000000
93.938635349274 10.268000000000
94.146769285202 10.946000000000
94.354883432388 10.852000000000
94.568468332291 10.021000000000
94.780717849731 9.208000000000
94.992082595825 9.391000000000
95.201541185379 10.575000000000
95.409516096115 9.719000000000
95.618102073669 10.540000000000
95.829231262207 10.872000000000
96.049582481384 11.268000000000
96.268743276596 11.086000000000
96.478099107742 10.635000000000
96.686292648315 13.300000000000
96.895540237427 10.948000000000
97.110829353333 12.478000000000
97.326215744019 11.388000000000
97.535121917725 9.142000000000
97.745562791824 10.981000000000
97.956351280212 10.853000000000
98.165004491806 12.189000000000
98.373753070831 10.807000000000
98.581974506378 12.556000000000
98.790903806686 11.379000000000
99.005182504654 10.235000000000
99.215304851532 11.332000000000
99.423160076141 10.642000000000
99.632224798203 12.305000000000
99.840938091278 10.913000000000
100.047643899918 12.459000000000
100.257639169693 10.893000000000
100.467764854431 11.760000000000
100.681885957718 10.867000000000
100.888655900955 10.261000000000
101.098040342331 11.365000000000
101.305049657822 10.339000000000
101.515256166458 12.535000000000
101.722297191620 10.344000000000
101.932021141052 12.649000000000
102.140765428543 10.498000000000
102.349471569061 11.998000000000
102.555689096451 10.959000000000
102.761625051498 10.382000000000
102.967278718948 10.835000000000
103.177882432938 12.295000000000
103.390873908997 10.645000000000
103.599775314331 13.093000000000
103.810041189194 10.990000000000
104.018130302429 12.192000000000
104.225193977356 10.780000000000
104.435642719269 13.446000000000
104.647550344467 10.948000000000
104.863226175308 11.102000000000
105.076695919037 11.333000000000
105.293876647949 10.612000000000
105.508040428162 12.698000000000
105.715652942657 10.774000000000
105.922152996063 12.642000000000
106.128790378571 10.899000000000
106.335293769836 12.156000000000
106.543760538101 11.458000000000
106.751803874969 11.674000000000
106.956893682480 10.874000000000
107.171783685684 9.826000000000
107.383967876434 11.615000000000
107.596543073654 10.555000000000
107.808591365814 10.977000000000
108.017530679703 10.356000000000
108.229037284851 12.223000000000
108.436357021332 10.766000000000
108.643789291382 12.777000000000
108.857681274414 10.809000000000
109.068371295929 12.488000000000
109.274254798889 10.856000000000
109.483280658722 12.872000000000
109.693115472794 10.986000000000
109.899751901627 12.324000000000
110.104995489120 10.741000000000
110.311419248581 12.565000000000
110.516674280167 11.045000000000
110.721688032150 11.297000000000
110.927966117859 10.634000000000
111.134224414825 11.937000000000
111.340471982956 10.599000000000
111.547680377960 12.656000000000
111.757249116898 10.828000000000
111.963610887527 12.687000000000
112.172437191010 10.883000000000
112.378299474716 12.204000000000
112.584876537323 10.891000000000
112.791446685791 12.216000000000
112.996165752411 10.742000000000
113.203062534332 12.465000000000
113.411021709442 10.718000000000
113.618550062180 12.648000000000
113.827378988266 13.453000000000
114.034023284912 10.773000000000
114.240482091904 10.980000000000
114.452580928802 12.582000000000
114.663246631622 12.226000000000
114.883150815964 10.981000000000
115.094435691833 11.543000000000
115.303101301193 12.834000000000
115.516200542450 14.916000000000
115.733357429504 15.720000000000
115.941866397858 15.734000000000
116.150799512863 15.579000000000
116.364993810654 13.006000000000
116.579865217209 13.049000000000
116.793825149536 13.185000000000
117.008882045746 12.451000000000
117.220238208771 12.876000000000
117.429998636246 13.306000000000
117.637870550156 14.064000000000
117.844218254089 13.954000000000
118.051194429398 13.288000000000
118.257857799530 13.427000000000
118.465609312057 11.370000000000
118.673387527466 11.970000000000
118.884904623032 12.802000000000
119.092061996460 13.012000000000
119.299622535706 14.445000000000
119.506934404373 14.002000000000
119.717181205750 10.994000000000
119.930078029633 13.016000000000
