# time rtt
0.000472068787 18.666000000000
0.211005210876 121.818000000000
0.419737100601 128.691000000000
0.628264904022 89.607000000000
0.836621046066 61.317000000000
1.043391704559 22.758000000000
1.253878831863 11.765000000000
1.461189985275 9.445000000000
1.668419122696 10.636000000000
1.876550912857 9.050000000000
2.083241224289 9.621000000000
2.294596910477 9.645000000000
2.502936363220 10.176000000000
2.713925838470 9.107000000000
2.926599264145 12.143000000000
3.134568691254 9.857000000000
3.345851898193 9.655000000000
3.551527738571 10.417000000000
3.765078783035 9.166000000000
3.974127054214 11.944000000000
4.186246156693 10.396000000000
4.394895076752 10.412000000000
4.607825040817 8.934000000000
4.816771507263 9.171000000000
5.025872945786 10.095000000000
5.235211372375 9.599000000000
5.442866086960 11.416000000000
5.651319265366 9.858000000000
5.859937429428 11.821000000000
6.072400808334 10.747000000000
6.278830289841 8.966000000000
6.487269639969 11.548000000000
6.694270849228 11.540000000000
6.905941963196 9.534000000000
7.113297939301 10.481000000000
7.322169542313 10.791000000000
7.534293889999 9.356000000000
7.741353750229 11.889000000000
7.948324918747 9.463000000000
8.154821872711 11.075000000000
8.360957145691 11.225000000000
8.566679954529 9.687000000000
8.772160530090 11.242000000000
8.978072881699 11.734000000000
9.184940099716 9.282000000000
9.390601873398 10.647000000000
9.597731828690 10.566000000000
9.809927940369 9.640000000000
10.019054889679 11.464000000000
10.232802152634 10.442000000000
10.441101074219 9.719000000000
10.654124975204 11.081000000000
10.877164602280 10.302000000000
11.088974237442 9.497000000000
11.299197912216 11.029000000000
11.508036613464 9.240000000000
11.715637207031 12.415000000000
11.923114061356 9.937000000000
12.133076429367 11.959000000000
12.342270851135 11.906000000000
12.559189081192 9.637000000000
12.773100376129 9.621000000000
12.983673095703 10.760000000000
13.194636344910 9.104000000000
13.408244848251 11.886000000000
13.617862939835 10.984000000000
13.827514648438 8.994000000000
14.037147045135 11.503000000000
14.246189355850 10.096000000000
14.462371349335 9.068000000000
14.672307968140 11.609000000000
14.882394313812 9.629000000000
15.094190359116 10.151000000000
15.306848764420 10.645000000000
15.515228033066 9.536000000000
15.723158597946 11.571000000000
15.934425354004 10.413000000000
16.152067899704 9.035000000000
16.361418962479 10.485000000000
16.567872285843 10.526000000000
16.777711153030 8.976000000000
16.990318059921 11.331000000000
17.197577476501 9.352000000000
17.403559207916 11.438000000000
17.612810373306 10.239000000000
17.819987773895 8.861000000000
18.026285648346 9.342000000000
18.230896234512 11.730000000000
18.437070846558 10.880000000000
18.643194437027 9.004000000000
18.850194692612 12.053000000000
19.056404113770 9.731000000000
19.270047187805 8.594000000000
19.477934122086 9.540000000000
19.685439348221 10.895000000000
19.893385648727 9.424000000000
20.102325916290 9.051000000000
20.311570167542 10.682000000000
20.520449876785 9.501000000000
20.728697061539 9.383000000000
20.938480377197 10.524000000000
21.147917032242 10.655000000000
21.356690645218 9.983000000000
21.566395521164 11.487000000000
21.775318384171 10.618000000000
21.984536647797 10.355000000000
22.196306467056 9.663000000000
22.405304670334 10.455000000000
22.613207817078 10.770000000000
22.820546865463 11.231000000000
23.028438806534 11.325000000000
23.238243818283 10.656000000000
23.446209192276 9.214000000000
23.661373138428 11.951000000000
23.871062278748 12.746000000000
24.080665349960 10.626000000000
24.290435075760 10.881000000000
24.499678611755 11.555000000000
24.709497213364 10.861000000000
24.918462514877 12.445000000000
25.127955198288 11.771000000000
25.337649106979 11.113000000000
25.549241542816 13.457000000000
25.759364366531 10.903000000000
25.965103864670 10.758000000000
26.170515537262 11.496000000000
26.376680612564 10.107000000000
26.584188699722 11.885000000000
26.793245792389 10.272000000000
27.001068115234 11.958000000000
27.209433555603 10.336000000000
27.416432142258 11.411000000000
27.622947216034 10.810000000000
27.829988956451 12.818000000000
28.037055969238 10.462000000000
28.243928909302 11.355000000000
28.454014539719 13.261000000000
28.664909362793 10.792000000000
28.874970674515 11.888000000000
29.084547281265 11.152000000000
29.294117212296 10.994000000000
29.503798484802 11.065000000000
29.713465690613 10.689000000000
29.922281265259 11.094000000000
30.130965709686 11.364000000000
30.339975118637 10.808000000000
30.545718669891 11.435000000000
30.752767562866 10.767000000000
30.959353923798 10.311000000000
31.167780637741 10.244000000000
31.378813028336 10.614000000000
31.588006258011 9.352000000000
31.794545888901 11.553000000000
32.002553224564 8.613000000000
32.211274147034 11.604000000000
32.421882390976 12.069000000000
32.628913402557 9.572000000000
32.835406303406 10.349000000000
33.042260169983 10.417000000000
33.248524904251 11.355000000000
33.459073305130 11.596000000000
33.665298938751 10.677000000000
33.870943307877 9.777000000000
34.076505422592 10.344000000000
34.286520481110 9.079000000000
34.495081186295 12.088000000000
34.704419851303 10.847000000000
34.910221815109 13.150000000000
35.115778207779 10.772000000000
35.326708078384 9.275000000000
35.537773609161 11.778000000000
35.745469093323 10.489000000000
35.954049587250 8.952000000000
36.162820816040 10.768000000000
36.373123168945 9.549000000000
36.584594964981 11.489000000000
36.799149990082 10.544000000000
37.011009693146 9.693000000000
37.221083164215 11.770000000000
37.430360078812 8.998000000000
37.639226198196 10.647000000000
37.849539995193 10.581000000000
38.057553768158 9.473000000000
38.265623807907 10.855000000000
38.473683357239 10.515000000000
38.681676864624 9.538000000000
38.890790462494 10.828000000000
39.097235918045 9.051000000000
39.305003881454 12.281000000000
39.510483503342 10.877000000000
39.715490818024 11.432000000000
39.921459674835 11.234000000000
40.127449989319 10.501000000000
40.334267139435 10.173000000000
40.539374113083 10.734000000000
40.747201681137 9.414000000000
40.952986717224 11.831000000000
41.158690929413 9.029000000000
41.365866184235 11.677000000000
41.582061052322 10.176000000000
41.797117948532 8.996000000000
42.004422664642 11.571000000000
42.213026523590 9.422000000000
42.426155805588 10.186000000000
42.636908531189 10.615000000000
42.847381114960 9.566000000000
43.057188749313 11.863000000000
43.266723871231 9.933000000000
43.476352930069 10.671000000000
43.685935497284 11.477000000000
43.895038127899 10.127000000000
44.103134155273 10.532000000000
44.312585830688 10.269000000000
44.522499799728 10.371000000000
44.731961488724 9.136000000000
44.941207408905 8.520000000000
45.152031660080 11.293000000000
45.361665964127 9.275000000000
45.574826240540 10.807000000000
45.787407875061 10.416000000000
45.998530387878 11.468000000000
46.210989713669 10.496000000000
46.421277284622 9.865000000000
46.630114078522 10.570000000000
46.836572647095 9.240000000000
47.044289112091 13.303000000000
47.250952959061 9.662000000000
47.457604885101 10.466000000000
47.664674758911 10.539000000000
47.875718832016 9.435000000000
48.087211132050 11.543000000000
48.298425674438 9.887000000000
48.507489681244 9.323000000000
48.714803218842 12.056000000000
48.921666622162 10.172000000000
49.128123998642 10.186000000000
49.335100412369 10.663000000000
49.541580200195 9.456000000000
49.748887062073 11.265000000000
49.959292173386 8.834000000000
50.167239189148 12.597000000000
50.378191232681 7.726000000000
50.589419126511 8.574000000000
50.799456834793 11.901000000000
51.009743690491 11.533000000000
51.219997644424 9.172000000000
51.431296110153 8.964000000000
51.641145229340 11.136000000000
51.851544618607 9.223000000000
52.061949491501 9.603000000000
52.272157430649 11.291000000000
52.482560396194 10.105000000000
52.696531057358 9.377000000000
52.908758878708 12.147000000000
53.116289377213 10.593000000000
53.324202537537 9.834000000000
53.531810045242 10.174000000000
53.742746353149 10.574000000000
53.956097841263 10.290000000000
54.164796113968 8.491000000000
54.373389720917 9.504000000000
54.580108642578 10.676000000000
54.786084413528 9.425000000000
54.993929862976 11.855000000000
55.205218791962 9.159000000000
55.414004325867 8.695000000000
55.623046398163 11.271000000000
55.834076642990 12.424000000000
56.045756578445 9.997000000000
56.252294301987 10.057000000000
56.459040403366 10.237000000000
56.668088912964 9.339000000000
56.875535011292 12.044000000000
57.082726240158 10.327000000000
57.292744398117 10.076000000000
57.500932455063 8.951000000000
57.707108259201 9.197000000000
57.914719820023 10.678000000000
58.129420042038 9.545000000000
58.343040227890 11.474000000000
58.552455425262 10.789000000000
58.761249303818 9.094000000000
58.970264673233 11.618000000000
59.179950952530 7.021000000000
59.389691591263 10.646000000000
59.598324775696 10.479000000000
59.808288097382 9.299000000000
60.018412590027 11.526000000000
60.229204177856 10.246000000000
60.440056562424 9.528000000000
60.651659488678 10.098000000000
60.857749223709 10.627000000000
61.069813489914 9.334000000000
61.279948711395 8.997000000000
61.494814157486 9.886000000000
61.702361106873 10.584000000000
61.910085439682 9.174000000000
62.118459701538 9.357000000000
62.327836513519 11.428000000000
62.540471553802 6.929000000000
62.750494480133 11.122000000000
62.959634304047 8.615000000000
63.173962354660 12.619000000000
63.380268335342 10.540000000000
63.586059331894 9.381000000000
63.794066190720 11.405000000000
64.003474950790 9.593000000000
64.210186719894 8.758000000000
64.414805650711 11.768000000000
64.623333692551 10.237000000000
64.829292535782 8.544000000000
65.035779476166 11.884000000000
65.244033575058 9.754000000000
65.450795888901 10.090000000000
65.664914846420 10.634000000000
65.871265172958 10.378000000000
66.083762168884 11.453000000000
66.292569160461 11.361000000000
66.499280691147 9.356000000000
66.708555221558 10.396000000000
66.915971755981 10.056000000000
67.127967596054 9.042000000000
67.332955121994 11.309000000000
67.539327621460 8.637000000000
67.748995304108 9.800000000000
67.964780092239 11.802000000000
68.176805973053 9.553000000000
68.390480995178 9.875000000000
68.599258661270 10.848000000000
68.805885076523 9.548000000000
69.018307924271 12.233000000000
69.226674795151 9.869000000000
69.432391643524 10.053000000000
69.637557268143 10.560000000000
69.843432426453 9.453000000000
70.049575567245 9.732000000000
70.255805492401 10.902000000000
70.462563991547 9.208000000000
70.668713331223 10.664000000000
70.874714136124 10.241000000000
71.080704689026 8.976000000000
71.289614915848 8.594000000000
71.497780799866 10.827000000000
71.704500436783 10.552000000000
71.916138887405 8.879000000000
72.130395889282 8.297000000000
72.336366415024 10.729000000000
72.542470216751 8.854000000000
72.752789258957 8.602000000000
72.964470148087 11.354000000000
73.171239852905 12.486000000000
73.385122060776 9.872000000000
73.603758573532 9.881000000000
73.812794923782 10.076000000000
74.023177385330 10.681000000000
74.238989591599 9.486000000000
74.447956800461 8.730000000000
74.666902542114 9.237000000000
74.877800226212 10.201000000000
75.088691949844 9.248000000000
75.301078081131 9.097000000000
75.511358976364 11.347000000000
75.721872806549 10.321000000000
75.929158210754 9.891000000000
76.134540796280 10.399000000000
76.344593524933 10.887000000000
76.557912349701 10.126000000000
76.766449451447 9.001000000000
76.977267503738 9.703000000000
77.183623790741 10.357000000000
77.389860391617 13.416000000000
77.604882717133 8.649000000000
77.814271688461 10.508000000000
78.020449399948 10.525000000000
78.226792812347 8.963000000000
78.435836553574 10.804000000000
78.643127202988 9.524000000000
78.851697683334 11.392000000000
79.060492277145 10.407000000000
79.267080307007 8.895000000000
79.479114532471 8.431000000000
79.685373306274 10.735000000000
79.891458988190 9.005000000000
80.099396944046 11.667000000000
80.307028532028 10.250000000000
80.514095067978 8.421000000000
80.724107980728 11.944000000000
80.933858633041 10.799000000000
81.143537759781 10.506000000000
81.353942871094 9.702000000000
81.565059900284 10.685000000000
81.774788618088 9.110000000000
81.982633590698 11.356000000000
82.193374156952 10.163000000000
82.406230926514 8.952000000000
82.614283084869 11.286000000000
82.824973344803 9.224000000000
83.033277511597 11.473000000000
83.241332530975 10.507000000000
83.449139833450 9.213000000000
83.657132625580 10.851000000000
83.866146087646 9.033000000000
84.075082063675 11.693000000000
84.284239053726 10.372000000000
84.490674018860 9.486000000000
84.695795297623 10.836000000000
84.901298046112 9.108000000000
85.113240957260 12.632000000000
85.327989339828 11.415000000000
85.535923004150 11.082000000000
85.747931718826 11.577000000000
85.956330537796 10.899000000000
86.166047811508 12.484000000000
86.371836662292 12.070000000000
86.577850341797 9.133000000000
86.786638975143 10.855000000000
86.997133016586 10.646000000000
87.211268901825 9.020000000000
87.425815582275 12.259000000000
87.636141300201 10.311000000000
87.845218181610 9.502000000000
88.053549289703 10.719000000000
88.259626150131 10.373000000000
88.469130516052 10.341000000000
88.682272672653 10.751000000000
88.897095680237 9.479000000000
89.106214761734 11.272000000000
89.318212985992 10.482000000000
89.529349088669 9.458000000000
89.740738391876 11.440000000000
89.954768657684 10.687000000000
90.169468641281 10.924000000000
90.377794504166 11.272000000000
90.593334674835 10.636000000000
90.803038835526 9.373000000000
91.011733531952 11.473000000000
91.224616289139 10.159000000000
91.431194543839 9.090000000000
91.640985727310 10.706000000000
91.849707841873 9.294000000000
92.057524204254 12.181000000000
92.267802715302 10.820000000000
92.476813077927 9.407000000000
92.689106225967 11.370000000000
92.895617961884 10.401000000000
93.101535320282 9.352000000000
93.308706760406 10.857000000000
93.519690513611 9.235000000000
93.729506015778 11.872000000000
93.938635349274 10.163000000000
94.146769285202 9.771000000000
94.354883432388 9.773000000000
94.568468332291 10.714000000000
94.780717849731 9.086000000000
94.992082595825 10.853000000000
95.201541185379 10.481000000000
95.409516096115 9.107000000000
95.618102073669 11.318000000000
95.829231262207 10.445000000000
96.049582481384 8.798000000000
96.268743276596 11.318000000000
96.478099107742 8.985000000000
96.686292648315 11.353000000000
96.895540237427 12.333000000000
97.110829353333 10.775000000000
97.326215744019 10.677000000000
97.535121917725 11.572000000000
97.745562791824 10.608000000000
97.956351280212 11.362000000000
98.165004491806 10.765000000000
98.373753070831 12.055000000000
98.581974506378 12.228000000000
98.790903806686 12.633000000000
99.005182504654 9.566000000000
99.215304851532 12.127000000000
99.423160076141 10.701000000000
99.632224798203 12.697000000000
99.840938091278 10.627000000000
100.047643899918 12.208000000000
100.257639169693 10.960000000000
100.467764854431 10.588000000000
100.681885957718 11.860000000000
100.888655900955 10.620000000000
101.098040342331 10.850000000000
101.305049657822 12.008000000000
101.515256166458 11.531000000000
101.722297191620 9.470000000000
101.932021141052 10.794000000000
102.140765428543 10.521000000000
102.349471569061 11.537000000000
102.555689096451 12.022000000000
102.761625051498 10.890000000000
102.967278718948 10.080000000000
103.177882432938 11.532000000000
103.390873908997 9.370000000000
103.599775314331 10.856000000000
103.810041189194 10.740000000000
104.018130302429 11.507000000000
104.225193977356 10.407000000000
104.435642719269 11.901000000000
104.647550344467 10.948000000000
104.863226175308 12.362000000000
105.076695919037 10.817000000000
105.293876647949 11.490000000000
105.508040428162 11.029000000000
105.715652942657 10.753000000000
105.922152996063 11.421000000000
106.128790378571 13.569000000000
106.335293769836 10.708000000000
106.543760538101 12.199000000000
106.751803874969 10.996000000000
106.956893682480 11.554000000000
107.171783685684 10.653000000000
107.383967876434 12.830000000000
107.596543073654 10.778000000000
107.808591365814 12.421000000000
108.017530679703 10.576000000000
108.229037284851 11.386000000000
108.436357021332 10.624000000000
108.643789291382 11.133000000000
108.857681274414 11.410000000000
109.068371295929 11.949000000000
109.274254798889 10.685000000000
109.483280658722 10.899000000000
109.693115472794 12.798000000000
109.899751901627 10.297000000000
110.104995489120 11.300000000000
110.311419248581 13.345000000000
110.516674280167 10.723000000000
110.721688032150 12.643000000000
110.927966117859 10.980000000000
111.134224414825 11.916000000000
111.340471982956 10.597000000000
111.547680377960 12.627000000000
111.757249116898 10.829000000000
111.963610887527 12.560000000000
112.172437191010 10.535000000000
112.378299474716 10.763000000000
112.584876537323 12.805000000000
112.791446685791 10.543000000000
112.996165752411 11.573000000000
113.203062534332 13.324000000000
113.411021709442 10.821000000000
113.618550062180 13.060000000000
113.827378988266 15.262000000000
114.034023284912 10.972000000000
114.240482091904 11.666000000000
114.452580928802 12.714000000000
114.663246631622 13.480000000000
114.883150815964 10.801000000000
115.094435691833 10.849000000000
115.303101301193 12.352000000000
115.516200542450 14.758000000000
115.733357429504 10.915000000000
115.941866397858 13.685000000000
116.150799512863 14.741000000000
116.364993810654 10.865000000000
116.579865217209 12.934000000000
116.793825149536 12.459000000000
117.008882045746 12.847000000000
117.220238208771 14.427000000000
117.429998636246 15.525000000000
117.637870550156 10.862000000000
117.844218254089 11.770000000000
118.051194429398 12.828000000000
118.257857799530 13.952000000000
118.465609312057 10.727000000000
118.673387527466 14.429000000000
118.884904623032 12.906000000000
119.092061996460 13.056000000000
119.299622535706 12.981000000000
119.506934404373 12.952000000000
119.717181205750 12.990000000000
119.930078029633 14.020000000000
