# time delivery_rate
0.006927490234 18119984.000000000000
0.207061767578 9833232.000000000000
0.407061815262 7823976.000000000000
0.607061862946 7512320.000000000000
0.807061910629 9346640.000000000000
1.014871597290 10344008.000000000000
1.214875698090 10665432.000000000000
1.414875745773 10622648.000000000000
1.614875793457 11929968.000000000000
1.814876079559 10502264.000000000000
2.014876365662 10662984.000000000000
2.214876651764 10598352.000000000000
2.418200254440 10618992.000000000000
2.618200540543 10337088.000000000000
2.818200826645 10194616.000000000000
3.018201351166 10779568.000000000000
3.218201637268 10553688.000000000000
3.418201684952 10428512.000000000000
3.618201732635 10580200.000000000000
3.818206787109 10483256.000000000000
4.018206834793 10477328.000000000000
4.218206882477 10625080.000000000000
4.418207168579 10510840.000000000000
4.618207216263 9429928.000000000000
4.818207740784 9557752.000000000000
5.018209457397 9576520.000000000000
5.218209743500 10867808.000000000000
5.418209791183 10628736.000000000000
5.618209838867 7977960.000000000000
5.818209886551 10496312.000000000000
6.018209934235 10623864.000000000000
6.218210220337 8500456.000000000000
6.418210268021 10289568.000000000000
6.618212699890 10519432.000000000000
6.818212747574 10748816.000000000000
7.018212795258 9337224.000000000000
7.218212842941 8644776.000000000000
7.418213367462 7650616.000000000000
7.618213891983 10425072.000000000000
7.818214178085 10622648.000000000000
8.018214464188 8530184.000000000000
8.218214750290 10644608.000000000000
8.418214797974 10331320.000000000000
8.618215084076 10453688.000000000000
8.818215370178 10638904.000000000000
9.018215417862 10633616.000000000000
9.218215942383 10772472.000000000000
9.418215990067 10434464.000000000000
9.618216037750 10620208.000000000000
9.818216085434 10632400.000000000000
10.018216133118 9254504.000000000000
10.218216180801 10264448.000000000000
10.418216228485 10505120.000000000000
10.618216514587 8228000.000000000000
10.828194379807 10973848.000000000000
11.028216838837 9350552.000000000000
11.228217124939 10629960.000000000000
11.428217411041 10598352.000000000000
11.628217697144 8396480.000000000000
11.828217744827 10405096.000000000000
12.028217792511 10086824.000000000000
12.228217840195 9201864.000000000000
12.428218364716 10924432.000000000000
12.628218889236 10625080.000000000000
12.828218936920 9569160.000000000000
13.028218984604 10629960.000000000000
13.228219270706 7177192.000000000000
13.428219556808 10627520.000000000000
13.634871959686 10621024.000000000000
13.834872007370 8505920.000000000000
14.034872055054 10643144.000000000000
14.234872579575 9105128.000000000000
14.434872627258 10601984.000000000000
14.634872913361 10432504.000000000000
14.834873199463 9452032.000000000000
15.034873485565 10628496.000000000000
15.234873533249 9214672.000000000000
15.434873580933 10644608.000000000000
15.634873867035 10865768.000000000000
15.834873914719 10484440.000000000000
16.034874200821 9237632.000000000000
16.234874486923 9557752.000000000000
16.434874773026 8509040.000000000000
16.634874820709 10337088.000000000000
16.834875106812 10493936.000000000000
17.034876585007 9280984.000000000000
17.234876632690 10639056.000000000000
17.434876680374 10627520.000000000000
17.634876966476 10309976.000000000000
17.834877252579 8517640.000000000000
18.034877300262 10620208.000000000000
18.244865179062 10327872.000000000000
18.444865226746 8410200.000000000000
18.644865274429 10626304.000000000000
18.851528644562 10624272.000000000000
19.051528692245 10624272.000000000000
19.251529216766 10385504.000000000000
19.458198785782 10379928.000000000000
19.658198833466 7062336.000000000000
19.858198881149 10392960.000000000000
20.058198928833 10612912.000000000000
20.258199214935 10337088.000000000000
20.458204507828 10629960.000000000000
20.658204793930 10393896.000000000000
20.858205080032 10623864.000000000000
21.058205127716 10616560.000000000000
21.258205413818 9368912.000000000000
21.458205699921 10623864.000000000000
21.658205747604 10625080.000000000000
21.858205795288 10327872.000000000000
22.058445215225 9173016.000000000000
22.258445262909 8697512.000000000000
22.458445549011 10393896.000000000000
22.658446073532 10423512.000000000000
22.858446598053 8914192.000000000000
23.058446645737 9572416.000000000000
23.258446931839 10627520.000000000000
23.458447217941 10621432.000000000000
23.658447504044 8097864.000000000000
23.858447551727 10426640.000000000000
24.058447837830 10627520.000000000000
24.258448123932 10772056.000000000000
24.458448648453 8504352.000000000000
24.658448934555 11003264.000000000000
24.858448982239 8890248.000000000000
25.058449029922 10271776.000000000000
25.258449077606 9675096.000000000000
25.464859247208 10503216.000000000000
25.665436983109 10624864.000000000000
25.865437269211 10625080.000000000000
26.080670356750 9290552.000000000000
26.291532754898 10790864.000000000000
26.498614072800 10760240.000000000000
26.698614120483 10805968.000000000000
26.904870271683 10622648.000000000000
27.104916810989 10648688.000000000000
27.304916858673 10467864.000000000000
27.504916906357 9569160.000000000000
27.704917192459 10604168.000000000000
27.924869060516 10507976.000000000000
28.124869346619 10507024.000000000000
28.324869871140 10476616.000000000000
28.524869918823 10615344.000000000000
28.724869966507 10764544.000000000000
28.924870252609 9305480.000000000000
29.124870300293 8305424.000000000000
29.324870347977 10622648.000000000000
29.524870634079 9542008.000000000000
29.724888563156 10462736.000000000000
29.924888610840 10466680.000000000000
30.124888658524 10629960.000000000000
30.324888944626 10289568.000000000000
30.524888992310 10399728.000000000000
30.724889278412 8551440.000000000000
30.924889564514 10477328.000000000000
31.124889850616 8937576.000000000000
31.324889898300 10651952.000000000000
31.524889945984 9435784.000000000000
31.724889993668 9315640.000000000000
31.924890041351 10424760.000000000000
32.124890089035 10624592.000000000000
32.328194379807 9501896.000000000000
32.528194427490 10912856.000000000000
32.728194475174 10610480.000000000000
32.928197383881 10502264.000000000000
33.128197431564 10473776.000000000000
33.328197717667 10450152.000000000000
33.528197765350 10394824.000000000000
33.728198051453 10831224.000000000000
33.928198337555 10745824.000000000000
34.128198623657 10804288.000000000000
34.328232288361 9092616.000000000000
34.528232336044 10420384.000000000000
34.728232383728 7739432.000000000000
34.928232669830 10331784.000000000000
35.128232955933 10400896.000000000000
35.328233003616 9391160.000000000000
35.528233051300 10802944.000000000000
35.728233098984 10769552.000000000000
35.928233385086 10477328.000000000000
36.138203144073 10605624.000000000000
36.338203191757 10332472.000000000000
36.538203477859 10286600.000000000000
36.738203525543 9104232.000000000000
36.938203573227 10929584.000000000000
37.138203859329 10615344.000000000000
37.338204622269 10278608.000000000000
37.538218498230 10488000.000000000000
37.738218784332 10505832.000000000000
37.938410282135 9355944.000000000000
38.138412237167 9869640.000000000000
38.338412523270 10650728.000000000000
38.538412809372 10454872.000000000000
38.738981246948 10610480.000000000000
38.938981294632 9254504.000000000000
39.151532649994 10497504.000000000000
39.353442668915 10753584.000000000000
39.553442716599 7823056.000000000000
39.753442764282 10314072.000000000000
39.953442811966 10530904.000000000000
40.153442859650 10347472.000000000000
40.353442907333 10638904.000000000000
40.553442955017 10732248.000000000000
40.753443002701 10623864.000000000000
40.953443050385 10519216.000000000000
41.153443336487 10331320.000000000000
41.353443384171 10472592.000000000000
41.553443431854 10480880.000000000000
41.753443479538 8530184.000000000000
41.953443765640 9522400.000000000000
42.153443813324 10757048.000000000000
42.353444337845 10383416.000000000000
42.553444862366 10327872.000000000000
42.753445386887 8415544.000000000000
42.953445434570 9476088.000000000000
43.153445482254 10732880.000000000000
43.353445768356 10374112.000000000000
43.553445816040 8417832.000000000000
43.753445863724 10592296.000000000000
43.953446388245 10194936.000000000000
44.153446912766 10618992.000000000000
44.353446960449 10367152.000000000000
44.553447008133 10747816.000000000000
44.753447055817 10624592.000000000000
44.953447103500 10628736.000000000000
45.154777765274 10566928.000000000000
45.354777812958 10347472.000000000000
45.554778099060 12200104.000000000000
45.754778146744 10314072.000000000000
45.954778194427 8883432.000000000000
46.154778480530 10380960.000000000000
46.354778766632 10334776.000000000000
46.554778814316 10709808.000000000000
46.754866838455 10502264.000000000000
46.954867124557 11047576.000000000000
47.154867410660 10599560.000000000000
47.354880571365 8876624.000000000000
47.554880857468 10621672.000000000000
47.754880905151 10952840.000000000000
47.954881191254 10483256.000000000000
48.154881477356 8842744.000000000000
48.354881763458 10611944.000000000000
48.554882049561 10525168.000000000000
48.754882097244 10624592.000000000000
48.954882144928 10460768.000000000000
49.154917478561 10374760.000000000000
49.354917526245 9462328.000000000000
49.554917573929 10932168.000000000000
49.754917621613 10774560.000000000000
49.954917669296 8908192.000000000000
50.154917955399 8420128.000000000000
50.354918241501 8643968.000000000000
50.554918289185 10391096.000000000000
50.754918575287 10747816.000000000000
50.954918861389 10504640.000000000000
51.155650615692 10897456.000000000000
51.355650663376 8686912.000000000000
51.558213472366 9122456.000000000000
51.764878034592 10085096.000000000000
51.964878320694 10506072.000000000000
52.164878368378 7655672.000000000000
52.364878654480 10640944.000000000000
52.564878702164 10625896.000000000000
52.764885425568 10507024.000000000000
52.964885473251 9756584.000000000000
53.164885759354 10618856.000000000000
53.364885807037 8212688.000000000000
53.564885854721 10448976.000000000000
53.764885902405 10616560.000000000000
53.964885950089 10624272.000000000000
54.164885997772 11198168.000000000000
54.364886045456 10529944.000000000000
54.565057516098 10645968.000000000000
54.765057802200 10768296.000000000000
54.967745780945 10490376.000000000000
55.167745828629 8274280.000000000000
55.367745876312 10194936.000000000000
55.569745063782 10594712.000000000000
55.769745111465 9238688.000000000000
55.969745397568 9706352.000000000000
56.171536207199 10485360.000000000000
56.371542215347 10769552.000000000000
56.571542263031 8346680.000000000000
56.781530141830 10479696.000000000000
56.984952926636 10618992.000000000000
57.184953212738 10912856.000000000000
57.384953498840 10606432.000000000000
57.584953546524 10559704.000000000000
57.784953832626 10432896.000000000000
57.986998081207 10577784.000000000000
58.186998128891 10597376.000000000000
58.390224218369 10347472.000000000000
58.590224504471 10295576.000000000000
58.790224790573 10476144.000000000000
58.990225076675 9708160.000000000000
59.194862127304 7503800.000000000000
59.394868135452 10508928.000000000000
59.594868421555 10516568.000000000000
59.794868707657 10624592.000000000000
59.994868993759 10411408.000000000000
60.194869041443 12338168.000000000000
60.394869089127 10644608.000000000000
60.594869136810 10484440.000000000000
60.794869184494 8320128.000000000000
60.994869470596 10417264.000000000000
61.194869995117 10610480.000000000000
61.394870281219 10464312.000000000000
61.594870328903 10299176.000000000000
61.794912338257 10669120.000000000000
61.994912624359 10736856.000000000000
62.194912910461 10334776.000000000000
62.394912958145 10755800.000000000000
62.594913005829 10612912.000000000000
62.794913053513 10606840.000000000000
62.994913101196 10628736.000000000000
63.194913148880 8961320.000000000000
63.394913434982 10623864.000000000000
63.594913721085 10597136.000000000000
63.794913768768 9429928.000000000000
63.994914293289 10614128.000000000000
64.194914340973 10758016.000000000000
64.394914627075 10623624.000000000000
64.594914913177 10628736.000000000000
64.794915199280 9394968.000000000000
64.995182991028 10299632.000000000000
65.195183277130 10611296.000000000000
65.395212888718 10609672.000000000000
65.595212936401 10463136.000000000000
65.795212984085 10465496.000000000000
65.995775461197 11582552.000000000000
66.195775747299 9656904.000000000000
66.395775794983 10480880.000000000000
66.595775842667 9664960.000000000000
66.795776128769 10576096.000000000000
66.995776176453 9219256.000000000000
67.195776462555 10505832.000000000000
67.395776748657 10370632.000000000000
67.595777273178 6961536.000000000000
67.795777320862 10436032.000000000000
67.995777368546 10622648.000000000000
68.195777416229 10344008.000000000000
68.395777463913 10615344.000000000000
68.595777750015 10332472.000000000000
68.795809745789 10625568.000000000000
68.995809793472 10627520.000000000000
69.195810079575 10817736.000000000000
69.395810127258 10429768.000000000000
69.595810174942 8561712.000000000000
69.795810461044 10619728.000000000000
69.995810747147 10634840.000000000000
70.201533555984 7961512.000000000000
70.401533603668 9057072.000000000000
70.601533889771 10389232.000000000000
70.801534175873 9096184.000000000000
71.001534700394 10749808.000000000000
71.201534986496 10354408.000000000000
71.401535272598 10618992.000000000000
71.601535320282 9440912.000000000000
71.801535367966 10762048.000000000000
72.001535654068 9359184.000000000000
72.201535940170 10498456.000000000000
72.401539325714 10626304.000000000000
72.601539373398 10621432.000000000000
72.813896894455 10578992.000000000000
73.013897180557 10255360.000000000000
73.213897466660 10334776.000000000000
73.421537160873 10482072.000000000000
73.621537446976 10778320.000000000000
73.821537494659 10597136.000000000000
74.021537542343 11037632.000000000000
74.223734617233 10527424.000000000000
74.423734664917 10632400.000000000000
74.623734951019 10556096.000000000000
74.823734998703 8390728.000000000000
75.023735284805 10762048.000000000000
75.223735809326 10600776.000000000000
75.423738479614 8964784.000000000000
75.623738527298 10477328.000000000000
75.823738574982 9564768.000000000000
76.023738861084 10921856.000000000000
76.223739147186 10621432.000000000000
76.423739194870 10472592.000000000000
76.623739242554 8688216.000000000000
76.831522226334 10228696.000000000000
77.031522989273 10493704.000000000000
77.231523275375 10332472.000000000000
77.431537151337 10481144.000000000000
77.631537437439 10474960.000000000000
77.831537485123 10138528.000000000000
78.031537532806 10636056.000000000000
78.231537580490 8356136.000000000000
78.431537628174 10286824.000000000000
78.631538152695 10858640.000000000000
78.831538438797 10301464.000000000000
79.031538724899 10436032.000000000000
79.231539011002 9099760.000000000000
79.431539058685 10431336.000000000000
79.631539344788 10470224.000000000000
79.831539392471 9159376.000000000000
80.031539678574 10515608.000000000000
80.231540203094 10501312.000000000000
80.431540489197 9723944.000000000000
80.631540536880 10540488.000000000000
80.831540822983 9100656.000000000000
81.031541109085 10477328.000000000000
81.231541156769 10752056.000000000000
81.431541204453 10618752.000000000000
81.631541252136 10403232.000000000000
81.841525793076 10633376.000000000000
82.041890382767 10396224.000000000000
82.241890430450 8388880.000000000000
82.441890716553 10110160.000000000000
82.641890764236 8079976.000000000000
82.841891050339 9004272.000000000000
83.041891574860 8468720.000000000000
83.241892099380 9761520.000000000000
83.441892385483 10514656.000000000000
83.642009735107 9324744.000000000000
83.842010021210 10533776.000000000000
84.042062282562 10619400.000000000000
84.242062330246 10752168.000000000000
84.442062854767 9119464.000000000000
84.642063140869 10632400.000000000000
84.842063188553 10744824.000000000000
85.042063236237 9750016.000000000000
85.242063283920 10504168.000000000000
85.442063570023 10396696.000000000000
85.642063856125 10740840.000000000000
85.842064380646 8827920.000000000000
86.046989440918 10623864.000000000000
86.246989488602 10708568.000000000000
86.446989536285 10507976.000000000000
86.646989822388 10484832.000000000000
86.846999168396 10478512.000000000000
87.050353765488 10326720.000000000000
87.250353813171 10466680.000000000000
87.450354099274 10390272.000000000000
87.650354146957 8082800.000000000000
87.850354671478 10621432.000000000000
88.050354719162 10636056.000000000000
88.250354766846 10627520.000000000000
88.450354814529 9406408.000000000000
88.650354862213 9454608.000000000000
88.850354909897 10344704.000000000000
89.051530361176 10436032.000000000000
89.251530647278 7863328.000000000000
89.451530694962 10393896.000000000000
89.651544094086 9988664.000000000000
89.851544141769 10438384.000000000000
90.051544427872 10607080.000000000000
90.251544475555 10634840.000000000000
90.451544523239 9675728.000000000000
90.651544570923 10622648.000000000000
90.851544618607 10228192.000000000000
91.051544666290 10891760.000000000000
91.251544713974 10491696.000000000000
91.451544761658 10611696.000000000000
91.651544809341 10485624.000000000000
91.851545095444 10622648.000000000000
92.051545381546 10520384.000000000000
92.251545429230 10767464.000000000000
92.451545715332 10503320.000000000000
92.651546001434 10882672.000000000000
92.851546049118 9178040.000000000000
93.052693605423 10628408.000000000000
93.252693891525 10337088.000000000000
93.452693939209 8000000.000000000000
93.652693986893 10782080.000000000000
93.852694272995 10479696.000000000000
94.052694320679 10638496.000000000000
94.252694606781 10659304.000000000000
94.452694654465 10334776.000000000000
94.658186197281 9042928.000000000000
94.858191013336 10631424.000000000000
95.058191299438 9467144.000000000000
95.258191347122 9758232.000000000000
95.458194494247 10472592.000000000000
95.658194541931 10464312.000000000000
95.858194828033 10778320.000000000000
96.058195114136 9563008.000000000000
96.258195161819 10579960.000000000000
96.458195209503 10746816.000000000000
96.658195495605 10484200.000000000000
96.858195781708 10395760.000000000000
97.058195829391 10778320.000000000000
97.258195877075 10643792.000000000000
97.458195924759 10732880.000000000000
97.658196210861 10993640.000000000000
97.858196258545 10415560.000000000000
98.058196306229 10628496.000000000000
98.258196353912 8094088.000000000000
98.458196640015 10360328.000000000000
98.658196926117 10620208.000000000000
98.858196973801 10459592.000000000000
99.058197021484 10918000.000000000000
99.258197307587 9746736.000000000000
99.458197355270 10493936.000000000000
99.658197402954 8847472.000000000000
99.858197689056 10587448.000000000000
100.058197975159 8977520.000000000000
100.258198022842 8418600.000000000000
100.458198308945 10480880.000000000000
100.658198595047 10862712.000000000000
100.858198642731 10197176.000000000000
101.058198928833 10632400.000000000000
101.258199214935 10478512.000000000000
101.458199262619 9439944.000000000000
101.658199787140 10621672.000000000000
101.858200073242 8973880.000000000000
102.058200359344 10627520.000000000000
102.258200407028 10579960.000000000000
102.458200454712 10601584.000000000000
102.658200740814 9719472.000000000000
102.858200788498 9242904.000000000000
103.058200836182 10466680.000000000000
103.258201122284 9727640.000000000000
103.458201169968 7927000.000000000000
103.658201217651 9065176.000000000000
103.858201503754 10434464.000000000000
104.058287620544 9400048.000000000000
104.258287668228 11056312.000000000000
104.458287715912 7066640.000000000000
104.658287763596 10429768.000000000000
104.860409021378 10423120.000000000000
105.061519861221 10620208.000000000000
105.261519908905 9030008.000000000000
105.461519956589 9227824.000000000000
105.661520004272 10506072.000000000000
105.861520290375 10322120.000000000000
106.061520338058 10324416.000000000000
106.261520624161 11772352.000000000000
106.461521863937 7267248.000000000000
106.661521911621 9569592.000000000000
106.861522436142 9934816.000000000000
107.061522483826 10456048.000000000000
107.261522769928 8700776.000000000000
107.461539268494 10524208.000000000000
107.661539316177 10625080.000000000000
107.861539840698 10341696.000000000000
108.061539888382 8902776.000000000000
108.278183937073 8054928.000000000000
108.478217124939 9945480.000000000000
108.678217411041 10633376.000000000000
108.878217697144 10622648.000000000000
109.078221559525 10488000.000000000000
109.279160261154 10897456.000000000000
109.479160547256 10734960.000000000000
109.679161071777 10478512.000000000000
109.879187107086 9074808.000000000000
110.079187393188 10463136.000000000000
110.279187679291 10749808.000000000000
110.479187965393 10636056.000000000000
110.679188013077 10417264.000000000000
110.879188299179 10436032.000000000000
111.079188585281 10386440.000000000000
111.279222249985 10631424.000000000000
111.479222536087 10608056.000000000000
111.679222583771 10279520.000000000000
111.879222631454 10469040.000000000000
112.079222917557 10598352.000000000000
112.279223203659 10583824.000000000000
112.491523265839 10636392.000000000000
112.691532850266 9359544.000000000000
112.891533136368 10304896.000000000000
113.091533422470 7727816.000000000000
113.291533708572 10241128.000000000000
113.491533994675 9566632.000000000000
113.691534042358 9248168.000000000000
113.891534328461 9971160.000000000000
114.091534376144 9302544.000000000000
114.291534423828 10615344.000000000000
114.491534709930 10340544.000000000000
114.692306756973 9082816.000000000000
114.892307043076 10508928.000000000000
115.092307329178 10493808.000000000000
115.300399541855 9233032.000000000000
115.500399589539 10325568.000000000000
115.700400114059 9391704.000000000000
115.900400161743 6990944.000000000000
116.100400447845 8984488.000000000000
116.300400495529 10500360.000000000000
116.500400543213 10474960.000000000000
116.700400590897 10478512.000000000000
116.900400876999 10621432.000000000000
117.100401163101 9103848.000000000000
117.300401449203 9429928.000000000000
117.500401496887 10395760.000000000000
117.701526641846 9687640.000000000000
117.901526927948 10380856.000000000000
118.101527214050 9780472.000000000000
118.308191776276 9310824.000000000000
118.511586189270 10527080.000000000000
118.711630344391 10486816.000000000000
118.913657188416 10755800.000000000000
119.113657236099 9288424.000000000000
119.313657522202 8429976.000000000000
119.513657808304 10373416.000000000000
119.713658094406 10427808.000000000000
119.913658618927 8768448.000000000000
