# time pacing_rate
0.019232749939 314686624.000000000000
0.219232797623 102096736.000000000000
0.419233083725 71191864.000000000000
0.619233369827 69230952.000000000000
0.819233655930 56928152.000000000000
1.019233703613 70765216.000000000000
1.221934556961 63703496.000000000000
1.421935081482 64401592.000000000000
1.621935367584 63239896.000000000000
1.821935653687 63358904.000000000000
2.034869194031 71501568.000000000000
2.234869241714 59268736.000000000000
2.434869289398 42519840.000000000000
2.634869575500 57725728.000000000000
2.834869623184 56894256.000000000000
3.034869670868 62102936.000000000000
3.234870910645 68251792.000000000000
3.434871196747 59848584.000000000000
3.634871244431 59643384.000000000000
3.834871530533 60429808.000000000000
4.034871816635 59460712.000000000000
4.234872102737 58224416.000000000000
4.434872150421 58171704.000000000000
4.634905338287 60779232.000000000000
4.834905385971 64421960.000000000000
5.034905433655 61543096.000000000000
5.234905481339 63896144.000000000000
5.434905529022 67697912.000000000000
5.634905576706 61302408.000000000000
5.834905862808 65206208.000000000000
6.038193464279 68406640.000000000000
6.238193511963 54462744.000000000000
6.438193559647 68699992.000000000000
6.638193845749 57885024.000000000000
6.848202466965 62774664.000000000000
7.048202753067 63020736.000000000000
7.248202800751 64882512.000000000000
7.448202848434 61616592.000000000000
7.648203134537 64082472.000000000000
7.848203420639 67820056.000000000000
8.048203468323 57616448.000000000000
8.248203754425 60809136.000000000000
8.448204040527 67987464.000000000000
8.648204326630 58984328.000000000000
8.848204374313 60169264.000000000000
9.048204660416 64209168.000000000000
9.248204946518 64540104.000000000000
9.448208332062 65251528.000000000000
9.648208379745 58206176.000000000000
9.848208904266 61708808.000000000000
10.048208951950 57842360.000000000000
10.248208999634 62689424.000000000000
10.448209285736 60495792.000000000000
10.648209571838 69003720.000000000000
10.848209857941 71203992.000000000000
11.048210144043 72546256.000000000000
11.248210668564 63372240.000000000000
11.448211193085 65473296.000000000000
11.648211717606 86150112.000000000000
11.848275661469 48794528.000000000000
12.048275947571 48337992.000000000000
12.248276472092 66717904.000000000000
12.448276996613 64330288.000000000000
12.648277282715 57329216.000000000000
12.851525545120 65057440.000000000000
13.051536083221 69172544.000000000000
13.252408266068 69646192.000000000000
13.452408552170 68216680.000000000000
13.652409076691 64295088.000000000000
13.852409601212 60496824.000000000000
14.052409887314 60651984.000000000000
14.252409934998 61274832.000000000000
14.452410221100 64092648.000000000000
14.652410507202 67204640.000000000000
14.852410554886 60051280.000000000000
15.052410602570 65620320.000000000000
15.252411127090 50715488.000000000000
15.452411174774 58363096.000000000000
15.652455091476 60192256.000000000000
15.852455377579 61695640.000000000000
16.052461862564 67408024.000000000000
16.254861354828 66006256.000000000000
16.454861402512 61539568.000000000000
16.654861450195 61766624.000000000000
16.854861736298 65468944.000000000000
17.054862022400 68441968.000000000000
17.261530876160 64896880.000000000000
17.461538553238 70330664.000000000000
17.661538600922 65942528.000000000000
17.861540317535 70281912.000000000000
18.061540603638 58525432.000000000000
18.261540651321 64112472.000000000000
18.461540699005 62970776.000000000000
18.661540746689 67127064.000000000000
18.861540794373 66710496.000000000000
19.061540842056 70945800.000000000000
19.261541366577 64407464.000000000000
19.461541414261 64787320.000000000000
19.661541700363 59738656.000000000000
19.861698150635 72636440.000000000000
20.061698198318 62670248.000000000000
20.261718511581 65278872.000000000000
20.461719036102 65324264.000000000000
20.661719083786 63697792.000000000000
20.861719131470 63111560.000000000000
21.061730384827 65029624.000000000000
21.264882564545 92573248.000000000000
21.464882612228 79910064.000000000000
21.664882659912 64912064.000000000000
21.864883184433 61724176.000000000000
22.064883232117 67601344.000000000000
22.264883279800 63811408.000000000000
22.464883327484 56930384.000000000000
22.666604518890 59548272.000000000000
22.866610288620 59331984.000000000000
23.066610574722 65605824.000000000000
23.266610860825 64118344.000000000000
23.466610908508 65456512.000000000000
23.671540021896 63452016.000000000000
23.871540307999 59785704.000000000000
24.071540594101 57132688.000000000000
24.271540641785 62162536.000000000000
24.471540927887 63782744.000000000000
24.679817676544 61077248.000000000000
24.879817724228 60482088.000000000000
25.079817771912 60517744.000000000000
25.281532764435 61671200.000000000000
25.481533050537 61624096.000000000000
25.681533336639 61633736.000000000000
25.881533622742 65667272.000000000000
26.081533670425 59881744.000000000000
26.281533956528 67940160.000000000000
26.481534004211 67553392.000000000000
26.681534051895 61539080.000000000000
26.881534099579 62992728.000000000000
27.081534385681 67733056.000000000000
27.281534671783 61262032.000000000000
27.482221126556 63879456.000000000000
27.682221174240 62123320.000000000000
27.882531404495 60683672.000000000000
28.082531690598 61639600.000000000000
28.282531738281 61986576.000000000000
28.482531785965 64238712.000000000000
28.691525936127 61271792.000000000000
28.901524066925 59973784.000000000000
29.104859590530 62541384.000000000000
29.313647270203 63311352.000000000000
29.513647317886 59131768.000000000000
29.713647365570 65820576.000000000000
29.913647413254 63987896.000000000000
30.114859342575 65602248.000000000000
30.314859628677 58627224.000000000000
30.514859676361 66444376.000000000000
30.714859724045 62348784.000000000000
30.914860010147 59083200.000000000000
31.114860534668 56009824.000000000000
31.314861059189 55348808.000000000000
31.514879703522 59990584.000000000000
31.714879989624 59592592.000000000000
31.914880037308 68246440.000000000000
32.114880323410 70416856.000000000000
32.314880371094 63830328.000000000000
32.514880418777 63553320.000000000000
32.714880466461 63956520.000000000000
32.914880514145 64224376.000000000000
33.114880561829 62618224.000000000000
33.315706729889 58820688.000000000000
33.515706777573 58140448.000000000000
33.715706825256 54963712.000000000000
33.916547536850 65918168.000000000000
34.116547822952 66804464.000000000000
34.316547870636 65463968.000000000000
34.516547918320 60291336.000000000000
34.720617055893 64616208.000000000000
34.920617103577 61998120.000000000000
35.120617151260 71937656.000000000000
35.320617198944 60580488.000000000000
35.520618438721 60466064.000000000000
35.721539020538 63694608.000000000000
35.921539068222 61475176.000000000000
36.134863853455 64082712.000000000000
36.334864377975 60796384.000000000000
36.534864902496 62749808.000000000000
36.734864950180 60196976.000000000000
36.934865236282 64487264.000000000000
37.134882211685 65886144.000000000000
37.334882497787 59945944.000000000000
37.534882545471 61024624.000000000000
37.734882593155 65379816.000000000000
37.941840171814 63653032.000000000000
38.141840457916 68852944.000000000000
38.341840505600 65874648.000000000000
38.541840553284 66924992.000000000000
38.741840600967 57309888.000000000000
38.941845417023 62162648.000000000000
39.141845464706 59418552.000000000000
39.341845512390 61297272.000000000000
39.541849374771 60204992.000000000000
39.741855621338 62351808.000000000000
39.941855907440 65888600.000000000000
40.141855955124 61957608.000000000000
40.341856002808 57963984.000000000000
40.548197269440 98509600.000000000000
40.748197317123 59562992.000000000000
40.948197364807 63571656.000000000000
41.151176691055 61067616.000000000000
41.354879617691 68520440.000000000000
41.554879665375 72931480.000000000000
41.754893779755 67510328.000000000000
41.954895496368 64319496.000000000000
42.154895544052 66320608.000000000000
42.354895830154 59229576.000000000000
42.554896116257 65400136.000000000000
42.755194425583 64721536.000000000000
42.955194473267 62992176.000000000000
43.155194759369 62604464.000000000000
43.355195045471 66782032.000000000000
43.555195093155 64875800.000000000000
43.755195379257 66691184.000000000000
43.957012414932 61634424.000000000000
44.157012462616 63076848.000000000000
44.357012510300 63150624.000000000000
44.557012796402 57699328.000000000000
44.757012844086 62729808.000000000000
44.957013607025 74151720.000000000000
45.157013654709 62523272.000000000000
45.357013940811 60606752.000000000000
45.557013988495 66181616.000000000000
45.757014274597 58982024.000000000000
45.957014560699 69414336.000000000000
46.157014846802 65562072.000000000000
46.357015132904 61753456.000000000000
46.557015180588 64073976.000000000000
46.757015228271 62861768.000000000000
46.957015275955 62676416.000000000000
47.157015562057 64339128.000000000000
47.357015848160 59333584.000000000000
47.559340715408 72024864.000000000000
47.759341001511 63358640.000000000000
47.959358930588 61372184.000000000000
48.159358978271 59513952.000000000000
48.361544847488 60741440.000000000000
48.561544895172 55292704.000000000000
48.761544942856 61831536.000000000000
48.961544990540 62008440.000000000000
49.161545276642 67157816.000000000000
49.361545562744 67365152.000000000000
49.561545610428 65840216.000000000000
49.761595487595 62378032.000000000000
49.961595535278 63316984.000000000000
50.161595582962 60875592.000000000000
50.361595630646 59418432.000000000000
50.561595678329 65442696.000000000000
50.761595964432 43609640.000000000000
50.961596250534 60950320.000000000000
51.161596298218 59321024.000000000000
51.361596584320 60773632.000000000000
51.561596632004 66754680.000000000000
51.761596679688 65633864.000000000000
51.963422775269 63122688.000000000000
52.163422822952 67901240.000000000000
52.363423109055 60004120.000000000000
52.563423156738 59259104.000000000000
52.763423442841 61146512.000000000000
52.963423728943 63239896.000000000000
53.163423776627 64298640.000000000000
53.368955850601 61372184.000000000000
53.568956136703 58988912.000000000000
53.768956661224 56287304.000000000000
53.968957185745 59623176.000000000000
54.168957471848 63436416.000000000000
54.368957519531 64940752.000000000000
54.568957567215 62374896.000000000000
54.768957614899 65925200.000000000000
54.968957662582 65992640.000000000000
55.168958187103 60439320.000000000000
55.368958711624 61548384.000000000000
55.568959236145 60749848.000000000000
55.768959283829 65602960.000000000000
55.969287633896 65011736.000000000000
56.169287681580 62271768.000000000000
56.369287729263 64952672.000000000000
56.569288015366 59279360.000000000000
56.769288063049 57797008.000000000000
56.969288110733 63022864.000000000000
57.169324874878 59262664.000000000000
57.369325160980 59928416.000000000000
57.571556329727 61728568.000000000000
57.771556615829 65293192.000000000000
57.971556663513 63249624.000000000000
58.171609640121 65379552.000000000000
58.371609926224 62944048.000000000000
58.571610212326 69389792.000000000000
58.771610260010 63358696.000000000000
58.971631050110 60253400.000000000000
59.171631097794 61341312.000000000000
59.371637821198 64120904.000000000000
59.571637868881 60775360.000000000000
59.771638154984 57548328.000000000000
59.971638441086 62052192.000000000000
60.171638488770 60282632.000000000000
60.371638774872 55480496.000000000000
60.571638822556 68747464.000000000000
60.771676063538 67637912.000000000000
60.971676349640 60473648.000000000000
61.171676397324 62249432.000000000000
61.371676445007 61121072.000000000000
61.571676731110 68928160.000000000000
61.771677017212 63950768.000000000000
61.971677064896 64189552.000000000000
62.171677112579 59193976.000000000000
62.371677398682 59768688.000000000000
62.571677684784 60225504.000000000000
62.771678209305 60589096.000000000000
62.971678495407 60573024.000000000000
63.171678543091 65944048.000000000000
63.371678829193 66062792.000000000000
63.571679115295 61335056.000000000000
63.773081541061 59679704.000000000000
63.973081827164 67355720.000000000000
64.173082351685 63286584.000000000000
64.373082399368 61736640.000000000000
64.573082447052 63306056.000000000000
64.778187513351 66687632.000000000000
64.978187561035 65988912.000000000000
65.188241004944 61506016.000000000000
65.388241291046 58199736.000000000000
65.588241338730 63505952.000000000000
65.788241624832 56699936.000000000000
65.988241672516 57549184.000000000000
66.188241720200 60742912.000000000000
66.388242006302 57778984.000000000000
66.588242053986 63784992.000000000000
66.788242101669 61168720.000000000000
66.988249063492 60091376.000000000000
67.188249349594 64006584.000000000000
67.388249397278 59034584.000000000000
67.588249683380 59045552.000000000000
67.788249969482 60202152.000000000000
67.988250017166 60253288.000000000000
68.188250064850 60026840.000000000000
68.388250112534 45438584.000000000000
68.588250160217 57828800.000000000000
68.788250446320 59254768.000000000000
68.988250494003 59204256.000000000000
69.188250541687 63010312.000000000000
69.388250827789 64130816.000000000000
69.588251113892 60642240.000000000000
69.791524648666 57846824.000000000000
69.991524696350 60484456.000000000000
70.191524744034 64154288.000000000000
70.391524791718 63001496.000000000000
70.591524839401 64683640.000000000000
70.791525363922 59130136.000000000000
70.994854450226 61512560.000000000000
71.198188066483 66319480.000000000000
71.398188352585 56627344.000000000000
71.598188638687 61438112.000000000000
71.798202276230 62007968.000000000000
71.998202562332 63169928.000000000000
72.198202610016 50625360.000000000000
72.398203134537 56055952.000000000000
72.598203182220 61280512.000000000000
72.798203229904 55135600.000000000000
72.998203516006 46074608.000000000000
73.198203563690 54124784.000000000000
73.398203849792 48252968.000000000000
73.598204135895 59067392.000000000000
73.798204660416 61149704.000000000000
73.998205184937 65463328.000000000000
74.198212862015 50669488.000000000000
74.398212909698 62854880.000000000000
74.598212957382 62489000.000000000000
74.798213005066 61337440.000000000000
74.998213052750 59300136.000000000000
75.198213338852 60446680.000000000000
75.398213624954 58956112.000000000000
75.611540317535 63263760.000000000000
75.811540603638 59640656.000000000000
76.011540651321 58507176.000000000000
76.218185424805 64520904.000000000000
76.418185472488 55812976.000000000000
76.618186950684 64661592.000000000000
76.818214178085 66054768.000000000000
77.018214225769 62774160.000000000000
77.218214511871 62383104.000000000000
77.418214797974 63445440.000000000000
77.618215084076 60191328.000000000000
77.818215370178 58837416.000000000000
78.018215656281 62781528.000000000000
78.224871397018 61132856.000000000000
78.427291393280 60198024.000000000000
78.634861946106 56929656.000000000000
78.834861993790 58966832.000000000000
79.034862279892 80064704.000000000000
79.234862565994 60802696.000000000000
79.434862852097 59888840.000000000000
79.634862899780 57383176.000000000000
79.834867954254 62302904.000000000000
80.034868478775 62530704.000000000000
80.234878778458 62395376.000000000000
80.434879064560 66928640.000000000000
80.634879112244 64339416.000000000000
80.834879159927 63024312.000000000000
81.034879684448 63960032.000000000000
81.237232446671 63567880.000000000000
81.438203573227 65414488.000000000000
81.648206949234 59515176.000000000000
81.848228693008 58481664.000000000000
82.048228979111 63665448.000000000000
82.251047611237 65163632.000000000000
82.451047658920 66377816.000000000000
82.651048183441 61783472.000000000000
82.851048231125 69330672.000000000000
83.051048278809 65547072.000000000000
83.254836797714 65985552.000000000000
83.454836845398 60626688.000000000000
83.654836893082 65044504.000000000000
83.854836940765 66912272.000000000000
84.054837226868 60855568.000000000000
84.254837751389 61573312.000000000000
84.454837799072 52934096.000000000000
84.654837846756 56931224.000000000000
84.854838132858 58536792.000000000000
85.054838418961 64992256.000000000000
85.254879236221 65827640.000000000000
85.454879522324 64202952.000000000000
85.654879570007 66263968.000000000000
85.854879856110 60823400.000000000000
86.054880142212 61537632.000000000000
86.254880189896 68437512.000000000000
86.454880475998 63158224.000000000000
86.656771659851 64468640.000000000000
86.856771707535 63460800.000000000000
87.056771755219 50215488.000000000000
87.256772518158 56636816.000000000000
87.456772565842 63150952.000000000000
87.656772851944 62193296.000000000000
87.856773376465 62813264.000000000000
88.056773424149 64191040.000000000000
88.256773471832 64698984.000000000000
88.456773519516 60685080.000000000000
88.656773567200 62605528.000000000000
88.856773853302 54255840.000000000000
89.056774377823 56256640.000000000000
89.256774663925 53224080.000000000000
89.456774711609 57975744.000000000000
89.656774997711 60367592.000000000000
89.856775283813 70008640.000000000000
90.056775331497 63835728.000000000000
90.256775617599 73623760.000000000000
90.456776857376 62379128.000000000000
90.656776905060 59586864.000000000000
90.856777191162 64794488.000000000000
91.056777715683 67311560.000000000000
91.256778240204 62186760.000000000000
91.457206010818 64506888.000000000000
91.657212257385 57064032.000000000000
91.857212543488 48387632.000000000000
92.057212591171 65041984.000000000000
92.257235050201 58507176.000000000000
92.457235097885 55633152.000000000000
92.657235383987 63311352.000000000000
92.857235431671 64415464.000000000000
93.057235956192 67755072.000000000000
93.257236003876 67535616.000000000000
93.457236051559 64458136.000000000000
93.657236099243 60283952.000000000000
93.857236385345 61264176.000000000000
94.057236671448 60366080.000000000000
94.257236719131 60481240.000000000000
94.457237482071 65154088.000000000000
94.657238006592 63386104.000000000000
94.857238531113 65189416.000000000000
95.057238578796 66193008.000000000000
95.257238864899 67051048.000000000000
95.457238912582 63685256.000000000000
95.657238960266 67256424.000000000000
95.857239007950 68652760.000000000000
96.057239532471 67617256.000000000000
96.257240056992 58342472.000000000000
96.457240104675 61652888.000000000000
96.664859771729 64954776.000000000000
96.864859819412 66161648.000000000000
97.064859867096 60364920.000000000000
97.264860153198 61787048.000000000000
97.464860677719 58364272.000000000000
97.664860963821 60833728.000000000000
97.864861249924 61502920.000000000000
98.064861297607 60015488.000000000000
98.264861345291 65436912.000000000000
98.464884996414 64840680.000000000000
98.664901971817 65214128.000000000000
98.868186712265 67141848.000000000000
99.068186759949 61592064.000000000000
99.268190622330 64015192.000000000000
99.468190670013 62922896.000000000000
99.668190956116 63207632.000000000000
99.868191242218 61364440.000000000000
100.068191289902 59248680.000000000000
100.268191337585 66264152.000000000000
100.468191385269 60930496.000000000000
100.668191432953 58577248.000000000000
100.868191480637 73739744.000000000000
101.068191528320 66160080.000000000000
101.268191814423 87022632.000000000000
101.468191862106 61200800.000000000000
101.671521186829 60599128.000000000000
101.871521472931 60185384.000000000000
102.074865579605 61402160.000000000000
102.274865865707 60099960.000000000000
102.474865913391 61503104.000000000000
102.674865961075 64468808.000000000000
102.874866247177 56964648.000000000000
103.074866533279 60816648.000000000000
103.274866819382 65890320.000000000000
103.474866867065 65679736.000000000000
103.674867868423 61968528.000000000000
103.874867916107 64126144.000000000000
104.075433254242 62680568.000000000000
104.275433540344 67569808.000000000000
104.475433588028 61173592.000000000000
104.675433874130 66043776.000000000000
104.875433921814 57601528.000000000000
105.075434207916 57480144.000000000000
105.275434494019 60832312.000000000000
105.477977991104 61711440.000000000000
105.684854507446 61489064.000000000000
105.884854793549 59408528.000000000000
106.084854841232 59827696.000000000000
106.284855127335 64376840.000000000000
106.484855413437 63623120.000000000000
106.684855699539 62466728.000000000000
106.884902000427 69574656.000000000000
107.084902048111 64869464.000000000000
107.284902334213 65421736.000000000000
107.484902620316 65834248.000000000000
107.684902906418 61238056.000000000000
107.884902954102 63326104.000000000000
108.084903001785 61774896.000000000000
108.284903287888 59175688.000000000000
108.487196922302 64957008.000000000000
108.687196969986 62064712.000000000000
108.887197256088 61247536.000000000000
109.087197303772 61500520.000000000000
109.287197351456 60589528.000000000000
109.487197637558 64844432.000000000000
109.687197685242 62860760.000000000000
109.887198209763 63338928.000000000000
110.087198257446 57819936.000000000000
110.287198543549 64058984.000000000000
110.487198829651 63004152.000000000000
110.691521167755 62101544.000000000000
110.894857883453 58931896.000000000000
111.094857931137 63871216.000000000000
111.294857978821 64062440.000000000000
111.494877099991 68383416.000000000000
111.694877147675 64320896.000000000000
111.894877672195 70382360.000000000000
112.094877958298 63180960.000000000000
112.294878005981 63917456.000000000000
112.494878053665 64241832.000000000000
112.694878339767 59871872.000000000000
112.894878387451 60773712.000000000000
113.094878435135 59967088.000000000000
113.294878721237 65728152.000000000000
113.494879007339 64616176.000000000000
113.694879055023 60662656.000000000000
113.895779371262 66132256.000000000000
114.095779418945 59046600.000000000000
114.295792579651 62512816.000000000000
114.495792865753 71499048.000000000000
114.695793151855 65563952.000000000000
114.895793199539 64567288.000000000000
115.095793485641 57661424.000000000000
115.295793533325 60286504.000000000000
115.495793819427 58971968.000000000000
115.695794105530 62909248.000000000000
115.895794153214 58487976.000000000000
116.095986843109 63679936.000000000000
116.295986890793 60500808.000000000000
116.495987176895 52482552.000000000000
116.697951316833 60008848.000000000000
116.897951364517 56797024.000000000000
117.097951650620 60423664.000000000000
117.297992229462 64136832.000000000000
117.497999668121 65516224.000000000000
117.697999715805 66509864.000000000000
117.898000001907 47696128.000000000000
118.098000049591 59529672.000000000000
118.298000335693 64650856.000000000000
118.498000383377 64730144.000000000000
118.698000669479 61511480.000000000000
118.898000717163 69704960.000000000000
119.098000764847 57915128.000000000000
119.298001050949 63652216.000000000000
119.498001098633 63919280.000000000000
119.698001146317 65415528.000000000000
119.898001670837 58441800.000000000000
