# time backlog_bytes
-0.000583887100 579862.000000000000
0.208008527756 190764.000000000000
0.417269229889 98410.000000000000
0.622060775757 74186.000000000000
0.826150655746 81756.000000000000
1.030821323395 75700.000000000000
1.238905191422 68130.000000000000
1.444327592850 81756.000000000000
1.656473875046 68130.000000000000
1.862122774124 80242.000000000000
2.068869352341 71158.000000000000
2.278243541718 68130.000000000000
2.487172603607 80242.000000000000
2.708302259445 74186.000000000000
2.923300743103 80242.000000000000
3.127984523773 72672.000000000000
3.342370510101 81756.000000000000
3.546792745590 77214.000000000000
3.761737346649 83270.000000000000
3.970076084137 75700.000000000000
4.181262731552 75700.000000000000
4.388310432434 74186.000000000000
4.601570129395 84784.000000000000
4.807293653488 77214.000000000000
5.013638734818 84784.000000000000
5.220135450363 75700.000000000000
5.425231933594 78728.000000000000
5.630916595459 77214.000000000000
5.850492715836 77214.000000000000
6.063485383987 72672.000000000000
6.271389007568 69644.000000000000
6.477676153183 77214.000000000000
6.684486865997 81756.000000000000
6.894433498383 77214.000000000000
7.099509477615 80242.000000000000
7.306410551071 77214.000000000000
7.519188642502 87812.000000000000
7.724288225174 84784.000000000000
7.929723024368 90840.000000000000
8.138419628143 81756.000000000000
8.343238353729 81756.000000000000
8.547386884689 78728.000000000000
8.752105712891 72672.000000000000
8.956879138947 71158.000000000000
9.170891284943 78728.000000000000
9.376050472260 78728.000000000000
9.585097312927 81756.000000000000
9.804187774658 71158.000000000000
10.010279178619 72672.000000000000
10.222989797592 68130.000000000000
10.428411006927 77214.000000000000
10.655925989151 72672.000000000000
10.878948688507 81756.000000000000
11.088208198547 74186.000000000000
11.296594381332 84784.000000000000
11.506258726120 81756.000000000000
11.714669942856 83270.000000000000
11.923170804977 98410.000000000000
12.131523370743 77214.000000000000
12.339096546173 77214.000000000000
12.555352687836 81756.000000000000
12.769948482513 80242.000000000000
12.981133222580 90840.000000000000
13.189541101456 65102.000000000000
13.398483276367 81756.000000000000
13.606432676315 83270.000000000000
13.813150644302 77214.000000000000
14.020243406296 69644.000000000000
14.226884365082 78728.000000000000
14.436092138290 77214.000000000000
14.643711805344 75700.000000000000
14.850703954697 75700.000000000000
15.059906959534 74186.000000000000
15.269633769989 98410.000000000000
15.475567102432 65102.000000000000
15.682057857513 74186.000000000000
15.892338037491 89326.000000000000
16.105598449707 75700.000000000000
16.312973976135 90840.000000000000
16.518735647202 63588.000000000000
16.728127479553 72672.000000000000
16.938530206680 86298.000000000000
17.144376754761 80242.000000000000
17.348120450974 90840.000000000000
17.555747270584 77214.000000000000
17.761984825134 86298.000000000000
17.968252897263 86298.000000000000
18.175517082214 81756.000000000000
18.381331205368 68130.000000000000
18.587816238403 81756.000000000000
18.800339221954 71158.000000000000
19.007732629776 72672.000000000000
19.213428020477 75700.000000000000
19.420025825500 87812.000000000000
19.626763820648 69644.000000000000
19.834789276123 69644.000000000000
20.042201995850 74186.000000000000
20.250481367111 72672.000000000000
20.458658456802 89326.000000000000
20.666998624802 81756.000000000000
20.874301910400 68130.000000000000
21.082300901413 90840.000000000000
21.291163444519 83270.000000000000
21.499286413193 68130.000000000000
21.706751823425 84784.000000000000
21.914978504181 75700.000000000000
22.125722646713 74186.000000000000
22.333891153336 81756.000000000000
22.542300939560 78728.000000000000
22.754976749420 68130.000000000000
22.962604999542 65102.000000000000
23.176625251770 72672.000000000000
23.386579513550 72672.000000000000
23.595084905624 90840.000000000000
23.804305791855 77214.000000000000
24.013786077499 59046.000000000000
24.224620103836 78728.000000000000
24.434554100037 77214.000000000000
24.644134044647 90840.000000000000
24.854445457458 90840.000000000000
25.063475370407 63588.000000000000
25.273009300232 68130.000000000000
25.482446670532 81756.000000000000
25.692841529846 81756.000000000000
25.897649765015 86298.000000000000
26.103090763092 72672.000000000000
26.309918165207 68130.000000000000
26.529822826385 89326.000000000000
26.737822294235 98410.000000000000
26.947964906693 74186.000000000000
27.156629562378 72672.000000000000
27.364642858505 81756.000000000000
27.571926593781 86298.000000000000
27.780564546585 52990.000000000000
27.988815784454 63588.000000000000
28.195595026016 84784.000000000000
28.405066728592 83270.000000000000
28.614908933640 62074.000000000000
28.825468301773 74186.000000000000
29.035344600677 77214.000000000000
29.244776248932 65102.000000000000
29.455446958542 84784.000000000000
29.666511535645 81756.000000000000
29.876485347748 77214.000000000000
30.087525606155 77214.000000000000
30.298227548599 77214.000000000000
30.503884315491 80242.000000000000
30.711328506470 77214.000000000000
30.918242692947 65102.000000000000
31.128234386444 69644.000000000000
31.338220119476 86298.000000000000
31.547844171524 68130.000000000000
31.762471914291 78728.000000000000
31.969846248627 80242.000000000000
32.177323341370 74186.000000000000
32.394167661667 75700.000000000000
32.601037025452 87812.000000000000
32.808687925339 75700.000000000000
33.016553878784 77214.000000000000
33.224272012711 81756.000000000000
33.434501886368 81756.000000000000
33.651288747787 72672.000000000000
33.858511686325 81756.000000000000
34.065942764282 78728.000000000000
34.276387691498 68130.000000000000
34.485641241074 80242.000000000000
34.698256969452 83270.000000000000
34.904218912125 75700.000000000000
35.109332323074 89326.000000000000
35.320769786835 80242.000000000000
35.532673835754 77214.000000000000
35.740355491638 81756.000000000000
35.949602603912 75700.000000000000
36.158444881439 72672.000000000000
36.369528532028 72672.000000000000
36.582712173462 72672.000000000000
36.799084901810 78728.000000000000
37.012908458710 84784.000000000000
37.221593379974 69644.000000000000
37.428235530853 84784.000000000000
37.636512994766 78728.000000000000
37.843864679337 63588.000000000000
38.051415920258 77214.000000000000
38.259767770767 80242.000000000000
38.466988086700 65102.000000000000
38.675471782684 81756.000000000000
38.885106086731 86298.000000000000
39.089789867401 71158.000000000000
39.296873092651 72672.000000000000
39.502862691879 86298.000000000000
39.706982135773 75700.000000000000
39.912189245224 65102.000000000000
40.117717981339 77214.000000000000
40.325582027435 93868.000000000000
40.530171155930 68130.000000000000
40.739725589752 81756.000000000000
40.946019887924 95382.000000000000
41.152669906616 65102.000000000000
41.359394550323 81756.000000000000
41.582318305969 86298.000000000000
41.796950578690 72672.000000000000
42.006637096405 86298.000000000000
42.214364767075 81756.000000000000
42.427725553513 81756.000000000000
42.637526273727 86298.000000000000
42.845752716064 81756.000000000000
43.054232835770 77214.000000000000
43.260709762573 81756.000000000000
43.465880155563 72672.000000000000
43.670957088470 77214.000000000000
43.876316308975 95382.000000000000
44.081720113754 74186.000000000000
44.287222623825 77214.000000000000
44.493534326553 78728.000000000000
44.700483798981 68130.000000000000
44.906387329102 77214.000000000000
45.113511562347 89326.000000000000
45.321470975876 78728.000000000000
45.530036687851 81756.000000000000
45.737622261047 95382.000000000000
45.948132991791 62074.000000000000
46.158329248428 84784.000000000000
46.365034818649 90840.000000000000
46.571987628937 72672.000000000000
46.778088331223 71158.000000000000
46.983480691910 89326.000000000000
47.188589572906 77214.000000000000
47.393876075745 78728.000000000000
47.599054813385 84784.000000000000
47.804996490479 86298.000000000000
48.014102935791 68130.000000000000
48.220778465271 80242.000000000000
48.427824974060 83270.000000000000
48.633517265320 113550.000000000000
48.839842557907 69644.000000000000
49.045478105545 78728.000000000000
49.252182006836 86298.000000000000
49.458072900772 86298.000000000000
49.665760993958 71158.000000000000
49.873876810074 74186.000000000000
50.081368446350 90840.000000000000
50.292769908905 77214.000000000000
50.500968933105 90840.000000000000
50.709004163742 90840.000000000000
50.917464494705 84784.000000000000
51.125816345215 87812.000000000000
51.332237482071 75700.000000000000
51.539586782455 86298.000000000000
51.749415397644 68130.000000000000
51.957523345947 86298.000000000000
52.165796518326 75700.000000000000
52.374830484390 77214.000000000000
52.584397315979 66616.000000000000
52.793743848801 93868.000000000000
53.001064538956 71158.000000000000
53.209305763245 93868.000000000000
53.416189193726 72672.000000000000
53.625686168671 89326.000000000000
53.835219621658 66616.000000000000
54.045502424240 81756.000000000000
54.254125595093 74186.000000000000
54.465008497238 75700.000000000000
54.670583009720 86298.000000000000
54.876705884933 89326.000000000000
55.082273483276 78728.000000000000
55.292870283127 81756.000000000000
55.500473737717 90840.000000000000
55.707592487335 87812.000000000000
55.917034149170 69644.000000000000
56.127341270447 90840.000000000000
56.334292173386 84784.000000000000
56.540486574173 77214.000000000000
56.747408390045 84784.000000000000
56.953900814056 66616.000000000000
57.161388397217 77214.000000000000
57.369946002960 75700.000000000000
57.578556776047 81756.000000000000
57.784631729126 77214.000000000000
57.992572307587 71158.000000000000
58.200584650040 83270.000000000000
58.409138441086 63588.000000000000
58.618022441864 80242.000000000000
58.827289104462 72672.000000000000
59.036632299423 75700.000000000000
59.246290922165 95382.000000000000
59.456007957458 69644.000000000000
59.665854692459 90840.000000000000
59.874644994736 75700.000000000000
60.083605766296 89326.000000000000
60.293115377426 71158.000000000000
60.503596782684 86298.000000000000
60.708265304565 83270.000000000000
60.913248300552 86298.000000000000
61.122006177902 69644.000000000000
61.330809831619 89326.000000000000
61.536928176880 68130.000000000000
61.743238449097 77214.000000000000
61.949553251266 80242.000000000000
62.156136274338 81756.000000000000
62.363790988922 77214.000000000000
62.579161882401 81756.000000000000
62.785597801208 83270.000000000000
62.995753049850 89326.000000000000
63.202238082886 71158.000000000000
63.407820701599 86298.000000000000
63.613102197647 75700.000000000000
63.819689989090 89326.000000000000
64.026706933975 57532.000000000000
64.232790231705 77214.000000000000
64.437657356262 75700.000000000000
64.644134998322 77214.000000000000
64.850894927979 102952.000000000000
65.057952404022 84784.000000000000
65.265702724457 72672.000000000000
65.472630023956 80242.000000000000
65.682629346848 62074.000000000000
65.888689994812 68130.000000000000
66.094978094101 74186.000000000000
66.301554203033 71158.000000000000
66.507884025574 86298.000000000000
66.717206239700 63588.000000000000
66.924571990967 90840.000000000000
67.135495185852 74186.000000000000
67.341220617294 81756.000000000000
67.548352479935 56018.000000000000
67.758223533630 81756.000000000000
67.969828844070 81756.000000000000
68.182874679565 77214.000000000000
68.395125627518 95382.000000000000
68.603888988495 66616.000000000000
68.812642335892 87812.000000000000
69.024715185165 66616.000000000000
69.233130455017 92354.000000000000
69.438813924789 74186.000000000000
69.643927574158 77214.000000000000
69.849994182587 80242.000000000000
70.056654453278 98410.000000000000
70.263820171356 93868.000000000000
70.470172882080 93868.000000000000
70.676923274994 90840.000000000000
70.883041381836 81756.000000000000
71.089922666550 90840.000000000000
71.298263549805 90840.000000000000
71.505974531174 69644.000000000000
71.712886095047 84784.000000000000
71.923232793808 71158.000000000000
72.133815765381 84784.000000000000
72.339051246643 71158.000000000000
72.544286489487 75700.000000000000
72.754613399506 102952.000000000000
72.964663028717 81756.000000000000
73.171289443970 74186.000000000000
73.385616779327 86298.000000000000
73.603828907013 77214.000000000000
73.813353300095 84784.000000000000
74.024893760681 81756.000000000000
74.237917661667 81756.000000000000
74.447518348694 83270.000000000000
74.668688297272 86298.000000000000
74.878832817078 57532.000000000000
75.088192462921 77214.000000000000
75.303494930267 77214.000000000000
75.513430833817 84784.000000000000
75.722087860107 74186.000000000000
75.927259683609 72672.000000000000
76.131991147995 84784.000000000000
76.344622135162 81756.000000000000
76.556069850922 95382.000000000000
76.763619661331 81756.000000000000
76.976057767868 68130.000000000000
77.182308435440 77214.000000000000
77.388356924057 81756.000000000000
77.600286960602 83270.000000000000
77.807509899139 68130.000000000000
78.013902425766 72672.000000000000
78.219896078110 71158.000000000000
78.429444313049 72672.000000000000
78.637106657028 77214.000000000000
78.846307277679 63588.000000000000
79.054598569870 86298.000000000000
79.263015985489 68130.000000000000
79.472463846207 86298.000000000000
79.678062438965 62074.000000000000
79.884052276611 77214.000000000000
80.090678930283 86298.000000000000
80.297100305557 72672.000000000000
80.507291793823 75700.000000000000
80.718404054642 81756.000000000000
80.929980039597 86298.000000000000
81.138941526413 69644.000000000000
81.347204446793 86298.000000000000
81.557141304016 66616.000000000000
81.766017675400 86298.000000000000
81.973534345627 102952.000000000000
82.181975603104 66616.000000000000
82.391407489777 77214.000000000000
82.598195075989 60560.000000000000
82.808706760406 80242.000000000000
83.015655279160 86298.000000000000
83.223078012466 60560.000000000000
83.429733276367 86298.000000000000
83.636274814606 77214.000000000000
83.843829393387 77214.000000000000
84.051740884781 89326.000000000000
84.259234905243 77214.000000000000
84.468939542770 80242.000000000000
84.674234390259 77214.000000000000
84.879340887070 72672.000000000000
85.087723016739 77214.000000000000
85.299232244492 81756.000000000000
85.511985063553 75700.000000000000
85.720682382584 84784.000000000000
85.933766603470 78728.000000000000
86.140138387680 81756.000000000000
86.348474979401 86298.000000000000
86.553588390350 71158.000000000000
86.759181022644 71158.000000000000
86.971128225327 68130.000000000000
87.180660963058 90840.000000000000
87.390803813934 80242.000000000000
87.598362684250 93868.000000000000
87.804509401321 90840.000000000000
88.018080472946 86298.000000000000
88.232182025909 83270.000000000000
88.444095611572 69644.000000000000
88.654539346695 74186.000000000000
88.866887569427 81756.000000000000
89.083616018295 77214.000000000000
89.299573421478 95382.000000000000
89.513249158859 72672.000000000000
89.723261356354 77214.000000000000
89.936074972153 89326.000000000000
90.147921800613 83270.000000000000
90.353888988495 81756.000000000000
90.574394941330 72672.000000000000
90.787420511246 80242.000000000000
90.993438482285 71158.000000000000
91.207643270493 66616.000000000000
91.412496089935 74186.000000000000
91.618910551071 90840.000000000000
91.825236082077 81756.000000000000
92.031543016434 86298.000000000000
92.240319728851 81756.000000000000
92.449533462524 68130.000000000000
92.659988403320 80242.000000000000
92.865534782410 83270.000000000000
93.070019721985 75700.000000000000
93.287876844406 80242.000000000000
93.495074272156 74186.000000000000
93.714415073395 72672.000000000000
93.922865867615 77214.000000000000
94.129246950150 90840.000000000000
94.335136890411 57532.000000000000
94.549978256226 86298.000000000000
94.760333299637 84784.000000000000
94.968689203262 66616.000000000000
95.184874773026 84784.000000000000
95.398291826248 62074.000000000000
95.607766389847 69644.000000000000
95.823119163513 86298.000000000000
96.043949365616 84784.000000000000
96.258992433548 77214.000000000000
96.467259883881 89326.000000000000
96.674605369568 78728.000000000000
96.881436824799 90840.000000000000
97.098956823349 81756.000000000000
97.308761596680 71158.000000000000
97.514845132828 81756.000000000000
97.722126245499 75700.000000000000
97.929891824722 80242.000000000000
98.141169309616 68130.000000000000
98.347384929657 90840.000000000000
98.553549528122 69644.000000000000
98.768075227737 75700.000000000000
98.982003927231 81756.000000000000
99.199361085892 72672.000000000000
99.404100418091 81756.000000000000
99.610775470734 84784.000000000000
99.817789554596 80242.000000000000
100.022636175156 83270.000000000000
100.230209112167 77214.000000000000
100.436891555786 72672.000000000000
100.649485588074 84784.000000000000
100.855189561844 84784.000000000000
101.063477754593 81756.000000000000
101.276584148407 77214.000000000000
101.484542369843 60560.000000000000
101.700864553452 90840.000000000000
101.909399032593 81756.000000000000
102.116440057755 81756.000000000000
102.332983016968 86298.000000000000
102.537166595459 65102.000000000000
102.741266489029 86298.000000000000
102.945885419846 75700.000000000000
103.164243459702 63588.000000000000
103.384400129318 93868.000000000000
103.591434240341 86298.000000000000
103.799703598022 62074.000000000000
104.005583047867 80242.000000000000
104.212201118469 90840.000000000000
104.423714637756 78728.000000000000
104.633422136307 77214.000000000000
104.844459533691 71158.000000000000
105.057742834091 77214.000000000000
105.280124902725 80242.000000000000
105.489154338837 69644.000000000000
105.694048881531 81756.000000000000
105.899381637573 93868.000000000000
106.104143381119 63588.000000000000
106.309092521667 77214.000000000000
106.515524148941 90840.000000000000
106.733168125153 66616.000000000000
106.938028097153 84784.000000000000
107.149311780930 86298.000000000000
107.359506130219 68130.000000000000
107.565865755081 84784.000000000000
107.784851074219 92354.000000000000
107.990038633347 65102.000000000000
108.198392629623 86298.000000000000
108.410349845886 72672.000000000000
108.615831375122 72672.000000000000
108.825178623199 93868.000000000000
109.035086631775 71158.000000000000
109.240764617920 72672.000000000000
109.449596405029 77214.000000000000
109.659876585007 77214.000000000000
109.875229597092 77214.000000000000
110.080919265747 86298.000000000000
110.292052745819 68130.000000000000
110.497359275818 72672.000000000000
110.702489614487 81756.000000000000
110.908613443375 98410.000000000000
111.114866971970 74186.000000000000
111.321117401123 81756.000000000000
111.527918815613 107494.000000000000
111.738331556320 68130.000000000000
111.944162607193 80242.000000000000
112.151545047760 86298.000000000000
112.356688737869 66616.000000000000
112.561872482300 75700.000000000000
112.767048358917 78728.000000000000
112.971894264221 74186.000000000000
113.177480697632 77214.000000000000
113.384200096130 81756.000000000000
113.590997457504 92354.000000000000
113.797968864441 75700.000000000000
114.004401922226 75700.000000000000
114.209804534912 80242.000000000000
114.423476696014 77214.000000000000
114.638776540756 83270.000000000000
114.857077121735 75700.000000000000
115.071112155914 68130.000000000000
115.276585102081 84784.000000000000
115.486864805222 75700.000000000000
115.698441028595 86298.000000000000
115.904287576675 63588.000000000000
116.109627485275 72672.000000000000
116.320721149445 90840.000000000000
116.531880140305 65102.000000000000
116.739984750748 77214.000000000000
116.947935819626 84784.000000000000
117.158085584641 72672.000000000000
117.363993644714 72672.000000000000
117.570236921310 89326.000000000000
117.774987936020 81756.000000000000
117.980002403259 63588.000000000000
118.184540987015 77214.000000000000
118.390001535416 89326.000000000000
118.598002433777 63588.000000000000
118.812203645706 77214.000000000000
119.018066167831 80242.000000000000
119.224231481552 69644.000000000000
119.430097103119 87812.000000000000
119.638472795486 89326.000000000000
119.849826335907 66616.000000000000
