# time pacing_rate
0.015591382980 47.477984000000
0.223227977753 38.736624000000
0.429171800613 49.567568000000
0.636042594910 39.697424000000
0.840855360031 40.452056000000
1.045720577240 39.414760000000
1.250933408737 38.080944000000
1.456305027008 41.370088000000
1.662333965302 51.860336000000
1.868557214737 39.186088000000
2.075120687485 40.072640000000
2.280792474747 39.065960000000
2.487824916840 39.134872000000
2.696450233459 39.479584000000
2.905813932419 35.698472000000
3.114316940308 39.264008000000
3.327634334564 55.824800000000
3.537269592285 42.645936000000
3.745779037476 39.162928000000
3.951999902725 32.375488000000
4.158602237701 40.052384000000
4.365347862244 27.618912000000
4.573224067688 45.470936000000
4.780026912689 38.983312000000
4.986864805222 38.210112000000
5.193727970123 36.817536000000
5.400467157364 38.979408000000
5.606716632843 38.704304000000
5.813414812088 36.075144000000
6.020180463791 40.166888000000
6.227253913879 44.975360000000
6.433634519577 33.785656000000
6.640454053879 37.869464000000
6.847194433212 42.430288000000
7.053980827332 38.653592000000
7.260987997055 40.409296000000
7.467967987061 38.815496000000
7.678586959839 35.739536000000
7.885856151581 39.586864000000
8.092439651489 38.143160000000
8.298925161362 38.650768000000
8.508258342743 39.381456000000
8.715548276901 36.752208000000
8.925645351410 38.612656000000
9.133698225021 40.784304000000
9.342684030533 28.909384000000
9.550210714340 39.791176000000
9.757894515991 30.524304000000
9.968091249466 37.623912000000
10.175218343735 33.617896000000
10.384907484055 45.262464000000
10.591516733170 31.780728000000
10.798907041550 38.053352000000
11.009147167206 41.186912000000
11.217669248581 38.404184000000
11.428277015686 38.804896000000
11.637348651886 43.722112000000
11.846797466278 42.095536000000
12.054402112961 41.751632000000
12.265833139420 37.878192000000
12.475244045258 38.816784000000
12.683429241180 31.036144000000
12.893436670303 38.758536000000
13.100831031799 41.950224000000
13.308527946472 37.120240000000
13.515096902847 40.361296000000
13.722125053406 40.967240000000
13.931427240372 42.197016000000
14.138926744461 38.986480000000
14.348742723465 51.423120000000
14.559645414352 43.147048000000
14.768550395966 38.778416000000
14.975195884705 37.847472000000
15.181941509247 39.484896000000
15.388839244843 42.914960000000
15.595412731171 43.063720000000
15.805161237717 38.733760000000
16.012941598892 38.652472000000
16.220301389694 40.410848000000
16.429263591766 40.271872000000
16.636646032333 26.741232000000
16.844094038010 40.285216000000
17.051053524017 39.263168000000
17.257872581482 40.872840000000
17.465186595917 39.566048000000
17.672333240509 35.277088000000
17.879209518433 40.023240000000
18.092329502106 44.013808000000
18.300757408142 33.903296000000
18.508118867874 40.213072000000
18.715341806412 41.557568000000
18.922521114349 27.062016000000
19.129251956940 40.999808000000
19.335658788681 53.007592000000
19.542381525040 41.123584000000
19.748435497284 36.245136000000
19.955241680145 29.230000000000
20.162131786346 40.700152000000
20.369054555893 40.278184000000
20.576106786728 36.725384000000
20.783013582230 39.063512000000
20.990110635757 33.482848000000
21.197098493576 40.233856000000
21.403848886490 39.560512000000
21.610444545746 39.393760000000
21.817072629929 39.619008000000
22.024259328842 39.504352000000
22.231391668320 35.102376000000
22.438291072845 39.446080000000
22.645003080368 39.047760000000
22.852082252502 39.286776000000
23.058828353882 42.925304000000
23.265647172928 36.630664000000
23.473494291306 37.918296000000
23.680734395981 41.708264000000
23.886379241943 40.451136000000
24.092461109161 38.634792000000
24.298918008804 38.534872000000
24.506540775299 37.377504000000
24.713929176331 40.499000000000
24.920823097229 40.741256000000
25.127177000046 37.598472000000
25.333321332932 42.705272000000
25.541066884995 39.216128000000
25.747457027435 38.629568000000
25.953804492950 38.683408000000
26.159806489944 40.528168000000
26.367044448853 42.626480000000
26.574038982391 40.449720000000
26.781413078308 37.242592000000
26.987694501877 39.392248000000
27.194295406342 40.999120000000
27.402948856354 41.041016000000
27.608698606491 40.931352000000
27.815569400787 38.756680000000
28.023180484772 42.126184000000
28.230173587799 38.580896000000
28.437051773071 40.128088000000
28.643942594528 43.439288000000
28.851012945175 39.028152000000
29.058022975922 41.090704000000
29.264986753464 53.140224000000
29.471899271011 41.908192000000
29.679508924484 38.432888000000
29.886681795120 62.789360000000
30.093758344650 38.862000000000
30.301051378250 43.892376000000
30.508223295212 33.171440000000
30.714899063110 38.104264000000
30.921794891357 39.413928000000
31.129060983658 38.760664000000
31.336370468140 40.221208000000
31.543365955353 38.430112000000
31.749602079391 37.918976000000
31.956658363342 40.628064000000
32.163828611374 38.032280000000
32.371051549911 40.643384000000
32.578685522079 38.308552000000
32.785507440567 31.104264000000
32.992710590363 40.033840000000
33.199962615967 42.370152000000
33.408610105515 46.802128000000
33.615661621094 39.804568000000
33.821970939636 27.552008000000
34.028007030487 40.967904000000
34.234293222427 42.702704000000
34.440875291824 30.256128000000
34.646774291992 40.044136000000
34.852673292160 39.563496000000
35.058856487274 41.476184000000
35.264938592911 38.776656000000
35.471159696579 36.183880000000
35.677719116211 62.436800000000
35.884293317795 40.296616000000
36.090399742126 43.643312000000
36.296820163727 40.426304000000
36.503130197525 40.694760000000
36.709409713745 39.924968000000
36.915699243546 39.372432000000
37.122914314270 43.674968000000
37.330421686172 38.209072000000
37.536750078201 40.235312000000
37.742952108383 40.603112000000
37.949056863785 39.530680000000
38.155271530151 37.926464000000
38.361771106720 41.702624000000
38.569377899170 39.815008000000
38.776373386383 30.394312000000
38.982608556747 40.335376000000
39.188846826553 41.130272000000
39.395444393158 40.462120000000
39.601267337799 40.001576000000
39.807381868362 38.567576000000
40.013831615448 39.379032000000
40.219930171967 39.420248000000
40.426606893539 40.768544000000
40.633302688599 37.650728000000
40.839463710785 43.012648000000
41.045436859131 53.960576000000
41.252738952637 37.488400000000
41.459967136383 35.880192000000
41.666539430618 41.494920000000
41.873333692551 39.953136000000
42.080035209656 40.170440000000
42.285883903503 40.923472000000
42.493979692459 39.038528000000
42.700117588043 41.741416000000
42.908085107803 39.842992000000
43.114812135696 42.695056000000
43.321995019913 38.413264000000
43.528314113617 62.217944000000
43.734795570374 42.431304000000
43.941767454147 41.050712000000
44.148314237595 54.444312000000
44.354328870773 41.449992000000
44.560485601425 38.998368000000
44.766610860825 29.170160000000
44.972914218903 38.939856000000
45.180596351624 39.247584000000
45.387318849564 35.029120000000
45.593475580215 41.657016000000
45.799597740173 41.376968000000
46.005735397339 41.391688000000
46.211735725403 40.008840000000
46.417995691299 27.886896000000
46.624162673950 39.371696000000
46.830417394638 39.240680000000
47.037787199020 28.176104000000
47.244090318680 41.195544000000
47.450214862823 39.052552000000
47.656392097473 39.025872000000
47.862681627274 40.122088000000
48.069454431534 39.801240000000
48.276856660843 29.485552000000
48.483171701431 40.925544000000
48.690195083618 39.484480000000
48.896929025650 38.879056000000
49.103257894516 38.400624000000
49.309860944748 39.292072000000
49.516731500626 39.235712000000
49.722903728485 42.526344000000
49.929452419281 53.128904000000
50.136083364487 40.098456000000
50.343096733093 38.107216000000
50.550032615662 35.339040000000
50.757269382477 39.784224000000
50.964596271515 37.976944000000
51.171488285065 37.115024000000
51.378417730331 39.877296000000
51.585435152054 41.626632000000
51.792231082916 38.924184000000
51.998730421066 39.914784000000
52.207411289215 39.325144000000
52.414382219315 58.926816000000
52.620782613754 43.639688000000
52.827011346817 40.385056000000
53.033149480820 39.685272000000
53.239291429520 39.586352000000
53.445771694183 40.388752000000
53.654855012894 38.351056000000
53.862010955811 34.270632000000
54.067800045013 36.018544000000
54.273761987686 39.922376000000
54.479932785034 39.690400000000
54.686648607254 38.561776000000
54.893847227097 39.826800000000
55.101661920547 66.323856000000
55.309189319611 42.135792000000
55.516767740250 39.751136000000
55.725662231445 62.941704000000
55.931796312332 42.534864000000
56.138975858688 41.100024000000
56.346053123474 41.483456000000
56.553213119507 41.634736000000
56.760439395905 40.706416000000
56.967614412308 38.147688000000
57.174690246582 37.948264000000
57.381898403168 42.352608000000
57.588999032974 40.711080000000
57.796056985855 38.061056000000
58.003181457520 42.525640000000
58.211069107056 40.289832000000
58.416755437851 36.775240000000
58.623407363892 41.070704000000
58.830222845078 44.043480000000
59.037305831909 38.998176000000
59.243944168091 38.469432000000
59.450953245163 42.279296000000
59.657845020294 37.349904000000
59.864683151245 38.953400000000
60.070987701416 41.183576000000
60.277133941650 50.161536000000
60.483391284943 40.805192000000
60.690768003464 39.340272000000
60.897784709930 36.891168000000
61.104876995087 40.005176000000
61.312024831772 38.665864000000
61.519426107407 39.123504000000
61.726377010345 40.764808000000
61.933315992355 43.319592000000
62.140467643738 38.249152000000
62.348679780960 37.869464000000
62.557238101959 39.681136000000
62.764372110367 35.841648000000
62.973456621170 39.098096000000
63.179248809814 34.522128000000
63.385416746140 38.545704000000
63.592332839966 34.970560000000
63.798473119736 28.253232000000
64.004751682281 34.179288000000
64.210424423218 38.542512000000
64.417032957077 37.859872000000
64.624016761780 38.119816000000
64.831616878510 38.650904000000
65.037959575653 29.310688000000
65.244350433350 39.738192000000
65.450778245926 46.599920000000
65.656988859177 37.949624000000
65.865486383438 44.081608000000
66.071338176727 41.903320000000
66.278378248215 30.691440000000
66.485323905945 39.262512000000
66.691967964172 39.548840000000
66.898864746094 38.135936000000
67.105883359909 39.793720000000
67.313051700592 40.229008000000
67.520701885223 37.957808000000
67.727601766586 38.519072000000
67.934750080109 40.382888000000
68.141965389252 37.805672000000
68.349004983902 38.838736000000
68.556046962738 42.918936000000
68.763084411621 37.846984000000
68.969349861145 41.538464000000
69.175615787506 40.938008000000
69.382210254669 54.623392000000
69.588760852814 42.132752000000
69.795042514801 38.862088000000
70.001706123352 29.466888000000
70.207902669907 41.775504000000
70.414129734039 39.764112000000
70.620386123657 28.089512000000
70.826832294464 39.500928000000
71.032960891724 39.249888000000
71.241510152817 35.498160000000
71.452197551727 38.522248000000
71.658610343933 39.773384000000
71.865977287292 37.258360000000
72.074610948563 22.383896000000
72.280522108078 38.397584000000
72.487907409668 39.364560000000
72.693790912628 39.584128000000
72.900157928467 39.647056000000
73.106502056122 40.468664000000
73.313253164291 38.642280000000
73.519348859787 40.732344000000
73.725697755814 51.070320000000
73.931553840637 42.279968000000
74.137669801712 44.602240000000
74.343767881393 40.104888000000
74.549829244614 41.545304000000
74.756031751633 30.794240000000
74.962175607681 41.203984000000
75.168695449829 40.382888000000
75.375267505646 31.940008000000
75.585167407990 40.292728000000
75.792342185974 39.181144000000
75.998408794403 40.841616000000
76.204853534698 38.307400000000
76.411111831665 36.837432000000
76.617267370224 41.299088000000
76.823423147202 47.575256000000
77.029834270477 39.571704000000
77.236944675446 38.153272000000
77.443847417831 40.309584000000
77.650075435638 36.813680000000
77.856306552887 34.011040000000
78.063256978989 38.935952000000
78.269839525223 39.591664000000
78.476496934891 36.876648000000
78.682909488678 42.670872000000
78.889976024628 40.947424000000
79.097004890442 29.995432000000
79.303650856018 39.606104000000
79.510811328888 38.524344000000
79.718059301376 28.016000000000
79.924899101257 39.524320000000
80.131533861160 37.265384000000
80.338061094284 30.505112000000
80.545541286469 39.949128000000
80.752476930618 34.861888000000
80.959289312363 39.674600000000
81.166289091110 36.963744000000
81.373396396637 38.732448000000
81.580399990082 39.363936000000
81.787880420685 38.395112000000
81.997083902359 39.674056000000
82.202503204346 41.192248000000
82.408531665802 39.032040000000
82.615501403809 40.298424000000
82.822532892227 40.364712000000
83.029439687729 37.531688000000
83.236359119415 38.943656000000
83.443126201630 39.657080000000
83.650058507919 39.880736000000
83.857098102570 39.387664000000
84.064163446426 38.579840000000
84.271090269089 40.761072000000
84.478540658951 39.545248000000
84.684386253357 57.333264000000
84.890987634659 41.576184000000
85.098144769669 39.682904000000
85.305595636368 33.521936000000
85.512156248093 36.977584000000
85.719017267227 40.671960000000
85.925978183746 36.312784000000
86.133637666702 33.602976000000
86.340542078018 42.371256000000
86.547580718994 43.238784000000
86.754639863968 39.432736000000
86.961787700653 44.265864000000
87.168675899506 38.725176000000
87.375702142715 40.463992000000
87.582791805267 37.719960000000
87.789813995361 38.785192000000
87.996938228607 42.704016000000
88.203952312469 38.626032000000
88.410980701447 38.560408000000
88.618099689484 37.252472000000
88.825857877731 37.219632000000
89.032509803772 39.543064000000
89.239518880844 39.266640000000
89.446395635605 38.550864000000
89.653384685516 39.297008000000
89.860841512680 40.421432000000
90.067887067795 38.469480000000
90.274937391281 39.961232000000
90.482078790665 38.840840000000
90.689978361130 39.979928000000
90.896924018860 40.860352000000
91.103303670883 37.677616000000
91.310034751892 38.518592000000
91.516368389130 40.559960000000
91.723768711090 39.593160000000
91.930325269699 39.634464000000
92.137438535690 38.957192000000
92.344649314880 41.915160000000
92.551621198654 43.398920000000
92.758739233017 36.536768000000
92.965898513794 38.159680000000
93.173000574112 39.504392000000
93.379767894745 38.762088000000
93.586530208588 45.470016000000
93.793607950211 49.308848000000
94.000329971313 42.453672000000
94.207467079163 30.776856000000
94.414457321167 38.144880000000
94.621508359909 39.858920000000
94.828461408615 37.345592000000
95.035562753677 41.824880000000
95.242370843887 40.546808000000
95.449052810669 37.906456000000
95.658131361008 40.680304000000
95.864024639130 39.679600000000
96.070336341858 35.751632000000
96.276544570923 40.008464000000
96.483361721039 38.960544000000
96.690267801285 39.281664000000
96.896502494812 43.393768000000
97.102979660034 39.548208000000
97.309504270554 38.569632000000
97.515673875809 41.286248000000
97.721969842911 41.223376000000
97.929857730865 36.761800000000
98.136263847351 42.689592000000
98.342642545700 59.859904000000
98.548975944519 40.366032000000
98.755489826202 40.124984000000
98.962250947952 38.996224000000
99.169187307358 38.302008000000
99.375930786133 40.058136000000
99.582687854767 39.442984000000
99.789081573486 40.816848000000
99.995505094528 39.301096000000
100.203296899796 39.719552000000
100.411262035370 40.736240000000
100.617998600006 38.088216000000
100.824846982956 40.832520000000
101.032054662704 40.761816000000
101.239016532898 38.810224000000
101.449828147888 38.103104000000
101.657474756241 40.503600000000
101.863490819931 39.895800000000
102.069349765778 41.989480000000
102.275887966156 39.462336000000
102.481996536255 37.937360000000
102.687846899033 38.697616000000
102.893860101700 41.387416000000
103.100472211838 39.639080000000
103.310646533966 39.586256000000
103.516851186752 28.495784000000
103.722670078278 39.547752000000
103.928750991821 39.727800000000
104.135577917099 39.454640000000
104.341584205627 40.494080000000
104.548109292984 38.345304000000
104.754226207733 33.315272000000
104.961722373962 38.371408000000
105.168442726135 31.951264000000
105.375912427902 30.094888000000
105.582013845444 28.526648000000
105.788069725037 39.432224000000
105.994066953659 40.596768000000
106.199877977371 19.976200000000
106.406065225601 28.031184000000
106.611957073212 28.118216000000
106.817898988724 28.780120000000
107.023995876312 38.659992000000
107.230036497116 38.351632000000
107.436105728149 39.169912000000
107.642151117325 44.469000000000
107.848176479340 44.179920000000
108.054131031036 39.647536000000
108.260112047195 38.546408000000
108.467133045197 39.404280000000
108.673135995865 42.698768000000
108.879040241241 37.399488000000
109.085230350494 38.898896000000
109.291091442108 42.211576000000
109.496533393860 38.172448000000
109.702737808228 38.878824000000
109.909811973572 40.037992000000
110.117487192154 29.084128000000
110.323613405228 38.033520000000
110.529851913452 39.577064000000
110.736360788345 39.816104000000
110.943565845490 37.186224000000
111.150556087494 41.808344000000
111.357277393341 41.218672000000
111.564399957657 38.832616000000
111.771199464798 42.125712000000
111.977356433868 42.615976000000
112.183822393417 29.047368000000
112.391168355942 37.951584000000
112.598074197769 50.211336000000
112.804339408875 42.927360000000
113.010839700699 39.127328000000
113.218303918839 43.776296000000
113.425027608871 40.797704000000
113.630733728409 39.192304000000
113.838741064072 40.459872000000
114.045926809311 37.264928000000
114.253074884415 43.066240000000
114.459698438644 39.214536000000
114.666703701019 41.221296000000
114.874212980270 38.947552000000
115.080069065094 40.307992000000
115.287110567093 37.013600000000
115.493979692459 40.759112000000
115.700827598572 39.322176000000
115.909142494202 37.160064000000
116.115993261337 39.831728000000
116.322944879532 41.704688000000
116.530621290207 36.786768000000
116.736291408539 37.937136000000
116.943642854691 39.027200000000
117.150583744049 29.517720000000
117.356924772263 38.285888000000
117.564192533493 41.025040000000
117.771311283112 38.905760000000
117.977113246918 41.772512000000
118.184039354324 40.639424000000
118.390849113464 54.337784000000
118.597573518753 41.897672000000
118.805182218552 38.279312000000
119.012287378311 28.412864000000
119.219258308411 40.322120000000
119.426222324371 42.726672000000
119.634060382843 27.600768000000
119.841240644455 39.633664000000
