# time pacing_rate
0.229569196701 4.782104000000
0.434272050858 6.794192000000
0.639236211777 9.256008000000
0.844320535660 8.495616000000
1.049779653549 8.477144000000
1.255089282990 7.719232000000
1.460342884064 6.943624000000
1.666606903076 6.313952000000
1.872094392776 5.456208000000
2.078372478485 5.579904000000
2.283752679825 8.469912000000
2.490794420242 6.893608000000
2.698374986649 6.498504000000
2.906333923340 5.476864000000
3.118237495422 5.590552000000
3.330690860748 7.423752000000
3.539581775665 8.203824000000
3.748841524124 6.084992000000
3.956258296967 8.145592000000
4.162696361542 5.627280000000
4.369555234909 6.066408000000
4.577141284943 6.698120000000
4.785681009293 8.314760000000
4.993454933167 3.671632000000
5.199302911758 6.004664000000
5.406091690063 4.925704000000
5.612027168274 5.274888000000
5.818885087967 4.092720000000
6.025504827499 4.932160000000
6.234008073807 8.336128000000
6.440623998642 5.835536000000
6.646645307541 5.987368000000
6.853127717972 6.132208000000
7.060013532639 5.876472000000
7.266407728195 5.855120000000
7.474060535431 7.957032000000
7.682764291763 6.336976000000
7.891211748123 6.207184000000
8.098773241043 5.527016000000
8.304438114166 5.885928000000
8.510804891586 4.093768000000
8.719521999359 5.582704000000
8.927266836166 7.069632000000
9.136451959610 5.953784000000
9.343976259232 7.658208000000
9.550925016403 6.184728000000
9.757483959198 5.514888000000
9.966598749161 7.327848000000
10.174555778503 4.747904000000
10.383832931519 6.318760000000
10.591728925705 6.356608000000
10.799372911453 5.598312000000
11.008870363235 4.765080000000
11.218600988388 5.627512000000
11.427577257156 4.187256000000
11.636859416962 7.684560000000
11.847045421600 8.461720000000
12.054540872574 5.863608000000
12.266126155853 6.033200000000
12.475532293320 5.370784000000
12.684018850327 6.685688000000
12.893608808517 8.648976000000
13.102749586105 8.924560000000
13.310092687607 4.648848000000
13.516498565674 7.740080000000
13.723208665848 7.110016000000
13.931940793991 5.489640000000
14.140283346176 5.589496000000
14.347949028015 6.441144000000
14.555806159973 4.354584000000
14.763745069504 8.214040000000
14.970951080322 6.762896000000
15.178715705872 6.426320000000
15.386199235916 5.996080000000
15.593712329865 7.678936000000
15.802141189575 5.648952000000
16.010346651077 6.512184000000
16.217876434326 8.672584000000
16.424875259399 6.049576000000
16.632499217987 6.496304000000
16.839454889297 5.616552000000
17.047284841537 6.428560000000
17.254465579987 4.173744000000
17.461691617966 5.635208000000
17.668688774109 7.376800000000
17.878970384598 7.180904000000
18.088879108429 6.478592000000
18.297554969788 5.876240000000
18.504507303238 9.671488000000
18.710808277130 5.654520000000
18.917318105698 6.758864000000
19.123674392700 7.668568000000
19.329836130142 6.099344000000
19.535872936249 9.437408000000
19.742622852325 5.654120000000
19.948618173599 6.528680000000
20.154778242111 9.727256000000
20.360807418823 6.175128000000
20.567198991776 6.852832000000
20.773475170135 8.055704000000
20.979634761810 6.761576000000
21.185817241669 7.473112000000
21.392116785049 5.817632000000
21.598793983459 8.477480000000
21.808521509171 8.567072000000
22.019374608994 5.979480000000
22.226098299026 5.798096000000
22.432243347168 7.129448000000
22.638354063034 4.788256000000
22.844466447830 7.706392000000
23.050528526306 6.313520000000
23.256664276123 5.729552000000
23.462835073471 6.528568000000
23.668886184692 4.178176000000
23.875093460083 5.604592000000
24.081192016602 8.206328000000
24.288950920105 7.333384000000
24.495469808578 6.713416000000
24.701917648315 6.147936000000
24.908405065536 5.535128000000
25.114984273911 5.869648000000
25.320944547653 6.348552000000
25.527061939240 7.321296000000
25.733198881149 6.082000000000
25.939330816269 10.934344000000
26.145408391953 5.635040000000
26.351451396942 6.618704000000
26.557638883591 9.570256000000
26.764112472534 6.166224000000
26.970186948776 6.698776000000
27.176517009735 4.163624000000
27.382645130157 6.837240000000
27.588762044907 8.973864000000
27.794799327850 6.001224000000
28.000903606415 8.336040000000
28.207382678986 7.825480000000
28.413811922073 6.787976000000
28.619942665100 5.786272000000
28.826474666595 6.262672000000
29.032484531403 5.394120000000
29.238393306732 5.551320000000
29.444422006607 7.674320000000
29.650392055511 6.187408000000
29.858269691467 7.636960000000
30.064189434052 6.059432000000
30.271836757660 8.914640000000
30.478791475296 7.448016000000
30.685649394989 5.610928000000
30.892575502396 7.608904000000
31.100501060486 6.999744000000
31.308691978455 6.394840000000
31.515656709671 5.678648000000
31.722331047058 11.274472000000
31.928472995758 5.652680000000
32.135381460190 6.763472000000
32.343727827072 7.261880000000
32.550384044647 6.042672000000
32.757119655609 4.194880000000
32.963400602341 6.685560000000
33.169402360916 6.741496000000
33.375526428223 7.062000000000
33.581721782684 5.008032000000
33.787980318069 6.647760000000
33.994234085083 6.366000000000
34.200632810593 5.246136000000
34.407233715057 10.761560000000
34.613409996033 5.637152000000
34.822013139725 7.111936000000
35.029698848724 6.633968000000
35.236047983170 6.220288000000
35.442247629166 5.824224000000
35.650332212448 12.500856000000
35.857423067093 5.853208000000
36.063802003860 6.463304000000
36.269992828369 6.796384000000
36.476131439209 6.130192000000
36.682429313660 5.470128000000
36.888994932175 5.869464000000
37.095377683640 5.950312000000
37.301407814026 4.366512000000
37.508318424225 7.942984000000
37.714460849762 7.049080000000
37.921022415161 8.318760000000
38.127828121185 5.880120000000
38.333908796310 6.014792000000
38.540755748749 5.755800000000
38.749009132385 4.575352000000
38.955576896667 5.568728000000
39.161823034286 6.078048000000
39.368021249771 7.374328000000
39.576573133469 6.282224000000
39.783010005951 6.407072000000
39.990030288696 9.574848000000
40.196267604828 6.873416000000
40.402673721313 8.682736000000
40.609150648117 5.679936000000
40.815263509750 8.267424000000
41.022061109543 6.144080000000
41.229191541672 6.793632000000
41.435718059540 5.933408000000
41.642939805984 5.983856000000
41.849181175232 6.543408000000
42.056132555008 8.489112000000
42.262342453003 6.067896000000
42.468175888062 8.644664000000
42.674845933914 5.298312000000
42.882020235062 4.408576000000
43.088225841522 6.607360000000
43.296589851379 5.394016000000
43.503483772278 7.722664000000
43.709626674652 9.082520000000
43.915648937225 5.913656000000
44.121851682663 6.031232000000
44.328224420547 5.611096000000
44.534459829330 5.508096000000
44.741452693939 7.673184000000
44.947549581528 6.120328000000
45.154032468796 6.158544000000
45.360041856766 7.159056000000
45.565991401672 6.734960000000
45.771898984909 5.467440000000
45.978315830231 7.672200000000
46.184193134308 4.215632000000
46.390248775482 6.965984000000
46.596225261688 5.470800000000
46.802150726318 7.049976000000
47.008362054825 6.025744000000
47.214427471161 4.244272000000
47.420319795609 5.857344000000
47.626383543015 8.338984000000
47.832358837128 7.839712000000
48.038360834122 6.644536000000
48.244353294373 5.964248000000
48.450246334076 6.005312000000
48.656206846237 5.367816000000
48.862178802490 12.553776000000
49.068190097809 5.629960000000
49.274091959000 6.550336000000
49.479887247086 7.396640000000
49.685795783997 6.068720000000
49.891814470291 9.369144000000
50.098462820053 5.654064000000
50.306085586548 6.509576000000
50.512392997742 9.258192000000
50.718664407730 7.954024000000
50.925044298172 7.255776000000
51.131193399429 6.668328000000
51.337076187134 6.322280000000
51.542938232422 6.872296000000
51.749221801758 5.394904000000
51.955496072769 7.448584000000
52.162051677704 6.571504000000
52.369375467300 5.897584000000
52.575771570206 7.481992000000
52.782372713089 6.164704000000
52.988924980164 9.160328000000
53.195910692215 7.678176000000
53.402773380280 4.318688000000
53.609472990036 6.990856000000
53.816168308258 5.968728000000
54.022872447968 6.357192000000
54.229717493057 6.038080000000
54.436492443085 6.200040000000
54.644179582596 7.267912000000
54.852026224136 6.167704000000
55.059674024582 8.153040000000
55.266808509827 8.080904000000
55.474226713181 5.571808000000
55.682553052902 4.583656000000
55.888933658600 6.413656000000
56.095551252365 4.987816000000
56.302372694016 9.318256000000
56.509370803833 5.619152000000
56.716827392578 6.448688000000
56.923202753067 6.020752000000
57.129968404770 7.678936000000
57.337450742722 5.917120000000
57.543293237686 4.964344000000
57.750021457672 5.254056000000
57.956974267960 8.370504000000
58.163980960846 6.134424000000
58.370839118958 6.549176000000
58.577369213104 5.827504000000
58.784253597260 6.618952000000
58.991220235825 6.335312000000
59.198280811310 7.746336000000
59.405366897583 7.506336000000
59.611345767975 6.159040000000
59.817713975906 5.498392000000
60.024418354034 6.272568000000
60.231275320053 3.949792000000
60.438284873962 5.586296000000
60.645236492157 8.331936000000
60.852207183838 4.076824000000
61.059070587158 5.852272000000
61.266128063202 5.887296000000
61.472785472870 6.631336000000
61.679742336273 11.398232000000
61.886682510376 5.232552000000
62.093694925308 6.326304000000
62.300560474396 6.108560000000
62.507422685623 6.991560000000
62.716364860535 5.736280000000
62.922078371048 5.449368000000
63.127855300903 5.444888000000
63.334853649139 5.466568000000
63.541879892349 5.328576000000
63.748886346817 6.250352000000
63.955867290497 4.312160000000
64.162749052048 6.536608000000
64.369706869125 6.499808000000
64.577208757401 4.453376000000
64.784211397171 6.692264000000
64.992074728012 5.253312000000
65.199396848679 6.282664000000
65.406106233597 6.502152000000
65.612752676010 6.257328000000
65.819092512131 5.938656000000
66.026190280914 5.233136000000
66.233135223389 7.684776000000
66.440073966980 7.457864000000
66.647084712982 6.335336000000
66.854051351547 4.788088000000
67.060651302338 7.944160000000
67.267600297928 6.132248000000
67.473951339722 6.463528000000
67.680302858353 7.501992000000
67.887113571167 5.944584000000
68.093557596207 10.393312000000
68.300087213516 8.230648000000
68.506437301636 6.495760000000
68.712903499603 6.523960000000
68.919753789902 5.588872000000
69.126883745193 6.334688000000
69.333491086960 5.969688000000
69.540427207947 6.013360000000
69.747820854187 6.004464000000
69.953735828400 6.607760000000
70.160321950912 7.130768000000
70.367059230804 6.737168000000
70.574540138245 6.042096000000
70.781081676483 4.192928000000
70.988120794296 6.438384000000
71.195229530334 4.221872000000
71.401510238647 5.546616000000
71.607883214951 8.212392000000
71.814877986908 7.308032000000
72.021657466888 6.898656000000
72.228495359421 6.818960000000
72.434505462646 6.703136000000
72.640878200531 6.903280000000
72.847761631012 7.273688000000
73.054557800293 5.559648000000
73.261377811432 6.187344000000
73.468258857727 6.691192000000
73.675796270370 6.759192000000
73.882150888443 10.515592000000
74.089145183563 7.697008000000
74.296225309372 5.392920000000
74.504448413849 6.297648000000
74.711816072464 5.455168000000
74.918884992599 4.144232000000
75.125950098038 6.801696000000
75.332913637161 10.332808000000
75.541890859604 7.253120000000
75.750117301941 6.308936000000
75.956402063370 5.777928000000
76.163537979126 6.268608000000
76.370358943939 6.669848000000
76.577363729477 7.081080000000
76.784245491028 5.783624000000
76.991309165955 6.333944000000
77.197575569153 6.195888000000
77.404945373535 5.798264000000
77.610896348953 4.899816000000
77.817138195038 5.607760000000
78.023876905441 6.346232000000
78.232315301895 7.317240000000
78.439497709274 5.918376000000
78.649715900421 9.360352000000
78.857290983200 5.651472000000
79.063814163208 6.939048000000
79.270350456238 4.317184000000
79.479370594025 7.488944000000
79.685514688492 6.371544000000
79.893206357956 5.474168000000
80.099606513977 7.328536000000
80.307046890259 5.741104000000
80.513072013855 6.898720000000
80.719389438629 5.924608000000
80.925354719162 6.266768000000
81.131236076355 4.217208000000
81.337200880051 7.529568000000
81.543107271194 5.620680000000
81.748852252960 7.834744000000
81.955643177032 8.366592000000
82.162774085999 5.822856000000
82.370001792908 6.230672000000
82.575989484787 7.242200000000
82.782111644745 8.114880000000
82.988988876343 3.972184000000
83.194909095764 6.722424000000
83.400888681412 6.823896000000
83.607695579529 6.304448000000
83.816206455231 5.764192000000
84.023049354553 6.773688000000
84.230067968369 7.563880000000
84.436231374741 5.980600000000
84.642314672470 7.635352000000
84.848375320435 5.714200000000
85.054366588593 6.694472000000
85.260326862335 8.500792000000
85.466279983521 6.169992000000
85.672219991684 7.267152000000
85.878242492676 7.280048000000
86.084291934967 6.597984000000
86.290964126587 7.142936000000
86.496934890747 6.055272000000
86.703012466431 6.502992000000
86.909080743790 6.338280000000
87.115006208420 6.809856000000
87.320958137512 7.480584000000
87.526991128922 6.267856000000
87.732888460159 5.306048000000
87.938765048981 7.804608000000
88.144746065140 6.164088000000
88.350575685501 5.755576000000
88.556508302689 6.259504000000
88.762642383575 4.374496000000
88.968948364258 5.585168000000
89.179493188858 7.489576000000
89.385786056519 7.321408000000
89.591817855835 5.756992000000
89.797856807709 6.357552000000
90.003932476044 6.759688000000
90.210219621658 7.271104000000
90.416215181351 5.793928000000
90.622717857361 5.832888000000
90.829601764679 5.623152000000
91.035609006882 4.184728000000
91.241668939590 6.073264000000
91.447551965714 4.719128000000
91.653634309769 5.653888000000
91.859472513199 8.332736000000
92.066214323044 7.055192000000
92.272212982178 6.240048000000
92.478411912918 5.775224000000
92.684411764145 11.290496000000
92.890500545502 5.690104000000
93.096492528915 6.617320000000
93.302625417709 9.153328000000
93.508517265320 9.649560000000
93.714468002319 7.711200000000
93.921952486038 6.058312000000
94.127494812012 5.912336000000
94.334618330002 7.685216000000
94.540409803391 5.972024000000
94.746159315109 6.712032000000
94.952929019928 7.593912000000
95.159484863281 5.908320000000
95.366214752197 5.973312000000
95.573291301727 4.763912000000
95.779678583145 6.848888000000
95.986758947372 5.620224000000
96.193675518036 6.952480000000
96.400705575943 6.402056000000
96.607803583145 5.426816000000
96.814807176590 10.646168000000
97.021958112717 5.625344000000
97.229013442993 6.540856000000
97.435301303864 7.658160000000
97.641896724701 5.760944000000
97.849652528763 6.436224000000
98.056762218475 6.893184000000
98.263251781464 6.647232000000
98.470225095749 6.731784000000
98.677136421204 8.220808000000
98.884186983109 5.966648000000
99.091119050980 5.855552000000
99.298278093338 5.549664000000
99.505519866943 6.732504000000
99.712255239487 9.896736000000
99.919334411621 8.470008000000
100.125770330429 6.007128000000
100.333238363266 6.228512000000
100.540104627609 5.724904000000
100.747725963593 11.561512000000
100.955315113068 5.907880000000
101.162337064743 10.781728000000
101.369292020798 8.426000000000
101.575586318970 7.782656000000
101.781970024109 6.108896000000
101.988274574280 5.942728000000
102.194910287857 5.881192000000
102.401855707169 6.564912000000
102.607777357101 5.220072000000
102.814005136490 7.364272000000
103.021375894547 8.162536000000
103.228040456772 5.938048000000
103.434585571289 6.541936000000
103.641063690186 6.690552000000
103.848078727722 5.516512000000
104.057708263397 5.835032000000
104.263469457626 7.019536000000
104.469454050064 8.218288000000
104.675572633743 6.051224000000
104.883793592453 6.264160000000
105.092384338379 5.705872000000
105.299300432205 6.222728000000
105.506316661835 8.436064000000
105.712422609329 5.790032000000
105.920541286469 6.942328000000
106.126536607742 8.052304000000
106.332359790802 6.585320000000
106.539339065552 5.404768000000
106.746272802353 6.112184000000
106.953183174133 7.039176000000
107.160274267197 8.207280000000
107.367287874222 5.945984000000
107.574272632599 7.046328000000
107.781218051910 5.706456000000
107.988333463669 6.534568000000
108.195519685745 7.018576000000
108.401697158813 6.721200000000
108.608502149582 7.732224000000
108.815564632416 7.289256000000
109.022550582886 6.442856000000
109.228844642639 6.464104000000
109.435000896454 5.576936000000
109.641394853592 7.772752000000
109.848243951797 8.471576000000
110.055311441422 5.809696000000
110.262209177017 6.104736000000
110.469002485275 6.372488000000
110.676198244095 5.721608000000
110.883185386658 5.850376000000
111.090360641479 8.107784000000
111.297260999680 5.897816000000
111.503943443298 5.818896000000
111.710200309753 6.483424000000
111.918099641800 5.834968000000
112.124835968018 8.222456000000
112.331801891327 4.256336000000
112.538896322250 7.340448000000
112.746356964111 5.901024000000
112.955680131912 6.360608000000
113.161966562271 4.178216000000
113.368198394775 5.393808000000
113.575531721115 8.198816000000
113.782247304916 7.333672000000
113.989281177521 6.006688000000
114.195604562759 7.486456000000
114.402402400970 5.685920000000
114.609357595444 6.281840000000
114.816501379013 7.029224000000
115.022839307785 6.101016000000
115.229009389877 7.708424000000
115.435295581818 5.626712000000
115.641908884048 5.522280000000
115.850085258484 7.182744000000
116.056028842926 3.458656000000
116.263068437576 8.367592000000
116.469386816025 5.705344000000
116.676373243332 6.552664000000
116.883763790131 6.611216000000
117.090362071991 7.278024000000
117.297327041626 5.681840000000
117.504193305969 7.805600000000
117.712144613266 5.728272000000
117.919258356094 6.577728000000
118.126343250275 7.266488000000
118.333152770996 6.186208000000
118.540071487427 6.963016000000
118.746428012848 7.770328000000
118.952847003937 6.738472000000
119.159750938416 6.968752000000
119.366562128067 5.733704000000
119.573802709579 6.181496000000
119.780961275101 10.239184000000
119.987730979919 5.839288000000
120.196801185608 6.075120000000
