# time rtt
0.229569196701 68.259000000000
0.434272050858 14.893000000000
0.639236211777 13.906000000000
0.844320535660 11.432000000000
1.049779653549 12.955000000000
1.255089282990 9.523000000000
1.460342884064 9.476000000000
1.666606903076 11.292000000000
1.872094392776 12.372000000000
2.078372478485 12.558000000000
2.283752679825 13.696000000000
2.490794420242 11.126000000000
2.698374986649 10.760000000000
2.906333923340 9.510000000000
3.118237495422 11.289000000000
3.330690860748 12.398000000000
3.539581775665 12.356000000000
3.748841524124 13.403000000000
3.956258296967 9.198000000000
4.162696361542 9.043000000000
4.369555234909 13.448000000000
4.577141284943 12.474000000000
4.785681009293 12.091000000000
4.993454933167 14.342000000000
5.199302911758 11.905000000000
5.406091690063 11.700000000000
5.612027168274 9.536000000000
5.818885087967 10.242000000000
6.025504827499 10.997000000000
6.234008073807 12.664000000000
6.440623998642 11.648000000000
6.646645307541 13.092000000000
6.853127717972 8.929000000000
7.060013532639 10.758000000000
7.266407728195 9.995000000000
7.474060535431 12.273000000000
7.682764291763 13.012000000000
7.891211748123 15.047000000000
8.098773241043 12.516000000000
8.304438114166 13.942000000000
8.510804891586 8.844000000000
8.719521999359 12.589000000000
8.927266836166 9.689000000000
9.136451959610 11.391000000000
9.343976259232 10.612000000000
9.550925016403 11.727000000000
9.757483959198 12.479000000000
9.966598749161 12.277000000000
10.174555778503 13.751000000000
10.383832931519 10.263000000000
10.591728925705 10.187000000000
10.799372911453 13.003000000000
11.008870363235 13.398000000000
11.218600988388 13.179000000000
11.427577257156 12.674000000000
11.636859416962 10.511000000000
11.847045421600 11.188000000000
12.054540872574 10.446000000000
12.266126155853 12.393000000000
12.475532293320 13.582000000000
12.684018850327 12.906000000000
12.893608808517 12.807000000000
13.102749586105 9.926000000000
13.310092687607 10.541000000000
13.516498565674 10.123000000000
13.723208665848 12.894000000000
13.931940793991 9.444000000000
14.140283346176 11.578000000000
14.347949028015 9.075000000000
14.555806159973 11.479000000000
14.763745069504 10.465000000000
14.970951080322 13.906000000000
15.178715705872 13.261000000000
15.386199235916 10.624000000000
15.593712329865 9.149000000000
15.802141189575 9.952000000000
16.010346651077 9.244000000000
16.217876434326 11.009000000000
16.424875259399 11.978000000000
16.632499217987 11.360000000000
16.839454889297 10.342000000000
17.047284841537 12.704000000000
17.254465579987 9.269000000000
17.461691617966 11.145000000000
17.668688774109 12.984000000000
17.878970384598 12.974000000000
18.088879108429 13.483000000000
18.297554969788 11.242000000000
18.504507303238 9.419000000000
18.710808277130 9.205000000000
18.917318105698 11.011000000000
19.123674392700 10.916000000000
19.329836130142 11.801000000000
19.535872936249 12.356000000000
19.742622852325 13.079000000000
19.948618173599 11.185000000000
20.154778242111 9.065000000000
20.360807418823 10.231000000000
20.567198991776 9.303000000000
20.773475170135 11.799000000000
20.979634761810 10.308000000000
21.185817241669 12.838000000000
21.392116785049 12.742000000000
21.598793983459 10.322000000000
21.808521509171 10.934000000000
22.019374608994 9.486000000000
22.226098299026 12.669000000000
22.432243347168 11.850000000000
22.638354063034 10.938000000000
22.844466447830 13.865000000000
23.050528526306 9.059000000000
23.256664276123 10.039000000000
23.462835073471 12.129000000000
23.668886184692 12.820000000000
23.875093460083 13.009000000000
24.081192016602 8.968000000000
24.288950920105 11.011000000000
24.495469808578 10.130000000000
24.701917648315 10.753000000000
24.908405065536 12.137000000000
25.114984273911 12.457000000000
25.320944547653 11.553000000000
25.527061939240 9.524000000000
25.733198881149 9.165000000000
25.939330816269 11.010000000000
26.145408391953 12.746000000000
26.351451396942 12.380000000000
26.557638883591 9.431000000000
26.764112472534 11.688000000000
26.970186948776 9.307000000000
27.176517009735 10.966000000000
27.382645130157 11.412000000000
27.588762044907 12.854000000000
27.794799327850 13.393000000000
28.000903606415 9.336000000000
28.207382678986 8.960000000000
28.413811922073 11.690000000000
28.619942665100 10.449000000000
28.826474666595 12.228000000000
29.032484531403 12.767000000000
29.238393306732 8.937000000000
29.444422006607 10.710000000000
29.650392055511 9.889000000000
29.858269691467 10.474000000000
30.064189434052 12.613000000000
30.271836757660 11.762000000000
30.478791475296 11.858000000000
30.685649394989 8.870000000000
30.892575502396 12.371000000000
31.100501060486 9.298000000000
31.308691978455 11.755000000000
31.515656709671 10.675000000000
31.722331047058 11.624000000000
31.928472995758 12.479000000000
32.135381460190 11.846000000000
32.343727827072 9.578000000000
32.550384044647 9.281000000000
32.757119655609 11.620000000000
32.963400602341 11.533000000000
33.169402360916 11.981000000000
33.375526428223 12.884000000000
33.581721782684 9.605000000000
33.787980318069 9.409000000000
33.994234085083 11.524000000000
34.200632810593 11.316000000000
34.407233715057 12.302000000000
34.613409996033 10.993000000000
34.822013139725 13.317000000000
35.029698848724 9.159000000000
35.236047983170 10.746000000000
35.442247629166 10.104000000000
35.650332212448 12.834000000000
35.857423067093 12.191000000000
36.063802003860 11.373000000000
36.269992828369 9.599000000000
36.476131439209 9.481000000000
36.682429313660 12.008000000000
36.888994932175 12.506000000000
37.095377683640 8.856000000000
37.301407814026 11.474000000000
37.508318424225 14.443000000000
37.714460849762 11.428000000000
37.921022415161 13.094000000000
38.127828121185 9.019000000000
38.333908796310 10.125000000000
38.540755748749 10.470000000000
38.749009132385 12.824000000000
38.955576896667 11.905000000000
39.161823034286 9.082000000000
39.368021249771 11.508000000000
39.576573133469 9.471000000000
39.783010005951 11.467000000000
39.990030288696 10.470000000000
40.196267604828 11.997000000000
40.402673721313 11.636000000000
40.609150648117 13.096000000000
40.815263509750 9.100000000000
41.022061109543 10.405000000000
41.229191541672 10.069000000000
41.435718059540 12.537000000000
41.642939805984 13.042000000000
41.849181175232 8.874000000000
42.056132555008 11.482000000000
42.262342453003 9.861000000000
42.468175888062 10.898000000000
42.674845933914 15.636000000000
42.882020235062 12.591000000000
43.088225841522 12.011000000000
43.296589851379 9.290000000000
43.503483772278 9.208000000000
43.709626674652 11.643000000000
43.915648937225 10.888000000000
44.121851682663 11.117000000000
44.328224420547 11.620000000000
44.534459829330 9.941000000000
44.741452693939 9.986000000000
44.947549581528 11.366000000000
45.154032468796 12.926000000000
45.360041856766 14.355000000000
45.565991401672 12.725000000000
45.771898984909 12.259000000000
45.978315830231 9.617000000000
46.184193134308 9.353000000000
46.390248775482 11.780000000000
46.596225261688 12.340000000000
46.802150726318 12.162000000000
47.008362054825 11.058000000000
47.214427471161 9.339000000000
47.420319795609 9.192000000000
47.626383543015 11.416000000000
47.832358837128 11.535000000000
48.038360834122 11.992000000000
48.244353294373 10.293000000000
48.450246334076 10.306000000000
48.656206846237 10.120000000000
48.862178802490 12.836000000000
49.068190097809 12.055000000000
49.274091959000 9.414000000000
49.479887247086 11.861000000000
49.685795783997 9.438000000000
49.891814470291 11.515000000000
50.098462820053 11.860000000000
50.306085586548 12.466000000000
50.512392997742 14.239000000000
50.718664407730 10.017000000000
50.925044298172 9.796000000000
51.131193399429 9.859000000000
51.337076187134 10.102000000000
51.542938232422 11.659000000000
51.749221801758 12.637000000000
51.955496072769 12.372000000000
52.162051677704 10.657000000000
52.369375467300 9.205000000000
52.575771570206 10.580000000000
52.782372713089 11.916000000000
52.988924980164 11.824000000000
53.195910692215 12.967000000000
53.402773380280 8.870000000000
53.609472990036 9.865000000000
53.816168308258 10.283000000000
54.022872447968 13.826000000000
54.229717493057 9.503000000000
54.436492443085 11.166000000000
54.644179582596 9.488000000000
54.852026224136 13.198000000000
55.059674024582 12.921000000000
55.266808509827 12.918000000000
55.474226713181 12.468000000000
55.682553052902 11.627000000000
55.888933658600 10.914000000000
56.095551252365 12.354000000000
56.302372694016 12.193000000000
56.509370803833 13.080000000000
56.716827392578 9.586000000000
56.923202753067 9.016000000000
57.129968404770 12.095000000000
57.337450742722 12.283000000000
57.543293237686 13.539000000000
57.750021457672 12.312000000000
57.956974267960 10.630000000000
58.163980960846 12.660000000000
58.370839118958 13.547000000000
58.577369213104 10.310000000000
58.784253597260 11.263000000000
58.991220235825 10.494000000000
59.198280811310 11.950000000000
59.405366897583 13.441000000000
59.611345767975 12.537000000000
59.817713975906 12.493000000000
60.024418354034 12.989000000000
60.231275320053 14.636000000000
60.438284873962 12.657000000000
60.645236492157 11.668000000000
60.852207183838 10.246000000000
61.059070587158 9.434000000000
61.266128063202 11.710000000000
61.472785472870 10.184000000000
61.679742336273 14.722000000000
61.886682510376 10.934000000000
62.093694925308 12.368000000000
62.300560474396 11.150000000000
62.507422685623 10.505000000000
62.922078371048 9.500000000000
63.127855300903 11.489000000000
63.334853649139 10.632000000000
63.541879892349 12.027000000000
63.748886346817 13.088000000000
63.955867290497 12.013000000000
64.162749052048 14.468000000000
64.369706869125 12.763000000000
64.577208757401 13.372000000000
64.784211397171 14.137000000000
64.992074728012 13.130000000000
65.199396848679 11.581000000000
65.406106233597 13.848000000000
65.612752676010 13.180000000000
65.819092512131 13.856000000000
66.026190280914 12.476000000000
66.233135223389 12.590000000000
66.440073966980 12.576000000000
66.647084712982 12.440000000000
66.854051351547 13.478000000000
67.060651302338 14.539000000000
67.267600297928 13.348000000000
67.473951339722 13.879000000000
67.680302858353 12.890000000000
67.887113571167 13.219000000000
68.093557596207 14.856000000000
68.300087213516 12.989000000000
68.506437301636 13.153000000000
68.712903499603 13.301000000000
68.919753789902 15.081000000000
69.126883745193 15.738000000000
69.333491086960 12.476000000000
69.540427207947 13.095000000000
69.747820854187 12.300000000000
69.953735828400 14.353000000000
70.160321950912 11.986000000000
70.367059230804 9.831000000000
70.574540138245 11.945000000000
70.781081676483 12.150000000000
70.988120794296 13.334000000000
71.195229530334 12.585000000000
71.401510238647 9.367000000000
71.607883214951 9.093000000000
71.814877986908 11.303000000000
72.021657466888 13.436000000000
72.228495359421 13.614000000000
72.434505462646 12.373000000000
72.640878200531 10.991000000000
72.847761631012 11.159000000000
73.054557800293 10.725000000000
73.261377811432 9.942000000000
73.468258857727 10.493000000000
73.675796270370 11.496000000000
73.882150888443 11.839000000000
74.089145183563 12.873000000000
74.296225309372 9.493000000000
74.504448413849 10.498000000000
74.711816072464 12.190000000000
74.918884992599 13.494000000000
75.125950098038 12.517000000000
75.332913637161 12.249000000000
75.541890859604 14.836000000000
75.750117301941 9.478000000000
75.956402063370 9.870000000000
76.163537979126 10.014000000000
76.370358943939 12.943000000000
76.577363729477 12.127000000000
76.784245491028 9.445000000000
76.991309165955 10.638000000000
77.197575569153 9.888000000000
77.404945373535 11.750000000000
77.610896348953 11.364000000000
77.817138195038 12.619000000000
78.023876905441 13.439000000000
78.232315301895 9.228000000000
78.439497709274 9.183000000000
78.649715900421 11.341000000000
78.857290983200 11.512000000000
79.063814163208 10.911000000000
79.270350456238 11.401000000000
79.479370594025 10.268000000000
79.685514688492 9.016000000000
79.893206357956 16.034000000000
80.099606513977 12.532000000000
80.307046890259 13.272000000000
80.513072013855 12.449000000000
80.719389438629 9.004000000000
80.925354719162 10.071000000000
81.131236076355 10.535000000000
81.337200880051 12.900000000000
81.543107271194 12.365000000000
81.748852252960 8.917000000000
81.955643177032 11.389000000000
82.162774085999 9.585000000000
82.370001792908 10.905000000000
82.575989484787 12.996000000000
82.782111644745 12.432000000000
82.988988876343 13.546000000000
83.194909095764 9.306000000000
83.400888681412 9.086000000000
83.607695579529 10.865000000000
83.816206455231 10.884000000000
84.023049354553 11.380000000000
84.230067968369 10.686000000000
84.436231374741 12.124000000000
84.642314672470 9.226000000000
84.848375320435 11.106000000000
85.054366588593 10.195000000000
85.260326862335 13.382000000000
85.466279983521 11.906000000000
85.672219991684 11.199000000000
85.878242492676 9.103000000000
86.084291934967 10.062000000000
86.290964126587 11.485000000000
86.496934890747 9.863000000000
86.703012466431 12.656000000000
86.909080743790 12.267000000000
87.115006208420 13.275000000000
87.320958137512 12.379000000000
87.526991128922 10.780000000000
87.732888460159 10.163000000000
87.938765048981 10.788000000000
88.144746065140 12.200000000000
88.350575685501 10.287000000000
88.556508302689 12.573000000000
88.762642383575 9.198000000000
88.968948364258 9.742000000000
89.179493188858 10.267000000000
89.385786056519 10.988000000000
89.591817855835 12.911000000000
89.797856807709 13.240000000000
90.003932476044 11.441000000000
90.210219621658 13.104000000000
90.416215181351 9.003000000000
90.622717857361 10.565000000000
90.829601764679 11.211000000000
91.035609006882 12.395000000000
91.241668939590 13.163000000000
91.447551965714 10.905000000000
91.653634309769 8.976000000000
91.859472513199 9.146000000000
92.066214323044 11.084000000000
92.272212982178 12.325000000000
92.478411912918 10.485000000000
92.684411764145 13.265000000000
93.096492528915 10.994000000000
93.302625417709 9.723000000000
93.508517265320 9.905000000000
93.714468002319 10.426000000000
93.921952486038 12.153000000000
94.127494812012 12.874000000000
94.334618330002 13.305000000000
94.540409803391 12.896000000000
94.746159315109 12.092000000000
94.952929019928 9.696000000000
95.159484863281 10.077000000000
95.366214752197 10.386000000000
95.573291301727 13.874000000000
95.779678583145 13.634000000000
95.986758947372 8.896000000000
96.193675518036 11.403000000000
96.400705575943 9.402000000000
96.607803583145 11.461000000000
96.814807176590 11.200000000000
97.021958112717 10.436000000000
97.229013442993 12.825000000000
97.435301303864 12.990000000000
97.641896724701 10.795000000000
97.849652528763 8.918000000000
98.056762218475 12.172000000000
98.263251781464 9.596000000000
98.470225095749 11.036000000000
98.677136421204 11.814000000000
98.884186983109 15.753000000000
99.091119050980 10.723000000000
99.298278093338 11.414000000000
99.505519866943 11.223000000000
99.712255239487 10.309000000000
99.919334411621 12.482000000000
100.125770330429 13.596000000000
100.333238363266 11.858000000000
100.540104627609 12.071000000000
100.747725963593 9.753000000000
100.955315113068 9.330000000000
101.162337064743 12.232000000000
101.369292020798 12.602000000000
101.575586318970 12.244000000000
101.781970024109 11.914000000000
101.988274574280 12.250000000000
102.194910287857 12.832000000000
102.401855707169 9.405000000000
102.607777357101 10.322000000000
102.814005136490 10.125000000000
103.021375894547 12.989000000000
103.228040456772 12.083000000000
103.434585571289 12.116000000000
103.641063690186 12.490000000000
103.848078727722 12.055000000000
104.057708263397 11.491000000000
104.263469457626 9.839000000000
104.469454050064 9.175000000000
104.675572633743 11.155000000000
104.883793592453 14.809000000000
105.092384338379 11.859000000000
105.299300432205 9.853000000000
105.506316661835 9.305000000000
105.712422609329 11.969000000000
105.920541286469 10.977000000000
106.126536607742 12.057000000000
106.332359790802 12.373000000000
106.539339065552 11.636000000000
106.746272802353 11.280000000000
106.953183174133 10.333000000000
107.160274267197 10.418000000000
107.367287874222 9.712000000000
107.574272632599 11.808000000000
107.781218051910 12.298000000000
107.988333463669 10.643000000000
108.195519685745 11.007000000000
108.401697158813 10.677000000000
108.608502149582 9.137000000000
108.815564632416 9.580000000000
109.022550582886 12.376000000000
109.228844642639 12.868000000000
109.435000896454 13.185000000000
109.641394853592 9.002000000000
109.848243951797 11.276000000000
110.055311441422 9.702000000000
110.262209177017 11.123000000000
110.469002485275 11.006000000000
110.676198244095 12.055000000000
110.883185386658 10.304000000000
111.090360641479 12.101000000000
111.297260999680 9.123000000000
111.503943443298 10.652000000000
111.710200309753 9.881000000000
111.918099641800 10.101000000000
112.124835968018 12.120000000000
112.331801891327 12.568000000000
112.538896322250 13.092000000000
112.746356964111 11.196000000000
112.955680131912 11.770000000000
113.161966562271 9.526000000000
113.368198394775 9.980000000000
113.575531721115 10.566000000000
113.782247304916 11.831000000000
113.989281177521 12.812000000000
114.195604562759 12.860000000000
114.402402400970 11.668000000000
114.609357595444 9.723000000000
114.816501379013 12.469000000000
115.022839307785 9.383000000000
115.229009389877 11.038000000000
115.435295581818 11.088000000000
115.641908884048 12.293000000000
115.850085258484 11.741000000000
116.056028842926 12.095000000000
116.263068437576 10.967000000000
116.469386816025 11.242000000000
116.676373243332 10.457000000000
116.883763790131 9.740000000000
117.090362071991 12.435000000000
117.297327041626 12.977000000000
117.504193305969 11.170000000000
117.712144613266 12.557000000000
117.919258356094 8.984000000000
118.126343250275 9.878000000000
118.333152770996 10.758000000000
118.540071487427 12.874000000000
118.746428012848 13.352000000000
118.952847003937 12.677000000000
119.159750938416 10.987000000000
119.366562128067 9.456000000000
119.573802709579 11.709000000000
119.780961275101 10.403000000000
119.987730979919 11.918000000000
120.196801185608 12.138000000000
