# time throughput
0.402211427689 9.300000000000
0.786211490631 5.460000000000
1.181211471558 5.310000000000
1.573211431503 5.340000000000
1.773211479187 5.230000000000
2.167211532593 5.330000000000
2.571211338043 4.870000000000
2.973211526871 5.210000000000
3.366211414337 5.330000000000
3.759211540222 5.340000000000
4.149211406708 5.370000000000
4.552211523056 5.200000000000
4.763211488724 4.980000000000
5.160211324692 5.280000000000
5.555211544037 5.310000000000
5.756211519241 5.220000000000
5.958211421967 5.190000000000
6.164211511612 5.070000000000
6.557211399078 5.340000000000
6.953211307526 4.960000000000
7.163211345673 5.000000000000
7.548211336136 5.440000000000
7.954211473465 5.170000000000
8.347211360931 5.330000000000
8.743211507797 5.300000000000
8.944211483002 5.210000000000
9.341211318970 5.290000000000
9.739211320877 5.270000000000
10.132211446762 5.340000000000
10.333211421967 5.210000000000
10.538211345673 5.110000000000
10.934211492538 4.960000000000
11.135211467743 5.220000000000
11.532211542130 5.280000000000
11.926211357117 5.320000000000
12.321211338043 5.310000000000
12.717211484909 5.290000000000
13.107211351395 5.380000000000
13.307211399078 5.220000000000
13.508211374283 5.230000000000
13.906211376190 5.270000000000
14.106211423874 5.240000000000
14.503211498260 5.280000000000
14.706211328506 5.180000000000
15.102211475372 5.290000000000
15.303211450577 4.560000000000
15.700211524963 5.290000000000
16.099211454391 5.250000000000
16.299211502075 5.240000000000
16.507211446762 5.060000000000
16.893211364746 5.420000000000
17.286211490631 5.340000000000
17.489211320877 5.170000000000
17.885211467743 5.300000000000
18.275211334229 5.370000000000
18.476211309433 5.230000000000
18.868211507797 5.340000000000
19.069211483002 5.230000000000
19.465211391449 5.300000000000
19.857211351395 5.010000000000
20.250211477280 5.340000000000
20.647211313248 5.280000000000
21.042211532593 5.300000000000
21.440211534500 5.280000000000
21.643211364746 5.150000000000
22.025211334229 5.490000000000
22.235211372375 4.980000000000
22.447211503983 4.960000000000
22.827211380005 5.520000000000
23.221211433411 5.310000000000
23.424211502075 5.170000000000
23.808211326599 5.460000000000
24.009211540222 4.570000000000
24.402211427689 5.340000000000
24.602211475372 5.230000000000
25.005211353302 5.210000000000
25.388211488724 5.480000000000
25.781211376190 5.340000000000
25.983211517334 5.180000000000
26.381211519241 5.280000000000
26.769211530685 5.400000000000
27.168211460114 5.260000000000
27.368211507797 5.240000000000
27.568211317062 5.230000000000
27.959211349487 5.370000000000
28.163211345673 4.480000000000
28.552211523056 5.400000000000
28.948211431503 5.280000000000
29.348211526871 5.250000000000
29.729211330414 5.500000000000
29.931211471558 5.210000000000
30.326211452484 5.310000000000
30.729211330414 5.200000000000
31.118211507797 5.400000000000
31.514211416245 5.290000000000
31.905211448669 5.370000000000
32.110211372375 5.120000000000
32.508211374283 4.930000000000
32.899211406708 5.370000000000
33.298211336136 5.260000000000
33.689211368561 5.360000000000
33.890211343765 5.230000000000
34.284211397171 5.320000000000
34.683211326599 5.250000000000
35.075211524963 5.340000000000
35.276211500168 5.240000000000
35.668211460114 5.340000000000
35.876211404800 5.050000000000
36.268211364746 5.350000000000
36.661211490631 5.330000000000
37.058211326599 4.960000000000
37.258211374283 5.240000000000
37.472211360931 4.910000000000
37.866211414337 5.310000000000
38.259211540222 5.340000000000
38.656211376190 5.290000000000
39.048211336136 5.340000000000
39.249211311340 5.230000000000
39.642211437225 5.340000000000
39.843211412430 5.210000000000
40.238211393356 5.300000000000
40.623211383820 5.450000000000
40.826211452484 5.170000000000
41.026211500168 5.230000000000
41.419211387634 5.010000000000
41.621211528778 5.170000000000
41.824211359024 5.180000000000
42.225211381912 5.230000000000
42.616211414337 5.370000000000
42.824211359024 5.020000000000
43.222211360931 5.270000000000
43.618211507797 5.300000000000
44.013211488724 5.310000000000
44.214211463928 5.230000000000
44.606211423874 5.340000000000
45.009211540222 5.200000000000
45.210211515427 5.230000000000
45.413211345673 5.160000000000
45.806211471558 5.010000000000
46.198211431503 5.340000000000
46.595211505890 5.290000000000
46.987211465836 5.340000000000
47.380211353302 5.340000000000
47.775211334229 5.310000000000
48.168211460114 5.340000000000
48.368211507797 5.240000000000
48.569211483002 5.230000000000
48.955211400986 5.430000000000
49.354211330414 5.260000000000
49.751211404800 4.940000000000
50.144211530685 5.340000000000
50.543211460114 5.260000000000
50.743211507797 5.240000000000
50.957211494446 4.910000000000
51.337211370468 5.520000000000
51.733211517334 5.280000000000
52.141211509705 5.140000000000
52.538211345673 5.280000000000
52.739211320877 5.220000000000
52.940211534500 5.220000000000
53.332211494446 5.350000000000
53.533211469650 5.230000000000
53.926211357117 5.330000000000
54.131211519241 4.480000000000
54.521211385727 5.370000000000
54.914211511612 5.330000000000
55.307211399078 5.340000000000
55.513211488724 5.100000000000
55.904211521149 5.360000000000
56.104211330414 5.230000000000
56.499211311340 5.310000000000
56.704211473465 5.120000000000
57.096211433411 5.350000000000
57.489211320877 5.340000000000
57.691211462021 5.200000000000
57.896211385727 5.100000000000
58.291211366653 5.310000000000
58.685211420059 4.980000000000
59.083211421967 5.270000000000
59.486211538315 5.210000000000
59.883211374283 5.280000000000
60.085211515427 5.170000000000
60.302211523056 4.830000000000
60.682211399078 5.520000000000
60.890211343765 5.040000000000
61.091211318970 5.220000000000
61.484211444855 5.340000000000
61.880211353302 5.280000000000
62.277211427689 5.290000000000
62.671211481094 5.320000000000
62.877211332321 4.460000000000
63.082211494446 5.110000000000
63.482211351395 5.240000000000
63.685211420059 5.170000000000
63.890211343765 5.130000000000
64.288211345673 5.260000000000
64.681211471558 5.340000000000
65.074211359024 5.340000000000
65.471211433411 5.270000000000
65.680211544037 5.030000000000
66.084211349487 5.190000000000
66.468211412430 5.460000000000
66.678211450577 5.010000000000
67.057211399078 5.530000000000
67.451211452484 4.990000000000
67.845211505890 5.330000000000
68.237211465836 5.340000000000
68.632211446762 5.310000000000
69.023211479187 5.370000000000
69.239211320877 4.850000000000
69.633211374283 5.310000000000
70.022211313248 5.400000000000
70.417211532593 5.300000000000
70.618211507797 5.220000000000
71.017211437225 5.260000000000
71.410211324692 5.010000000000
71.805211544037 5.310000000000
72.213211536407 5.150000000000
72.616211414337 5.200000000000
73.008211374283 5.350000000000
73.208211421967 5.240000000000
73.604211330414 5.300000000000
74.002211332321 5.270000000000
74.403211355209 5.230000000000
74.799211502075 5.300000000000
75.000211477280 5.200000000000
75.204211473465 5.140000000000
75.407211542130 5.180000000000
75.616211414337 5.020000000000
76.002211332321 5.090000000000
76.394211530685 5.340000000000
76.787211418152 5.340000000000
76.988211393356 5.210000000000
77.381211519241 5.340000000000
77.776211500168 5.310000000000
78.170211315155 5.320000000000
78.564211368561 5.320000000000
78.765211343765 5.230000000000
79.157211542130 5.340000000000
79.550211429596 5.340000000000
79.945211410522 5.300000000000
80.148211479187 4.530000000000
80.541211366653 5.340000000000
80.743211507797 5.190000000000
80.945211410522 5.180000000000
81.338211536407 5.340000000000
81.735211372375 5.280000000000
82.138211488724 5.210000000000
82.515211343765 5.560000000000
82.914211511612 5.260000000000
83.114211320877 5.230000000000
83.508211374283 5.320000000000
83.907211542130 5.260000000000
84.299211502075 5.350000000000
84.693211317062 5.000000000000
85.092211484909 5.250000000000
85.480211496353 5.400000000000
85.684211492538 5.140000000000
86.074211359024 5.370000000000
86.277211427689 5.180000000000
86.482211351395 5.110000000000
86.878211498260 5.290000000000
87.269211530685 5.370000000000
87.668211460114 5.260000000000
87.868211507797 5.230000000000
88.261211395264 5.340000000000
88.658211469650 5.280000000000
89.049211502075 5.030000000000
89.255211353302 5.080000000000
89.653211355209 5.280000000000
90.045211315155 5.340000000000
90.438211441040 5.340000000000
90.639211416245 5.220000000000
91.040211439133 5.230000000000
91.240211486816 5.230000000000
91.441211462021 5.230000000000
91.829211473465 5.400000000000
92.222211360931 5.340000000000
92.423211336136 5.220000000000
92.815211534500 5.340000000000
93.215211391449 4.920000000000
93.605211496353 5.380000000000
94.000211477280 5.310000000000
94.210211515427 4.990000000000
94.417211532593 5.050000000000
94.812211513519 5.320000000000
95.014211416245 5.190000000000
95.219211339951 5.110000000000
95.606211423874 5.420000000000
95.807211399078 5.210000000000
96.204211473465 5.280000000000
96.604211330414 5.240000000000
96.805211544037 5.220000000000
97.197211503983 5.350000000000
97.597211360931 4.910000000000
97.800211429596 5.160000000000
98.193211317062 5.340000000000
98.586211442947 5.340000000000
98.984211444855 5.260000000000
99.185211420059 5.210000000000
99.388211488724 5.180000000000
99.591211318970 5.150000000000
99.993211507797 5.220000000000
100.375211477280 5.490000000000
100.766211509705 5.370000000000
101.158211469650 5.340000000000
101.556211471558 5.270000000000
101.949211359024 5.010000000000
102.345211505890 5.300000000000
102.740211486816 5.310000000000
103.138211488724 5.270000000000
103.530211448669 5.350000000000
103.930211544037 5.250000000000
104.326211452484 5.290000000000
104.720211505890 5.320000000000
104.923211336136 5.170000000000
105.324211359024 5.230000000000
105.528211355209 5.130000000000
105.924211502075 5.300000000000
106.320211410522 4.970000000000
106.526211500168 5.080000000000
106.921211481094 5.310000000000
107.320211410522 5.260000000000
107.701211452484 5.500000000000
107.902211427689 5.210000000000
108.103211402893 5.230000000000
108.304211378098 5.210000000000
108.700211524963 5.300000000000
109.092211484909 5.340000000000
109.485211372375 5.340000000000
109.877211332321 5.340000000000
110.273211479187 4.970000000000
110.478211402893 5.110000000000
110.873211383820 5.320000000000
111.263211488724 5.370000000000
111.467211484909 5.130000000000
111.862211465836 5.310000000000
112.259211540222 5.290000000000
112.652211427689 5.330000000000
113.048211336136 5.290000000000
113.445211410522 5.280000000000
113.647211313248 5.190000000000
114.042211532593 5.310000000000
114.433211326599 5.360000000000
114.640211343765 4.440000000000
115.032211542130 5.340000000000
115.429211378098 5.290000000000
115.629211425781 5.240000000000
116.024211406708 5.310000000000
116.227211475372 5.190000000000
116.618211507797 5.360000000000
117.017211437225 5.260000000000
117.413211345673 5.290000000000
117.806211471558 5.340000000000
118.199211359024 5.340000000000
118.593211412430 5.310000000000
118.990211486816 4.960000000000
119.201211452484 4.960000000000
119.590211391449 5.400000000000
119.982211351395 5.340000000000
120.021211385727 23.540000000000
