# time throughput
0.280211448669 15.700000000000
0.567211389542 10.970000000000
0.862211465836 10.670000000000
1.156211376190 10.670000000000
1.450211524963 10.280000000000
1.748211383820 10.520000000000
2.045211315155 10.610000000000
2.346211433411 10.440000000000
2.639211416245 10.730000000000
2.839211463928 10.480000000000
3.139211416245 10.510000000000
3.439211368561 10.490000000000
3.727211475372 10.460000000000
4.020211458206 10.740000000000
4.314211368561 10.680000000000
4.521211385727 10.160000000000
4.731211423874 9.970000000000
5.031211376190 10.500000000000
5.330211400986 10.500000000000
5.629211425781 10.520000000000
5.830211400986 9.820000000000
6.035211324692 10.210000000000
6.238211393356 10.310000000000
6.439211368561 10.430000000000
6.738211393356 10.530000000000
7.033211469650 10.670000000000
7.234211444855 10.430000000000
7.534211397171 10.490000000000
7.829211473465 10.650000000000
8.128211498260 10.100000000000
8.328211307526 10.480000000000
8.626211404800 10.530000000000
8.924211502075 10.560000000000
9.128211498260 10.270000000000
9.422211408615 10.730000000000
9.623211383820 10.400000000000
9.828211307526 10.250000000000
10.122211456299 10.260000000000
10.323211431503 10.410000000000
10.524211406708 10.450000000000
10.725211381912 10.410000000000
11.023211479187 10.550000000000
11.226211309433 10.330000000000
11.522211313248 10.650000000000
11.816211462021 10.680000000000
12.017211437225 10.460000000000
12.323211431503 9.840000000000
12.603211402893 11.230000000000
12.898211479187 10.670000000000
13.195211410522 10.610000000000
13.489211320877 10.690000000000
13.690211534500 10.460000000000
13.893211364746 10.340000000000
14.093211412430 10.450000000000
14.295211315155 10.400000000000
14.597211360931 9.990000000000
14.891211509705 10.670000000000
15.092211484909 10.460000000000
15.294211387634 10.390000000000
15.590211391449 10.630000000000
15.888211488724 10.550000000000
16.184211492538 10.600000000000
16.479211330414 10.660000000000
16.683211326599 9.660000000000
16.975211381912 10.780000000000
17.177211523056 10.390000000000
17.465211391449 10.910000000000
17.761211395264 10.630000000000
17.961211442947 10.450000000000
18.162211418152 10.460000000000
18.454211473465 10.770000000000
18.749211311340 10.230000000000
18.955211400986 10.170000000000
19.251211404800 10.620000000000
19.546211481094 10.670000000000
19.846211433411 10.490000000000
20.139211416245 10.720000000000
20.434211492538 10.680000000000
20.635211467743 10.440000000000
20.930211544037 10.220000000000
21.139211416245 10.000000000000
21.428211450577 10.880000000000
21.723211526871 10.690000000000
22.017211437225 10.690000000000
22.222211360931 10.210000000000
22.423211336136 10.440000000000
22.718211412430 10.680000000000
22.919211387634 10.410000000000
23.211211442947 10.320000000000
23.416211366653 10.220000000000
23.702211380005 11.010000000000
24.000211477280 10.540000000000
24.294211387634 10.710000000000
24.495211362839 10.420000000000
24.790211439133 10.680000000000
25.084211349487 10.690000000000
25.381211519241 10.170000000000
25.675211429596 10.690000000000
25.973211526871 10.570000000000
26.271211385727 10.540000000000
26.566211462021 10.690000000000
26.864211320877 10.530000000000
27.158211469650 10.730000000000
27.360211372375 9.730000000000
27.658211469650 10.540000000000
27.951211452484 10.730000000000
28.152211427689 10.460000000000
28.446211338043 10.690000000000
28.748211383820 10.430000000000
29.036211490631 10.910000000000
29.330211400986 10.690000000000
29.625211477280 10.240000000000
29.920211315155 10.660000000000
30.125211477280 10.220000000000
30.416211366653 10.820000000000
30.714211463928 10.550000000000
30.916211366653 10.380000000000
31.210211515427 10.700000000000
31.505211353302 10.680000000000
31.705211400986 9.810000000000
32.000211477280 10.680000000000
32.200211524963 10.450000000000
32.401211500168 10.450000000000
32.602211475372 10.430000000000
32.897211313248 10.670000000000
33.192211389542 10.650000000000
33.490211486816 10.540000000000
33.792211532593 10.420000000000
34.080211400986 10.490000000000
34.285211324692 10.240000000000
34.581211328506 10.600000000000
34.879211425781 10.570000000000
35.173211336136 10.690000000000
35.374211311340 10.460000000000
35.667211532593 10.710000000000
35.869211435318 10.400000000000
36.071211338043 9.760000000000
36.271211385727 10.470000000000
36.567211389542 10.620000000000
36.866211414337 10.540000000000
37.166211366653 10.480000000000
37.482211351395 9.960000000000
37.775211334229 10.720000000000
38.070211410522 10.670000000000
38.365211486816 10.240000000000
38.661211490631 10.630000000000
38.861211538315 10.460000000000
39.062211513519 10.410000000000
39.358211517334 10.660000000000
39.558211326599 10.450000000000
39.860211372375 10.410000000000
40.147211313248 10.970000000000
40.442211389542 10.240000000000
40.737211465836 10.640000000000
40.947211503983 10.000000000000
41.234211444855 10.960000000000
41.435211420059 10.440000000000
41.636211395264 10.420000000000
41.837211370468 10.460000000000
42.135211467743 10.540000000000
42.336211442947 10.440000000000
42.630211353302 10.240000000000
42.836211442947 10.190000000000
43.036211490631 10.480000000000
43.238211393356 10.380000000000
43.535211324692 10.590000000000
43.829211473465 10.690000000000
44.130211353302 10.460000000000
44.424211502075 10.710000000000
44.719211339951 10.200000000000
44.933211326599 9.810000000000
45.228211402893 10.670000000000
45.431211471558 10.340000000000
45.727211475372 10.630000000000
46.022211313248 10.670000000000
46.316211462021 10.680000000000
46.614211320877 10.570000000000
46.909211397171 10.230000000000
47.111211538315 10.390000000000
47.405211448669 10.680000000000
47.700211524963 10.680000000000
47.996211528778 10.630000000000
48.293211460114 10.580000000000
48.588211536407 10.680000000000
48.882211446762 10.680000000000
49.175211429596 10.280000000000
49.475211381912 10.490000000000
49.771211385727 10.630000000000
50.065211534500 10.690000000000
50.360211372375 10.680000000000
50.560211420059 10.480000000000
50.760211467743 10.460000000000
50.961211442947 10.440000000000
51.258211374283 10.170000000000
51.553211450577 10.640000000000
51.851211309433 10.560000000000
52.052211523056 10.470000000000
52.264211416245 9.880000000000
52.569211483002 10.310000000000
52.861211538315 10.770000000000
53.159211397171 10.560000000000
53.459211349487 10.050000000000
53.754211425781 10.650000000000
54.048211336136 10.720000000000
54.253211498260 10.230000000000
54.547211408615 10.680000000000
54.845211505890 10.560000000000
55.138211488724 10.740000000000
55.434211492538 10.650000000000
55.634211540222 9.830000000000
55.928211450577 10.700000000000
56.129211425781 10.400000000000
56.423211336136 10.710000000000
56.722211360931 10.530000000000
56.923211336136 10.450000000000
57.218211412430 10.660000000000
57.521211385727 10.380000000000
57.723211526871 9.720000000000
57.926211357117 10.350000000000
58.218211412430 10.770000000000
58.512211322784 10.690000000000
58.813211441040 10.450000000000
59.102211475372 10.890000000000
59.306211471558 10.290000000000
59.511211395264 10.200000000000
59.809211492538 10.110000000000
60.010211467743 10.460000000000
60.218211412430 10.070000000000
60.420211315155 10.400000000000
60.713211536407 10.720000000000
60.928211450577 9.780000000000
61.219211339951 10.820000000000
61.419211387634 10.440000000000
61.717211484909 10.560000000000
62.016211509705 10.080000000000
62.306211471558 10.850000000000
62.602211475372 10.660000000000
62.809211492538 10.100000000000
63.106211423874 10.590000000000
63.306211471558 10.470000000000
63.509211540222 10.340000000000
63.712211370468 10.350000000000
63.916211366653 10.270000000000
64.117211341858 10.430000000000
64.319211483002 9.760000000000
64.615211486816 10.630000000000
64.914211511612 10.520000000000
65.203211307526 10.880000000000
65.497211456299 10.680000000000
65.800211429596 10.400000000000
66.003211498260 10.310000000000
66.298211336136 10.670000000000
66.593211412430 10.230000000000
66.793211460114 10.450000000000
67.087211370468 10.720000000000
67.383211374283 10.620000000000
67.585211515427 10.390000000000
67.875211477280 10.840000000000
68.170211315155 10.670000000000
68.466211318970 10.190000000000
68.759211540222 10.730000000000
69.062211513519 10.400000000000
69.271211385727 10.010000000000
69.553211450577 11.170000000000
69.846211433411 10.720000000000
70.149211406708 10.390000000000
70.353211402893 10.290000000000
70.645211458206 10.310000000000
70.849211454391 10.280000000000
71.140211343765 10.830000000000
71.434211492538 10.680000000000
71.729211330414 10.660000000000
71.930211544037 10.430000000000
72.146211385727 9.730000000000
72.440211534500 10.690000000000
72.738211393356 10.580000000000
73.036211490631 10.120000000000
73.338211536407 10.400000000000
73.633211374283 10.670000000000
73.934211492538 10.460000000000
74.225211381912 10.800000000000
74.426211357117 10.400000000000
74.727211475372 10.470000000000
74.934211492538 10.150000000000
75.138211488724 9.620000000000
75.448211431503 10.130000000000
75.737211465836 10.910000000000
76.032211542130 10.640000000000
76.234211444855 10.410000000000
76.434211492538 10.490000000000
76.729211330414 10.650000000000
76.930211544037 10.450000000000
77.227211475372 10.130000000000
77.522211313248 10.680000000000
77.817211389542 10.670000000000
78.113211393356 10.610000000000
78.319211483002 10.190000000000
78.611211538315 10.780000000000
78.905211448669 10.690000000000
79.200211524963 10.660000000000
79.497211456299 10.150000000000
79.793211460114 10.640000000000
80.095211505890 10.420000000000
80.385211467743 10.850000000000
80.684211492538 10.520000000000
80.978211402893 10.690000000000
81.273211479187 10.660000000000
81.568211317062 10.230000000000
81.862211465836 10.680000000000
82.157211542130 10.670000000000
82.453211307526 10.650000000000
82.746211528778 10.720000000000
82.947211503983 10.430000000000
83.148211479187 10.460000000000
83.446211338043 10.550000000000
83.741211414337 10.200000000000
84.045211315155 10.380000000000
84.333211421967 10.890000000000
84.627211332321 10.700000000000
84.828211307526 10.450000000000
85.123211383820 10.680000000000
85.417211532593 10.690000000000
85.714211463928 10.590000000000
85.925211429596 9.310000000000
86.224211454391 10.540000000000
86.520211458206 10.630000000000
86.812211513519 10.760000000000
87.013211488724 10.400000000000
87.309211492538 10.650000000000
87.510211467743 10.410000000000
87.808211326599 10.570000000000
88.102211475372 10.270000000000
88.396211385727 10.690000000000
88.602211475372 10.190000000000
88.894211530685 10.760000000000
89.190211534500 10.640000000000
89.391211509705 10.400000000000
89.688211441040 10.600000000000
89.890211343765 10.370000000000
90.182211399078 10.330000000000
90.385211467743 10.340000000000
90.676211357117 10.790000000000
90.879211425781 10.370000000000
91.079211473465 10.480000000000
91.376211404800 10.560000000000
91.673211336136 10.590000000000
91.968211412430 10.680000000000
92.262211322784 10.270000000000
92.464211463928 10.370000000000
92.763211488724 10.520000000000
93.054211378098 10.820000000000
93.352211475372 10.530000000000
93.648211479187 10.650000000000
93.949211359024 10.450000000000
94.155211448669 10.180000000000
94.357211351395 10.360000000000
94.558211326599 9.800000000000
94.858211517334 10.480000000000
95.168211460114 10.160000000000
95.451211452484 11.100000000000
95.746211528778 10.690000000000
96.040211439133 10.680000000000
96.240211486816 10.490000000000
96.548211336136 10.220000000000
96.843211412430 10.230000000000
97.142211437225 10.500000000000
97.439211368561 10.600000000000
97.643211364746 10.300000000000
97.939211368561 10.630000000000
98.233211517334 10.680000000000
98.527211427689 10.710000000000
98.727211475372 10.490000000000
98.927211523056 9.800000000000
99.225211381912 10.550000000000
99.429211378098 10.320000000000
99.726211309433 10.580000000000
100.036211490631 10.160000000000
100.319211483002 11.110000000000
100.614211320877 10.670000000000
100.908211469650 10.240000000000
101.202211380005 10.710000000000
101.402211427689 10.480000000000
101.696211338043 10.690000000000
101.994211435318 10.570000000000
102.289211511612 10.680000000000
102.588211536407 10.490000000000
102.889211416245 10.470000000000
103.187211513519 10.110000000000
103.482211351395 10.690000000000
103.776211500168 10.680000000000
103.977211475372 10.410000000000
104.271211385727 10.720000000000
104.571211338043 10.500000000000
104.771211385727 10.470000000000
105.066211462021 10.670000000000
105.270211458206 9.620000000000
105.477211475372 10.160000000000
105.677211523056 10.470000000000
105.974211454391 10.600000000000
106.270211458206 10.620000000000
106.567211389542 10.580000000000
106.768211364746 10.430000000000
107.063211441040 10.680000000000
107.267211437225 10.280000000000
107.556211471558 10.430000000000
107.757211446762 10.400000000000
108.046211481094 10.910000000000
108.252211332321 10.190000000000
108.549211502075 10.590000000000
108.844211339951 10.650000000000
109.140211343765 10.630000000000
109.433211326599 10.720000000000
109.730211496353 10.160000000000
110.030211448669 10.480000000000
110.324211359024 10.700000000000
110.527211427689 10.350000000000
110.824211359024 10.590000000000
111.118211507797 10.720000000000
111.417211532593 10.490000000000
111.619211435318 10.380000000000
111.913211345673 10.270000000000
112.211211442947 10.560000000000
112.503211498260 10.770000000000
112.708211421967 10.250000000000
112.999211311340 10.790000000000
113.294211387634 10.670000000000
113.497211456299 10.350000000000
113.699211359024 10.360000000000
113.994211435318 10.240000000000
114.287211418152 10.710000000000
114.583211421967 10.620000000000
114.877211332321 10.720000000000
115.176211357117 10.520000000000
115.478211402893 10.400000000000
115.774211406708 10.650000000000
116.075211524963 10.000000000000
116.370211362839 10.680000000000
116.667211532593 10.570000000000
116.965211391449 10.570000000000
117.265211343765 10.480000000000
117.558211326599 10.720000000000
117.853211402893 10.670000000000
118.146211385727 10.280000000000
118.443211317062 10.590000000000
118.743211507797 10.500000000000
119.040211439133 10.590000000000
119.246211528778 10.180000000000
119.542211532593 10.630000000000
119.838211536407 10.620000000000
120.005211353302 11.830000000000
