# time delivery_rate
0.110924005508 3.777224000000
0.220708131790 4.502864000000
0.330505371094 5.245528000000
0.440784692764 6.388992000000
0.551415443420 7.463672000000
0.661195755005 9.025904000000
0.770564317703 10.541512000000
0.880968093872 12.786696000000
0.992266416550 15.486120000000
1.103009462357 17.668272000000
1.213479518890 21.773728000000
1.320647716522 24.435784000000
1.428714036942 24.614160000000
1.534275770187 25.044992000000
1.640496969223 28.083088000000
1.749893188477 21.547168000000
1.859824180603 21.751296000000
1.967764139175 28.992520000000
2.080120563507 30.224712000000
2.189464569092 29.888544000000
2.298907756805 30.049280000000
2.409648180008 29.296392000000
2.515305995941 28.732264000000
2.622092485428 28.781712000000
2.731610536575 30.559264000000
2.842276811600 30.597104000000
2.953021526337 30.179200000000
3.060866355896 29.353456000000
3.168911695480 31.878912000000
3.279438972473 31.025104000000
3.385890245438 22.790856000000
3.495267629623 23.653912000000
3.602964162827 23.069784000000
3.713128089905 23.244184000000
3.822645902634 22.967664000000
3.931851148605 25.036240000000
4.041776180267 25.246880000000
4.151300191879 25.251576000000
4.258397102356 25.434880000000
4.363969802856 18.660760000000
4.470393896103 19.248032000000
4.577863693237 18.865384000000
4.689083814621 19.116560000000
4.799289941788 21.088408000000
4.905666112900 21.182168000000
5.016958236694 20.845072000000
5.125202655792 20.398232000000
5.233634710312 15.661704000000
5.344435214996 15.611416000000
5.452328205109 15.499144000000
5.560676574707 17.390776000000
5.666049480438 17.545376000000
5.774286508560 17.864800000000
5.881562948227 18.089400000000
5.988335371017 13.366792000000
6.097146749496 13.284400000000
6.206469774246 13.555328000000
6.315951108932 14.003400000000
6.423602581024 14.866440000000
6.533675432205 15.173096000000
6.643959760666 15.566840000000
6.751677274704 16.139544000000
6.862940073013 17.316888000000
6.975280046463 17.056512000000
7.084314584732 17.351416000000
7.192299127579 18.476328000000
7.301198005676 19.819232000000
7.410946846008 19.790432000000
7.524062871933 20.068400000000
7.635506153107 19.815360000000
7.746720790863 21.852736000000
7.854976415634 21.984816000000
7.965672969818 22.202824000000
8.071358442307 22.324144000000
8.181965351105 24.778608000000
8.293337821960 24.321224000000
8.401260375977 24.489080000000
8.510972738266 24.446960000000
8.619885206223 25.027056000000
8.729095220566 26.591672000000
8.835788726807 26.417328000000
8.946974039078 26.513928000000
9.055060625076 28.840688000000
9.164757966995 28.764328000000
9.273100614548 28.722544000000
9.380588293076 28.035312000000
9.486905097961 29.252520000000
9.596226692200 30.034040000000
9.704907178879 30.036024000000
9.811608552933 32.550752000000
9.922291755676 32.284840000000
10.032141685486 31.983768000000
10.141064643860 32.188504000000
10.252297163010 34.211656000000
10.362859010696 34.149776000000
10.474222421646 34.031872000000
10.584361791611 36.007248000000
10.690610885620 35.499456000000
10.799685955048 35.421136000000
10.906898260117 36.065152000000
11.016264915466 38.438000000000
11.125777482986 38.150696000000
11.236164093018 37.773200000000
11.346272945404 16.977864000000
11.458351135254 20.468440000000
11.567015409470 21.786432000000
11.673701047897 22.560320000000
11.781467437744 22.699816000000
11.889356613159 23.150976000000
11.997266292572 23.831304000000
12.107861042023 24.088568000000
12.215404272079 24.846744000000
12.325284719467 26.866120000000
12.434834718704 27.168192000000
12.544929504395 27.497208000000
12.652870655060 29.373056000000
12.765407800674 29.723272000000
12.877987623215 29.856488000000
12.985766649246 32.430200000000
13.095334768295 31.677320000000
13.206357717514 31.571928000000
13.317622423172 31.892512000000
13.429950237274 34.102048000000
13.536319494247 34.155584000000
13.647277116776 34.131192000000
13.755407333374 35.311992000000
13.864792346954 35.243448000000
13.976644277573 34.413592000000
14.086324930191 25.770096000000
14.192852258682 26.919464000000
14.302505493164 26.927792000000
14.410025596619 26.288432000000
14.516849756241 26.497656000000
14.626772165298 19.609256000000
14.736772298813 20.148416000000
14.846802711487 19.814688000000
14.956939697266 20.049352000000
15.065249443054 19.832872000000
15.172383069992 22.163704000000
15.283057689667 22.060304000000
15.391362428665 22.256152000000
15.502037048340 22.369096000000
15.608894109726 23.897536000000
15.719085216522 23.337192000000
15.826709270477 23.518872000000
15.936326742172 24.874520000000
16.044571399689 25.099360000000
16.152956962585 25.421624000000
16.260045051575 27.003112000000
16.370512962341 27.121832000000
16.478110790253 27.238152000000
16.589561223984 27.499488000000
16.697139263153 28.430160000000
16.805767297745 28.615024000000
16.913226604462 33.087688000000
17.023798942566 32.787592000000
17.134042263031 32.552944000000
17.243537425995 32.447232000000
17.354484558105 31.972960000000
17.465096473694 32.038056000000
17.572582006454 22.164488000000
17.680315256119 24.761424000000
17.786864042282 24.893512000000
17.897991657257 25.004896000000
18.006634950638 27.038568000000
18.115729093552 27.512248000000
18.228558540344 27.146632000000
18.339244127274 27.299288000000
18.445924758911 27.404168000000
18.552629470825 28.862424000000
18.661369800568 28.513656000000
18.772504568100 29.879624000000
18.880341768265 30.566392000000
18.990168809891 30.283240000000
19.098401069641 30.263080000000
19.207186698914 33.010848000000
19.315473556519 32.616320000000
19.425361633301 32.658208000000
19.535236597061 32.110424000000
19.642403602600 32.129576000000
19.751173496246 22.306944000000
19.860982656479 24.446696000000
19.968623399734 24.620616000000
20.077873468399 24.708368000000
20.186572790146 24.939328000000
20.297542095184 27.607400000000
20.408586740494 27.217416000000
20.516486644745 27.234344000000
20.622834920883 20.086872000000
20.733322143555 21.026048000000
20.843369483948 20.707776000000
20.950568675995 20.919184000000
21.061575889587 20.455696000000
21.170892953873 22.253576000000
21.281349182129 22.256152000000
21.387638807297 22.504440000000
21.495855569839 23.007584000000
21.608110904694 25.194448000000
21.717275142670 24.605768000000
21.825252294540 24.626808000000
21.934347867966 25.010432000000
22.040836811066 26.727424000000
22.152316570282 26.863344000000
22.260108232498 27.075208000000
22.366124153137 27.129560000000
22.472688436508 27.878880000000
22.579459667206 27.734520000000
22.690375804901 21.499368000000
22.802073478699 21.562280000000
22.910201787949 21.545552000000
23.021085739136 21.836000000000
23.131825923920 15.471976000000
23.244644165039 16.487328000000
23.353352069855 16.758976000000
23.462512731552 18.133232000000
23.571110248566 18.188944000000
23.679497003555 18.461080000000
23.787292480469 18.685944000000
23.895526647568 21.061176000000
24.005216598511 21.482008000000
24.111942052841 20.879352000000
24.222747087479 21.270288000000
24.332964420319 21.327376000000
24.444428205490 21.666624000000
24.550300121307 23.149480000000
24.659933328629 23.319576000000
24.767024755478 23.015200000000
24.873827934265 25.656696000000
24.981782913208 25.850304000000
25.092839479446 25.872688000000
25.201732635498 25.935296000000
25.312397718430 25.715072000000
25.419733047485 27.618640000000
25.529832601547 27.644416000000
25.640995979309 27.619184000000
25.746481418610 12.045200000000
25.855536460876 21.067376000000
25.964183092117 21.093576000000
26.069618225098 21.173808000000
26.178303241730 21.735976000000
26.287149906158 23.686392000000
26.396957397461 23.732296000000
26.503948450089 23.834064000000
26.612653732300 25.082392000000
26.722446680069 25.312936000000
26.833001375198 25.429240000000
26.942909955978 24.545032000000
27.054522752762 19.039208000000
27.165163993835 18.659680000000
27.272350788116 19.006280000000
27.380715370178 18.714576000000
27.491484880447 20.665416000000
27.604169130325 20.665472000000
27.709307670593 20.870896000000
27.818289518356 21.110664000000
27.931406497955 22.532448000000
28.042035341263 22.263696000000
28.150459289551 22.407424000000
28.259640455246 24.115888000000
28.368646621704 24.458336000000
28.479837179184 24.634392000000
28.590410470963 17.155616000000
28.698780536652 18.870288000000
28.812489986420 19.052624000000
28.920703887939 18.721352000000
29.026780605316 21.573032000000
29.137408971786 21.481360000000
29.246218442917 21.512224000000
29.357269763947 21.176120000000
29.468639135361 21.416392000000
29.578505277634 22.136064000000
29.692658901215 23.250744000000
29.803295373917 23.388520000000
29.909093618393 23.534080000000
30.017999410629 23.744280000000
30.129009485245 25.183344000000
30.240064144135 25.210728000000
30.351701498032 25.272760000000
30.462154150009 18.412352000000
30.575348854065 19.438488000000
30.685571908951 19.734800000000
30.796578884125 19.814816000000
30.905677795410 22.683840000000
31.013721466064 22.684744000000
31.124619007111 22.213488000000
31.232402324677 22.253008000000
31.342587947845 21.989608000000
31.449977636337 24.437344000000
31.556375026703 24.164792000000
31.663483858109 24.303016000000
31.772600412369 23.923864000000
31.882196426392 24.165128000000
31.990459442139 26.196744000000
32.101788759232 26.134232000000
32.213816642761 25.770856000000
32.321339368820 19.233392000000
32.431544780731 20.127416000000
32.543676376343 20.428008000000
32.653266191483 20.527632000000
32.763016939163 22.093448000000
32.874409437180 21.826648000000
32.983134984970 22.261808000000
33.090191364288 22.374656000000
33.201376199722 24.432184000000
33.313648462296 24.346072000000
33.424527168274 23.898904000000
33.536405086517 23.938560000000
33.645073652267 24.289128000000
33.756876230240 26.436648000000
33.868579626083 26.550536000000
33.976069211960 26.731048000000
34.084588289261 25.423224000000
34.195159912109 19.643656000000
34.302303552628 20.511432000000
34.412187099457 20.101536000000
34.520470857620 20.684560000000
34.631410360336 22.522352000000
34.740255117416 22.720928000000
34.847997188568 22.917864000000
34.956545591354 22.589072000000
35.063934326172 24.517840000000
35.172556877136 24.692240000000
35.279614925385 24.231568000000
35.392031192780 24.206984000000
35.500916719437 16.633560000000
35.607890367508 18.150416000000
35.715473890305 18.328072000000
35.822078227997 18.017552000000
35.929970026016 19.880216000000
36.037961244583 20.133824000000
36.147437810898 20.379896000000
36.259374380112 20.614392000000
36.369045734406 21.702408000000
36.476713895798 21.751512000000
36.582885265350 21.908880000000
36.690242290497 22.613008000000
36.801055908203 24.850216000000
36.912448883057 24.985888000000
37.024641036987 24.858368000000
37.135895967484 24.411032000000
37.246274232864 17.554464000000
37.353914737701 18.587504000000
37.464265108109 18.848448000000
37.570790290833 19.052104000000
37.679250001907 20.524912000000
37.790972948074 20.780216000000
37.898540258408 20.359080000000
38.005541086197 21.761416000000
38.113481998444 21.963248000000
38.223225831985 21.804568000000
38.333818435669 23.875392000000
38.442991018295 23.550184000000
38.550749778748 23.653552000000
38.660706520081 23.820152000000
38.772516250610 25.966192000000
38.882298469543 25.883064000000
38.990926742554 26.040232000000
39.100872278214 25.646048000000
39.208161830902 29.095720000000
39.316934823990 28.666504000000
39.424900054932 28.649352000000
39.532483577728 28.652312000000
39.638637065887 28.198168000000
39.748790979385 29.956896000000
39.858293294907 29.943744000000
39.967122316360 30.012840000000
40.076791048050 31.430216000000
40.184028625488 31.240904000000
40.292857170105 32.544920000000
40.400595188141 34.149936000000
40.511262893677 34.204720000000
40.623146533966 33.903752000000
40.734060049057 33.172960000000
40.841184377670 23.260408000000
40.950853347778 26.571144000000
41.061621904373 26.344480000000
41.173020601273 26.582928000000
41.283861160278 26.877768000000
41.394167900085 29.167728000000
41.500001907349 29.195552000000
41.609253406525 28.631384000000
41.714735746384 29.783168000000
41.825210094452 30.317704000000
41.933477878571 30.474824000000
42.044922590256 29.834400000000
42.156626462936 31.880736000000
42.263486146927 31.549704000000
42.374987363815 31.652032000000
42.484182357788 34.900144000000
42.595582723618 33.998584000000
42.701919555664 34.154296000000
42.813230752945 34.009032000000
42.924657583237 33.356480000000
43.035155057907 35.044920000000
43.143052339554 35.002848000000
43.255463123322 36.033136000000
43.362123250961 37.999232000000
43.472525596619 37.844272000000
43.578636407852 37.267560000000
43.684299707413 36.981840000000
43.796179056168 24.363640000000
43.905495405197 29.203360000000
44.012383460999 29.088528000000
44.123360157013 28.870592000000
44.234521150589 29.625768000000
44.345217227936 31.696336000000
44.457402229309 31.765088000000
44.564487218857 31.104944000000
44.673644065857 31.353936000000
44.785480976105 33.332368000000
44.895626783371 33.281728000000
45.002116680145 33.359248000000
45.111226320267 35.061144000000
45.218459367752 34.941208000000
45.325836181641 34.902272000000
45.432634353638 35.907008000000
45.543484687805 36.943056000000
45.653105735779 36.405816000000
45.762072801590 35.806328000000
45.872368335724 35.719616000000
45.983556985855 37.981416000000
46.093500852585 37.184656000000
46.204904079437 37.375016000000
46.315597295761 40.054848000000
46.423030614853 39.908128000000
46.530694246292 39.409048000000
46.641601800919 35.756064000000
46.749318361282 30.943176000000
46.857261896133 30.709960000000
46.964246988297 31.430104000000
47.071495532990 31.336336000000
47.179448843002 31.167992000000
47.290474414825 31.226240000000
47.398526906967 24.794648000000
47.508870124817 23.887272000000
47.617916822433 23.919184000000
47.728440523148 23.520160000000
47.839679002762 23.735144000000
47.948828220367 24.061352000000
48.057009935379 25.733424000000
48.164524793625 25.504880000000
48.275218963623 25.557976000000
48.382321834564 26.256232000000
48.491511583328 27.855496000000
48.601856470108 27.202136000000
48.712480306625 27.453928000000
48.822224378586 29.388576000000
48.931155204773 29.734880000000
49.038175582886 29.703368000000
49.148011922836 29.408160000000
49.260373592377 31.311632000000
49.367122411728 31.340080000000
49.477383136749 31.529664000000
49.588424921036 31.575840000000
49.694659709930 33.836144000000
49.804336071014 33.450944000000
49.912901639938 33.341584000000
50.021723747253 28.046160000000
50.129916191101 25.643992000000
50.242021083832 26.153408000000
50.349760055542 26.100840000000
50.458802938461 26.305208000000
50.566293001175 26.542608000000
50.672770977020 28.012200000000
50.780955553055 27.834256000000
50.888073444366 27.992696000000
50.997332572937 30.665784000000
51.107647180557 30.566352000000
51.213329553604 30.434984000000
51.324132204056 30.171576000000
51.432642221451 30.235760000000
51.539628267288 32.045160000000
51.647399425507 31.777904000000
51.757791757584 31.229608000000
51.867881298065 32.630080000000
51.974817514420 32.777624000000
52.087889671326 32.623032000000
52.199022054672 32.387112000000
52.309142351151 33.795832000000
52.415423393250 33.720704000000
52.525075435638 33.922304000000
52.635300397873 36.706800000000
52.744039773941 36.583800000000
52.852004289627 36.316472000000
52.960895538330 36.446440000000
53.066901206970 36.031104000000
53.176278352737 37.250632000000
53.284204244614 34.187592000000
53.394340991974 28.913528000000
53.501374721527 29.215632000000
53.607682466507 29.291968000000
53.715178251266 29.371032000000
53.821470022202 29.065128000000
53.931312561035 22.876656000000
54.042310714722 22.923696000000
54.153365850449 22.592216000000
54.260320663452 22.742208000000
54.368280649185 21.801752000000
54.477383852005 16.926624000000
54.585732221603 16.751056000000
54.695529937744 16.915520000000
54.803802728653 17.342240000000
54.914461374283 17.794648000000
55.025604009628 18.073704000000
55.135576963425 18.505776000000
55.243738651276 19.377504000000
55.349893808365 19.843576000000
55.456346988678 21.488536000000
55.563359498978 21.673200000000
55.675527572632 21.626768000000
55.784052610397 21.854832000000
55.894586086273 24.594472000000
56.001543283463 24.600120000000
56.108784437180 24.143528000000
56.219681978226 22.225632000000
56.326911926270 18.155680000000
56.437716960907 18.338952000000
56.548964023590 18.626368000000
56.659381389618 13.817888000000
56.768789052963 14.358840000000
56.879738330841 13.953568000000
56.991016387939 10.515672000000
57.102321147919 10.453104000000
57.213481187820 10.903184000000
57.321586847305 12.648584000000
57.429888486862 12.908096000000
57.538007736206 13.319912000000
57.643867015839 13.097400000000
57.751358270645 13.131968000000
57.862154960632 9.799232000000
57.972610712051 10.370048000000
58.083770751953 11.480000000000
58.194935560226 11.240496000000
58.306628465652 11.593336000000
58.414662599564 12.187264000000
58.525344610214 12.618008000000
58.636584520340 12.930008000000
58.746949195862 14.729880000000
58.858184099197 14.984000000000
58.963858842850 15.242104000000
59.073968410492 15.558560000000
59.180806159973 15.447904000000
59.288775682449 16.719584000000
59.398143529892 17.001632000000
59.506295919418 17.312992000000
59.612801074982 17.362664000000
59.724124431610 20.258464000000
59.830559253693 19.853200000000
59.937224149704 19.975280000000
60.047310352325 20.130272000000
